[
  {
    "id": "103111",
    "name": "7. septembra",
    "center": true
  },
  {
    "id": "103112",
    "name": "7. septembra",
    "center": false
  },
  {
    "id": "505132",
    "name": "Adamičev spomenik",
    "center": true
  },
  {
    "id": "600022",
    "name": "Ajdovščina",
    "center": false
  },
  {
    "id": "503031",
    "name": "Akademija",
    "center": true
  },
  {
    "id": "503032",
    "name": "Akademija",
    "center": false
  },
  {
    "id": "502013",
    "name": "Ambrožev trg",
    "center": true
  },
  {
    "id": "502014",
    "name": "Ambrožev trg",
    "center": false
  },
  {
    "id": "103031",
    "name": "AMZS",
    "center": true
  },
  {
    "id": "103032",
    "name": "AMZS",
    "center": false
  },
  {
    "id": "804171",
    "name": "Andreja Bitenca",
    "center": true
  },
  {
    "id": "804172",
    "name": "Andreja Bitenca",
    "center": false
  },
  {
    "id": "300013",
    "name": "AP Ljubljana",
    "center": false
  },
  {
    "id": "303061",
    "name": "Archinetova",
    "center": true
  },
  {
    "id": "303062",
    "name": "Archinetova",
    "center": false
  },
  {
    "id": "101051",
    "name": "Astra",
    "center": true
  },
  {
    "id": "101052",
    "name": "Astra",
    "center": false
  },
  {
    "id": "602052",
    "name": "Aškerčeva",
    "center": false
  },
  {
    "id": "602051",
    "name": "Aškerčeva",
    "center": true
  },
  {
    "id": "803021",
    "name": "Avtomontaža",
    "center": true
  },
  {
    "id": "803022",
    "name": "Avtomontaža",
    "center": false
  },
  {
    "id": "604022",
    "name": "Barje",
    "center": false
  },
  {
    "id": "604023",
    "name": "Barje",
    "center": true
  },
  {
    "id": "600011",
    "name": "Bavarski dvor (Korabar)",
    "center": false
  },
  {
    "id": "600012",
    "name": "Bavarski dvor (Kozolec)",
    "center": false
  },
  {
    "id": "725092",
    "name": "Belica",
    "center": false
  },
  {
    "id": "725091",
    "name": "Belica",
    "center": true
  },
  {
    "id": "204141",
    "name": "Belinka",
    "center": true
  },
  {
    "id": "204142",
    "name": "Belinka",
    "center": false
  },
  {
    "id": "204171",
    "name": "Beričevo",
    "center": true
  },
  {
    "id": "405051",
    "name": "Besnica ambulanta",
    "center": true
  },
  {
    "id": "405052",
    "name": "Besnica ambulanta",
    "center": false
  },
  {
    "id": "405061",
    "name": "Besnica kamnolom",
    "center": true
  },
  {
    "id": "405062",
    "name": "Besnica kamnolom",
    "center": false
  },
  {
    "id": "405021",
    "name": "Besnica/Lj.",
    "center": true
  },
  {
    "id": "405022",
    "name": "Besnica/Lj.",
    "center": false
  },
  {
    "id": "405031",
    "name": "Besnica/Lj.Š.",
    "center": true
  },
  {
    "id": "405032",
    "name": "Besnica/Lj.Š.",
    "center": false
  },
  {
    "id": "101031",
    "name": "Bežigrad",
    "center": true
  },
  {
    "id": "101032",
    "name": "Bežigrad",
    "center": false
  },
  {
    "id": "403072",
    "name": "Bilečanska",
    "center": false
  },
  {
    "id": "403071",
    "name": "Bilečanska",
    "center": true
  },
  {
    "id": "404121",
    "name": "Bizovik",
    "center": false
  },
  {
    "id": "404123",
    "name": "Bizovik",
    "center": true
  },
  {
    "id": "405041",
    "name": "Blaževo",
    "center": true
  },
  {
    "id": "405042",
    "name": "Blaževo",
    "center": false
  },
  {
    "id": "504121",
    "name": "Bobrova",
    "center": true
  },
  {
    "id": "504122",
    "name": "Bobrova",
    "center": false
  },
  {
    "id": "704041",
    "name": "Bokalce",
    "center": true
  },
  {
    "id": "402041",
    "name": "Bolnica",
    "center": true
  },
  {
    "id": "402042",
    "name": "Bolnica",
    "center": false
  },
  {
    "id": "802041",
    "name": "Bolnica P. Držaja",
    "center": true
  },
  {
    "id": "802042",
    "name": "Bolnica P. Držaja",
    "center": false
  },
  {
    "id": "703102",
    "name": "Bonifacija",
    "center": false
  },
  {
    "id": "703101",
    "name": "Bonifacija",
    "center": true
  },
  {
    "id": "103191",
    "name": "Božičeva",
    "center": true
  },
  {
    "id": "103192",
    "name": "Božičeva",
    "center": false
  },
  {
    "id": "203181",
    "name": "Bratislavska",
    "center": true
  },
  {
    "id": "203182",
    "name": "Bratislavska",
    "center": false
  },
  {
    "id": "803161",
    "name": "Bratov Babnik",
    "center": true
  },
  {
    "id": "803162",
    "name": "Bratov Babnik",
    "center": false
  },
  {
    "id": "803132",
    "name": "Bratov Učakar",
    "center": false
  },
  {
    "id": "803131",
    "name": "Bratov Učakar",
    "center": true
  },
  {
    "id": "101061",
    "name": "Bratov Židan",
    "center": true
  },
  {
    "id": "101062",
    "name": "Bratov Židan",
    "center": false
  },
  {
    "id": "704022",
    "name": "Brdo",
    "center": false
  },
  {
    "id": "704021",
    "name": "Brdo",
    "center": true
  },
  {
    "id": "704024",
    "name": "Brdo",
    "center": false
  },
  {
    "id": "715112",
    "name": "Brezje pri Dobrovi",
    "center": false
  },
  {
    "id": "715111",
    "name": "Brezje pri Dobrovi",
    "center": true
  },
  {
    "id": "715102",
    "name": "Brezje pri Dobrovi And.",
    "center": false
  },
  {
    "id": "715101",
    "name": "Brezje pri Dobrovi And.",
    "center": true
  },
  {
    "id": "614022",
    "name": "Brglezov štradon",
    "center": false
  },
  {
    "id": "614021",
    "name": "Brglezov štradon",
    "center": true
  },
  {
    "id": "103021",
    "name": "Brinje",
    "center": true
  },
  {
    "id": "103022",
    "name": "Brinje",
    "center": false
  },
  {
    "id": "726022",
    "name": "Briše pri Polh.G.",
    "center": false
  },
  {
    "id": "726021",
    "name": "Briše pri Polh.G.",
    "center": true
  },
  {
    "id": "726032",
    "name": "Briše pri Polh.G.Koroš.",
    "center": false
  },
  {
    "id": "726031",
    "name": "Briše pri Polh.G.Koroš.",
    "center": true
  },
  {
    "id": "726042",
    "name": "Briše pri Polh.G.M.Voda",
    "center": false
  },
  {
    "id": "726041",
    "name": "Briše pri Polh.G.M.Voda",
    "center": true
  },
  {
    "id": "204121",
    "name": "Brnčičeva",
    "center": true
  },
  {
    "id": "804121",
    "name": "Brod",
    "center": true
  },
  {
    "id": "804122",
    "name": "Brod",
    "center": false
  },
  {
    "id": "303071",
    "name": "Brodarjev trg",
    "center": true
  },
  {
    "id": "303072",
    "name": "Brodarjev trg",
    "center": false
  },
  {
    "id": "505092",
    "name": "Brvace",
    "center": false
  },
  {
    "id": "505091",
    "name": "Brvace",
    "center": true
  },
  {
    "id": "203142",
    "name": "BTC-Emporium",
    "center": false
  },
  {
    "id": "203141",
    "name": "BTC-Emporium",
    "center": true
  },
  {
    "id": "203132",
    "name": "BTC-Kolosej",
    "center": false
  },
  {
    "id": "203131",
    "name": "BTC-Kolosej",
    "center": true
  },
  {
    "id": "203122",
    "name": "BTC-tržnica",
    "center": false
  },
  {
    "id": "203121",
    "name": "BTC-tržnica",
    "center": true
  },
  {
    "id": "203112",
    "name": "BTC-uprava",
    "center": false
  },
  {
    "id": "203111",
    "name": "BTC-uprava",
    "center": true
  },
  {
    "id": "826032",
    "name": "Bukovica Anzel",
    "center": false
  },
  {
    "id": "826031",
    "name": "Bukovica Anzel",
    "center": true
  },
  {
    "id": "826022",
    "name": "Bukovica Plevevc",
    "center": false
  },
  {
    "id": "826021",
    "name": "Bukovica Plevevc",
    "center": true
  },
  {
    "id": "726072",
    "name": "Butajnova",
    "center": true
  },
  {
    "id": "726071",
    "name": "Butajnova",
    "center": true
  },
  {
    "id": "726062",
    "name": "Butajnova Čamernik",
    "center": false
  },
  {
    "id": "726061",
    "name": "Butajnova Čamernik",
    "center": true
  },
  {
    "id": "726052",
    "name": "Butajnova Setnik",
    "center": false
  },
  {
    "id": "726051",
    "name": "Butajnova Setnik",
    "center": true
  },
  {
    "id": "602012",
    "name": "Cankarjev dom",
    "center": false
  },
  {
    "id": "602011",
    "name": "Cankarjev dom",
    "center": true
  },
  {
    "id": "614042",
    "name": "Capuder",
    "center": false
  },
  {
    "id": "614041",
    "name": "Capuder",
    "center": true
  },
  {
    "id": "103173",
    "name": "Center Stožice",
    "center": true
  },
  {
    "id": "104091",
    "name": "Cesta na Brod",
    "center": true
  },
  {
    "id": "104092",
    "name": "Cesta na Brod",
    "center": false
  },
  {
    "id": "304091",
    "name": "Cesta na Vevče",
    "center": true
  },
  {
    "id": "304092",
    "name": "Cesta na Vevče",
    "center": false
  },
  {
    "id": "404021",
    "name": "Cesta v Bizovik",
    "center": true
  },
  {
    "id": "404022",
    "name": "Cesta v Bizovik",
    "center": false
  },
  {
    "id": "404071",
    "name": "Cesta v Zavoglje",
    "center": true
  },
  {
    "id": "404072",
    "name": "Cesta v Zavoglje",
    "center": false
  },
  {
    "id": "703022",
    "name": "Cesta XV",
    "center": false
  },
  {
    "id": "703021",
    "name": "Cesta XV",
    "center": true
  },
  {
    "id": "304042",
    "name": "Chengdujska",
    "center": false
  },
  {
    "id": "304041",
    "name": "Chengdujska",
    "center": true
  },
  {
    "id": "505082",
    "name": "Cikava",
    "center": false
  },
  {
    "id": "505081",
    "name": "Cikava",
    "center": true
  },
  {
    "id": "803111",
    "name": "Čebelarska",
    "center": true
  },
  {
    "id": "803112",
    "name": "Čebelarska",
    "center": false
  },
  {
    "id": "103121",
    "name": "Čerinova",
    "center": true
  },
  {
    "id": "103122",
    "name": "Čerinova",
    "center": false
  },
  {
    "id": "737041",
    "name": "Črni Vrh",
    "center": true
  },
  {
    "id": "737032",
    "name": "Črni Vrh nad Vrhovci",
    "center": false
  },
  {
    "id": "737031",
    "name": "Črni Vrh nad Vrhovci",
    "center": true
  },
  {
    "id": "104161",
    "name": "Črnuče",
    "center": true
  },
  {
    "id": "725112",
    "name": "D.vas pri Polh.G.",
    "center": false
  },
  {
    "id": "725111",
    "name": "D.vas pri Polh.G.",
    "center": true
  },
  {
    "id": "600032",
    "name": "Dalmatinova",
    "center": false
  },
  {
    "id": "725012",
    "name": "Dobrova",
    "center": false
  },
  {
    "id": "725011",
    "name": "Dobrova",
    "center": true
  },
  {
    "id": "725014",
    "name": "Dobrova",
    "center": false
  },
  {
    "id": "725013",
    "name": "Dobrova",
    "center": true
  },
  {
    "id": "715062",
    "name": "Dobrova graben",
    "center": false
  },
  {
    "id": "715061",
    "name": "Dobrova graben",
    "center": true
  },
  {
    "id": "715082",
    "name": "Dobrova Maček",
    "center": false
  },
  {
    "id": "715081",
    "name": "Dobrova Maček",
    "center": true
  },
  {
    "id": "715092",
    "name": "Dobrova Skodlar",
    "center": false
  },
  {
    "id": "715091",
    "name": "Dobrova Skodlar",
    "center": true
  },
  {
    "id": "715072",
    "name": "Dobrova vodomet",
    "center": false
  },
  {
    "id": "715071",
    "name": "Dobrova vodomet",
    "center": true
  },
  {
    "id": "404031",
    "name": "Dobrunje",
    "center": true
  },
  {
    "id": "404032",
    "name": "Dobrunje",
    "center": false
  },
  {
    "id": "404142",
    "name": "Dobrunje pod Urhom",
    "center": false
  },
  {
    "id": "404141",
    "name": "Dobrunje pod Urhom",
    "center": true
  },
  {
    "id": "825072",
    "name": "Dobruša lipa",
    "center": false
  },
  {
    "id": "825071",
    "name": "Dobruša lipa",
    "center": true
  },
  {
    "id": "703112",
    "name": "Dolgi most",
    "center": false
  },
  {
    "id": "703111",
    "name": "Dolgi most",
    "center": true
  },
  {
    "id": "704011",
    "name": "Dolgi most - obračališče",
    "center": true
  },
  {
    "id": "704012",
    "name": "Dolgi most - obračališče izstop",
    "center": false
  },
  {
    "id": "704052",
    "name": "Dolgi most Rotar",
    "center": false
  },
  {
    "id": "704051",
    "name": "Dolgi most Rotar",
    "center": true
  },
  {
    "id": "505192",
    "name": "Dom obrtnikov",
    "center": true
  },
  {
    "id": "505182",
    "name": "Dom starejših",
    "center": true
  },
  {
    "id": "614032",
    "name": "Dornig",
    "center": false
  },
  {
    "id": "614031",
    "name": "Dornig",
    "center": true
  },
  {
    "id": "602022",
    "name": "Drama",
    "center": false
  },
  {
    "id": "602021",
    "name": "Drama",
    "center": true
  },
  {
    "id": "803152",
    "name": "Draveljska gmajna",
    "center": false
  },
  {
    "id": "803151",
    "name": "Draveljska gmajna",
    "center": true
  },
  {
    "id": "803041",
    "name": "Dravlje",
    "center": true
  },
  {
    "id": "803042",
    "name": "Dravlje",
    "center": false
  },
  {
    "id": "715012",
    "name": "Draževnik",
    "center": false
  },
  {
    "id": "715011",
    "name": "Draževnik",
    "center": true
  },
  {
    "id": "802051",
    "name": "Drenikova",
    "center": true
  },
  {
    "id": "802052",
    "name": "Drenikova",
    "center": true
  },
  {
    "id": "804352",
    "name": "Dvor",
    "center": false
  },
  {
    "id": "804351",
    "name": "Dvor",
    "center": true
  },
  {
    "id": "725102",
    "name": "Dvor pri Polh.G.",
    "center": false
  },
  {
    "id": "725101",
    "name": "Dvor pri Polh.G.",
    "center": true
  },
  {
    "id": "104061",
    "name": "Elma",
    "center": true
  },
  {
    "id": "104062",
    "name": "Elma",
    "center": false
  },
  {
    "id": "403051",
    "name": "Emona",
    "center": true
  },
  {
    "id": "403052",
    "name": "Emona",
    "center": false
  },
  {
    "id": "745022",
    "name": "Erbežnik",
    "center": false
  },
  {
    "id": "745021",
    "name": "Erbežnik",
    "center": true
  },
  {
    "id": "202082",
    "name": "Flajšmanova",
    "center": false
  },
  {
    "id": "301011",
    "name": "Friškovec",
    "center": true
  },
  {
    "id": "301012",
    "name": "Friškovec",
    "center": false
  },
  {
    "id": "304051",
    "name": "Fužine",
    "center": true
  },
  {
    "id": "725042",
    "name": "Gaberje pri Dob.Brvičar",
    "center": false
  },
  {
    "id": "725041",
    "name": "Gaberje pri Dob.Brvičar",
    "center": true
  },
  {
    "id": "725032",
    "name": "Gaberje pri Dobrovi",
    "center": false
  },
  {
    "id": "725031",
    "name": "Gaberje pri Dobrovi",
    "center": true
  },
  {
    "id": "603093",
    "name": "Galjevica",
    "center": true
  },
  {
    "id": "603094",
    "name": "Galjevica",
    "center": false
  },
  {
    "id": "104221",
    "name": "Gameljne",
    "center": true
  },
  {
    "id": "102031",
    "name": "Gasilska brigada",
    "center": true
  },
  {
    "id": "102032",
    "name": "Gasilska brigada",
    "center": false
  },
  {
    "id": "603022",
    "name": "Gerbičeva",
    "center": false
  },
  {
    "id": "603021",
    "name": "Gerbičeva",
    "center": true
  },
  {
    "id": "703082",
    "name": "Glince",
    "center": false
  },
  {
    "id": "703081",
    "name": "Glince",
    "center": true
  },
  {
    "id": "402051",
    "name": "Glonarjeva",
    "center": true
  },
  {
    "id": "402052",
    "name": "Glonarjeva",
    "center": false
  },
  {
    "id": "714022",
    "name": "Gmajna",
    "center": false
  },
  {
    "id": "714021",
    "name": "Gmajna",
    "center": true
  },
  {
    "id": "603151",
    "name": "Goluhova",
    "center": true
  },
  {
    "id": "603152",
    "name": "Goluhova",
    "center": false
  },
  {
    "id": "103091",
    "name": "Gorjančeva",
    "center": true
  },
  {
    "id": "103092",
    "name": "Gorjančeva",
    "center": false
  },
  {
    "id": "402061",
    "name": "Gornje Poljane",
    "center": true
  },
  {
    "id": "402062",
    "name": "Gornje Poljane",
    "center": false
  },
  {
    "id": "504011",
    "name": "Gornji Rudnik",
    "center": true
  },
  {
    "id": "504012",
    "name": "Gornji Rudnik",
    "center": false
  },
  {
    "id": "602101",
    "name": "Gornji trg",
    "center": true
  },
  {
    "id": "602102",
    "name": "Gornji trg",
    "center": false
  },
  {
    "id": "815102",
    "name": "Gostilna Kovač",
    "center": false
  },
  {
    "id": "815101",
    "name": "Gostilna Kovač",
    "center": true
  },
  {
    "id": "505141",
    "name": "Grosuplje",
    "center": true
  },
  {
    "id": "204021",
    "name": "GZL",
    "center": true
  },
  {
    "id": "204022",
    "name": "GZL",
    "center": false
  },
  {
    "id": "602032",
    "name": "Hajdrihova",
    "center": false
  },
  {
    "id": "602031",
    "name": "Hajdrihova",
    "center": true
  },
  {
    "id": "604042",
    "name": "Havptmance",
    "center": false
  },
  {
    "id": "604041",
    "name": "Havptmance",
    "center": true
  },
  {
    "id": "603131",
    "name": "Hladnikova",
    "center": true
  },
  {
    "id": "603132",
    "name": "Hladnikova",
    "center": false
  },
  {
    "id": "716012",
    "name": "Horjul",
    "center": false
  },
  {
    "id": "716011",
    "name": "Horjul",
    "center": true
  },
  {
    "id": "700012",
    "name": "Hotel Lev",
    "center": false
  },
  {
    "id": "101011",
    "name": "Hranilniška",
    "center": true
  },
  {
    "id": "101012",
    "name": "Hranilniška",
    "center": false
  },
  {
    "id": "725072",
    "name": "Hrastenice",
    "center": false
  },
  {
    "id": "725071",
    "name": "Hrastenice",
    "center": true
  },
  {
    "id": "204061",
    "name": "Hrastje",
    "center": true
  },
  {
    "id": "204062",
    "name": "Hrastje",
    "center": false
  },
  {
    "id": "816012",
    "name": "Hraše center",
    "center": false
  },
  {
    "id": "816011",
    "name": "Hraše center",
    "center": true
  },
  {
    "id": "816021",
    "name": "Hraše vzhod",
    "center": true
  },
  {
    "id": "816022",
    "name": "Hraše vzhod",
    "center": false
  },
  {
    "id": "815131",
    "name": "Hraše zahod",
    "center": true
  },
  {
    "id": "815132",
    "name": "Hraše zahod",
    "center": false
  },
  {
    "id": "725052",
    "name": "Hruševo",
    "center": false
  },
  {
    "id": "725051",
    "name": "Hruševo",
    "center": true
  },
  {
    "id": "404112",
    "name": "Hruševska",
    "center": false
  },
  {
    "id": "404111",
    "name": "Hruševska",
    "center": true
  },
  {
    "id": "404011",
    "name": "Hrušica",
    "center": true
  },
  {
    "id": "404012",
    "name": "Hrušica",
    "center": false
  },
  {
    "id": "402011",
    "name": "Hrvatski trg",
    "center": true
  },
  {
    "id": "402012",
    "name": "Hrvatski trg",
    "center": false
  },
  {
    "id": "625022",
    "name": "Ig",
    "center": false
  },
  {
    "id": "625021",
    "name": "Ig",
    "center": true
  },
  {
    "id": "605012",
    "name": "Ig AP",
    "center": false
  },
  {
    "id": "605011",
    "name": "Ig AP",
    "center": true
  },
  {
    "id": "605082",
    "name": "Ig Petrol",
    "center": false
  },
  {
    "id": "605081",
    "name": "Ig Petrol",
    "center": true
  },
  {
    "id": "501011",
    "name": "Ilirska",
    "center": true
  },
  {
    "id": "501012",
    "name": "Ilirska",
    "center": false
  },
  {
    "id": "603102",
    "name": "Ilovica",
    "center": false
  },
  {
    "id": "603101",
    "name": "Ilovica",
    "center": true
  },
  {
    "id": "804161",
    "name": "IMP",
    "center": true
  },
  {
    "id": "804162",
    "name": "IMP",
    "center": false
  },
  {
    "id": "625052",
    "name": "Iška vas",
    "center": false
  },
  {
    "id": "625051",
    "name": "Iška vas",
    "center": true
  },
  {
    "id": "626011",
    "name": "Iška vas obračališče",
    "center": true
  },
  {
    "id": "625061",
    "name": "Iška vas šola",
    "center": true
  },
  {
    "id": "625062",
    "name": "Iška vas šola",
    "center": false
  },
  {
    "id": "604012",
    "name": "Iški most",
    "center": false
  },
  {
    "id": "604011",
    "name": "Iški most",
    "center": true
  },
  {
    "id": "603121",
    "name": "Ižanska",
    "center": true
  },
  {
    "id": "603122",
    "name": "Ižanska",
    "center": false
  },
  {
    "id": "604061",
    "name": "Ižica",
    "center": true
  },
  {
    "id": "604062",
    "name": "Ižica",
    "center": false
  },
  {
    "id": "603012",
    "name": "Jadranska",
    "center": false
  },
  {
    "id": "603011",
    "name": "Jadranska",
    "center": true
  },
  {
    "id": "703032",
    "name": "Jamnikarjeva",
    "center": false
  },
  {
    "id": "703031",
    "name": "Jamnikarjeva",
    "center": true
  },
  {
    "id": "403011",
    "name": "Jana Husa",
    "center": true
  },
  {
    "id": "403012",
    "name": "Jana Husa",
    "center": false
  },
  {
    "id": "744021",
    "name": "Japelj",
    "center": true
  },
  {
    "id": "744022",
    "name": "Japelj",
    "center": false
  },
  {
    "id": "203091",
    "name": "Jarše",
    "center": true
  },
  {
    "id": "203092",
    "name": "Jarše",
    "center": false
  },
  {
    "id": "425012",
    "name": "Javor pri Sostrem K.",
    "center": false
  },
  {
    "id": "425011",
    "name": "Javor pri Sostrem K.",
    "center": true
  },
  {
    "id": "405011",
    "name": "Javor/K.",
    "center": true
  },
  {
    "id": "405012",
    "name": "Javor/K.",
    "center": false
  },
  {
    "id": "745061",
    "name": "Jezero",
    "center": true
  },
  {
    "id": "104181",
    "name": "Ježa",
    "center": true
  },
  {
    "id": "104182",
    "name": "Ježa",
    "center": false
  },
  {
    "id": "104031",
    "name": "Ježica",
    "center": true
  },
  {
    "id": "104032",
    "name": "Ježica",
    "center": false
  },
  {
    "id": "104033",
    "name": "Ježica",
    "center": true
  },
  {
    "id": "504041",
    "name": "Jurčkova",
    "center": true
  },
  {
    "id": "504042",
    "name": "Jurčkova",
    "center": false
  },
  {
    "id": "815112",
    "name": "Kajakaška",
    "center": false
  },
  {
    "id": "815111",
    "name": "Kajakaška",
    "center": true
  },
  {
    "id": "303022",
    "name": "Kajuhova",
    "center": true
  },
  {
    "id": "104021",
    "name": "Kališnikov trg",
    "center": true
  },
  {
    "id": "104022",
    "name": "Kališnikov trg",
    "center": false
  },
  {
    "id": "803181",
    "name": "Kamna Gorica",
    "center": true
  },
  {
    "id": "102091",
    "name": "Kardeljeva ploščad",
    "center": true
  },
  {
    "id": "102092",
    "name": "Kardeljeva ploščad",
    "center": false
  },
  {
    "id": "203052",
    "name": "Kavčičeva",
    "center": true
  },
  {
    "id": "203051",
    "name": "Kavčičeva",
    "center": false
  },
  {
    "id": "802021",
    "name": "Kino Šiška",
    "center": true
  },
  {
    "id": "802022",
    "name": "Kino Šiška",
    "center": false
  },
  {
    "id": "402031",
    "name": "Klinični center",
    "center": true
  },
  {
    "id": "402032",
    "name": "Klinični center",
    "center": false
  },
  {
    "id": "803082",
    "name": "Kneza Koclja",
    "center": false
  },
  {
    "id": "803081",
    "name": "Kneza Koclja",
    "center": true
  },
  {
    "id": "403023",
    "name": "Kodeljevo",
    "center": true
  },
  {
    "id": "403022",
    "name": "Kodeljevo",
    "center": false
  },
  {
    "id": "403021",
    "name": "Kodeljevo",
    "center": true
  },
  {
    "id": "403025",
    "name": "Kodeljevo - obračališče",
    "center": false
  },
  {
    "id": "203101",
    "name": "Kodrova",
    "center": true
  },
  {
    "id": "203102",
    "name": "Kodrova",
    "center": false
  },
  {
    "id": "700011",
    "name": "Kolizej",
    "center": true
  },
  {
    "id": "300011",
    "name": "Kolodvor",
    "center": true
  },
  {
    "id": "300012",
    "name": "Kolodvor",
    "center": false
  },
  {
    "id": "104101",
    "name": "Kolodvor Črnuče",
    "center": true
  },
  {
    "id": "104102",
    "name": "Kolodvor Črnuče",
    "center": false
  },
  {
    "id": "835021",
    "name": "Komandata Staneta",
    "center": true
  },
  {
    "id": "835022",
    "name": "Komandata Staneta",
    "center": false
  },
  {
    "id": "715022",
    "name": "Komanija",
    "center": false
  },
  {
    "id": "715021",
    "name": "Komanija",
    "center": true
  },
  {
    "id": "803031",
    "name": "Kompas",
    "center": true
  },
  {
    "id": "803032",
    "name": "Kompas",
    "center": false
  },
  {
    "id": "505172",
    "name": "Kongo",
    "center": true
  },
  {
    "id": "601012",
    "name": "Konzorcij",
    "center": false
  },
  {
    "id": "603041",
    "name": "Koprska",
    "center": true
  },
  {
    "id": "603044",
    "name": "Koprska",
    "center": false
  },
  {
    "id": "803142",
    "name": "Koseze",
    "center": false
  },
  {
    "id": "803141",
    "name": "Koseze",
    "center": true
  },
  {
    "id": "826111",
    "name": "Koseze",
    "center": true
  },
  {
    "id": "826112",
    "name": "Koseze",
    "center": false
  },
  {
    "id": "826121",
    "name": "Koseze Stare",
    "center": true
  },
  {
    "id": "826122",
    "name": "Koseze Stare",
    "center": false
  },
  {
    "id": "804081",
    "name": "Kosmačeva",
    "center": true
  },
  {
    "id": "804082",
    "name": "Kosmačeva",
    "center": false
  },
  {
    "id": "625042",
    "name": "Kot",
    "center": false
  },
  {
    "id": "625041",
    "name": "Kot",
    "center": true
  },
  {
    "id": "803212",
    "name": "Kovinarska",
    "center": false
  },
  {
    "id": "803211",
    "name": "Kovinarska",
    "center": true
  },
  {
    "id": "704102",
    "name": "Kozarje",
    "center": false
  },
  {
    "id": "704101",
    "name": "Kozarje",
    "center": true
  },
  {
    "id": "714012",
    "name": "Kozarje GD",
    "center": false
  },
  {
    "id": "714011",
    "name": "Kozarje GD",
    "center": true
  },
  {
    "id": "614082",
    "name": "Kozler",
    "center": false
  },
  {
    "id": "614081",
    "name": "Kozler",
    "center": true
  },
  {
    "id": "404051",
    "name": "KPL",
    "center": true
  },
  {
    "id": "404052",
    "name": "KPL",
    "center": false
  },
  {
    "id": "203211",
    "name": "Kranjčeva",
    "center": true
  },
  {
    "id": "501032",
    "name": "Krekov trg",
    "center": true
  },
  {
    "id": "501031",
    "name": "Krekov trg",
    "center": false
  },
  {
    "id": "603032",
    "name": "Krimska",
    "center": false
  },
  {
    "id": "603031",
    "name": "Krimska",
    "center": true
  },
  {
    "id": "602061",
    "name": "Križanke",
    "center": true
  },
  {
    "id": "602062",
    "name": "Križanke",
    "center": false
  },
  {
    "id": "404081",
    "name": "Križišče Sostro",
    "center": true
  },
  {
    "id": "404082",
    "name": "Križišče Sostro",
    "center": false
  },
  {
    "id": "404083",
    "name": "Križišče Sostro",
    "center": true
  },
  {
    "id": "404084",
    "name": "Križišče Sostro",
    "center": false
  },
  {
    "id": "404102",
    "name": "Krožna pot",
    "center": false
  },
  {
    "id": "404101",
    "name": "Krožna pot",
    "center": true
  },
  {
    "id": "536022",
    "name": "Krpan",
    "center": true
  },
  {
    "id": "101034",
    "name": "Kržičeva",
    "center": false
  },
  {
    "id": "804312",
    "name": "Kurirska",
    "center": false
  },
  {
    "id": "804311",
    "name": "Kurirska",
    "center": true
  },
  {
    "id": "727012",
    "name": "Kurja vas/Šentjoštu",
    "center": true
  },
  {
    "id": "727011",
    "name": "Kurja vas/Šentjoštu",
    "center": true
  },
  {
    "id": "603112",
    "name": "Lahova pot",
    "center": false
  },
  {
    "id": "603111",
    "name": "Lahova pot",
    "center": true
  },
  {
    "id": "406071",
    "name": "Lanišče",
    "center": true
  },
  {
    "id": "406072",
    "name": "Lanišče",
    "center": false
  },
  {
    "id": "504092",
    "name": "Lavrica",
    "center": false
  },
  {
    "id": "504091",
    "name": "Lavrica",
    "center": true
  },
  {
    "id": "504082",
    "name": "Lavrica pri Malči",
    "center": false
  },
  {
    "id": "504081",
    "name": "Lavrica pri Malči",
    "center": true
  },
  {
    "id": "204011",
    "name": "Leskoškova",
    "center": true
  },
  {
    "id": "204012",
    "name": "Leskoškova",
    "center": false
  },
  {
    "id": "204041",
    "name": "Letališka",
    "center": true
  },
  {
    "id": "204042",
    "name": "Letališka",
    "center": false
  },
  {
    "id": "204051",
    "name": "Letališka-obračališče",
    "center": true
  },
  {
    "id": "614072",
    "name": "Lipe",
    "center": false
  },
  {
    "id": "614071",
    "name": "Lipe",
    "center": true
  },
  {
    "id": "103201",
    "name": "Litostroj",
    "center": true
  },
  {
    "id": "803051",
    "name": "Litostrojska",
    "center": true
  },
  {
    "id": "803052",
    "name": "Litostrojska",
    "center": false
  },
  {
    "id": "603092",
    "name": "Livada",
    "center": false
  },
  {
    "id": "603091",
    "name": "Livada",
    "center": true
  },
  {
    "id": "304103",
    "name": "Lj. Vevče Papirnica",
    "center": true
  },
  {
    "id": "304102",
    "name": "Lj. Vevče Papirnica",
    "center": false
  },
  {
    "id": "716022",
    "name": "Ljubgojna",
    "center": false
  },
  {
    "id": "716021",
    "name": "Ljubgojna",
    "center": true
  },
  {
    "id": "404132",
    "name": "Ljubljana Dobrunje",
    "center": false
  },
  {
    "id": "404131",
    "name": "Ljubljana Dobrunje",
    "center": true
  },
  {
    "id": "404152",
    "name": "Ljubljana Zadvor",
    "center": false
  },
  {
    "id": "404151",
    "name": "Ljubljana Zadvor",
    "center": true
  },
  {
    "id": "505152",
    "name": "Ljubljanska",
    "center": true
  },
  {
    "id": "803061",
    "name": "Ljubljanske brigade",
    "center": true
  },
  {
    "id": "803062",
    "name": "Ljubljanske brigade",
    "center": false
  },
  {
    "id": "725082",
    "name": "Log pri Polh.G.",
    "center": false
  },
  {
    "id": "725081",
    "name": "Log pri Polh.G.",
    "center": true
  },
  {
    "id": "736012",
    "name": "Mačkov graben",
    "center": false
  },
  {
    "id": "736011",
    "name": "Mačkov graben",
    "center": true
  },
  {
    "id": "415061",
    "name": "Mali Lipoglav",
    "center": true
  },
  {
    "id": "505042",
    "name": "Mali vrh",
    "center": false
  },
  {
    "id": "505041",
    "name": "Mali vrh",
    "center": true
  },
  {
    "id": "103162",
    "name": "Maroltova",
    "center": true
  },
  {
    "id": "103161",
    "name": "Maroltova",
    "center": false
  },
  {
    "id": "804131",
    "name": "Martinova",
    "center": true
  },
  {
    "id": "804071",
    "name": "Medno",
    "center": true
  },
  {
    "id": "804072",
    "name": "Medno",
    "center": false
  },
  {
    "id": "805021",
    "name": "Medvode",
    "center": true
  },
  {
    "id": "805022",
    "name": "Medvode",
    "center": false
  },
  {
    "id": "805023",
    "name": "Medvode",
    "center": true
  },
  {
    "id": "805052",
    "name": "Medvode na klancu",
    "center": false
  },
  {
    "id": "805041",
    "name": "Medvode naselje",
    "center": true
  },
  {
    "id": "805011",
    "name": "Medvoška a.p.",
    "center": true
  },
  {
    "id": "805012",
    "name": "Medvoška a.p.",
    "center": false
  },
  {
    "id": "102081",
    "name": "Mercator",
    "center": true
  },
  {
    "id": "102082",
    "name": "Mercator",
    "center": false
  },
  {
    "id": "604031",
    "name": "Mestni log",
    "center": true
  },
  {
    "id": "503051",
    "name": "Mihov štradon",
    "center": true
  },
  {
    "id": "503052",
    "name": "Mihov štradon",
    "center": false
  },
  {
    "id": "602072",
    "name": "Mirje",
    "center": false
  },
  {
    "id": "602071",
    "name": "Mirje",
    "center": true
  },
  {
    "id": "745032",
    "name": "Mostiček",
    "center": false
  },
  {
    "id": "745031",
    "name": "Mostiček",
    "center": true
  },
  {
    "id": "102061",
    "name": "Mostovna",
    "center": true
  },
  {
    "id": "102062",
    "name": "Mostovna",
    "center": false
  },
  {
    "id": "536012",
    "name": "Mrzle njive",
    "center": true
  },
  {
    "id": "603062",
    "name": "Murgle",
    "center": false
  },
  {
    "id": "603061",
    "name": "Murgle",
    "center": true
  },
  {
    "id": "603064",
    "name": "Murgle",
    "center": false
  },
  {
    "id": "804212",
    "name": "Murkova",
    "center": false
  },
  {
    "id": "804211",
    "name": "Murkova",
    "center": true
  },
  {
    "id": "704062",
    "name": "Na Gmajnici",
    "center": false
  },
  {
    "id": "704061",
    "name": "Na Gmajnici",
    "center": true
  },
  {
    "id": "802031",
    "name": "Na jami",
    "center": true
  },
  {
    "id": "802032",
    "name": "Na jami",
    "center": false
  },
  {
    "id": "804091",
    "name": "Na klancu",
    "center": true
  },
  {
    "id": "804092",
    "name": "Na klancu",
    "center": false
  },
  {
    "id": "203231",
    "name": "Na Žale",
    "center": true
  },
  {
    "id": "203232",
    "name": "Na Žale",
    "center": false
  },
  {
    "id": "204131",
    "name": "Nadgorica",
    "center": true
  },
  {
    "id": "204132",
    "name": "Nadgorica",
    "center": false
  },
  {
    "id": "100012",
    "name": "Navje",
    "center": false
  },
  {
    "id": "745041",
    "name": "Notranje Gorice",
    "center": true
  },
  {
    "id": "203171",
    "name": "Nove Jarše",
    "center": true
  },
  {
    "id": "203161",
    "name": "Nove Jarše-Šmartinska",
    "center": true
  },
  {
    "id": "103081",
    "name": "Nove Stožice",
    "center": true
  },
  {
    "id": "203071",
    "name": "Nove Žale",
    "center": true
  },
  {
    "id": "203072",
    "name": "Nove Žale",
    "center": false
  },
  {
    "id": "805031",
    "name": "Novo naselje",
    "center": true
  },
  {
    "id": "805032",
    "name": "Novo naselje",
    "center": false
  },
  {
    "id": "204101",
    "name": "Novo Polje",
    "center": true
  },
  {
    "id": "204102",
    "name": "Novo Polje",
    "center": true
  },
  {
    "id": "504051",
    "name": "NS Rudnik",
    "center": true
  },
  {
    "id": "504052",
    "name": "NS Rudnik",
    "center": false
  },
  {
    "id": "504061",
    "name": "NS Rudnik",
    "center": true
  },
  {
    "id": "804111",
    "name": "Ob daljnovodu",
    "center": true
  },
  {
    "id": "804112",
    "name": "Ob daljnovodu",
    "center": false
  },
  {
    "id": "303032",
    "name": "Ob sotočju",
    "center": false
  },
  {
    "id": "104081",
    "name": "Obrtna cona",
    "center": true
  },
  {
    "id": "104082",
    "name": "Obrtna cona",
    "center": false
  },
  {
    "id": "804202",
    "name": "Omersova",
    "center": false
  },
  {
    "id": "804201",
    "name": "Omersova",
    "center": true
  },
  {
    "id": "503014",
    "name": "Orlova",
    "center": false
  },
  {
    "id": "304021",
    "name": "Osenjakova",
    "center": true
  },
  {
    "id": "304022",
    "name": "Osenjakova",
    "center": false
  },
  {
    "id": "505162",
    "name": "OŠ Brinje",
    "center": true
  },
  {
    "id": "745101",
    "name": "OŠ Jezero",
    "center": true
  },
  {
    "id": "104151",
    "name": "OŠ Maksa Pečarja",
    "center": true
  },
  {
    "id": "104152",
    "name": "OŠ Maksa Pečarja",
    "center": false
  },
  {
    "id": "404162",
    "name": "OŠ Sostro",
    "center": false
  },
  {
    "id": "404161",
    "name": "OŠ Sostro",
    "center": true
  },
  {
    "id": "804342",
    "name": "Oval",
    "center": false
  },
  {
    "id": "804341",
    "name": "Oval",
    "center": true
  },
  {
    "id": "415052",
    "name": "Pance K.",
    "center": false
  },
  {
    "id": "415051",
    "name": "Pance K.",
    "center": true
  },
  {
    "id": "101021",
    "name": "Parmova",
    "center": true
  },
  {
    "id": "101022",
    "name": "Parmova",
    "center": false
  },
  {
    "id": "503041",
    "name": "Peruzzijeva",
    "center": true
  },
  {
    "id": "503042",
    "name": "Peruzzijeva",
    "center": false
  },
  {
    "id": "736022",
    "name": "Petačev graben",
    "center": false
  },
  {
    "id": "736021",
    "name": "Petačev graben",
    "center": true
  },
  {
    "id": "304111",
    "name": "Petrol",
    "center": true
  },
  {
    "id": "304112",
    "name": "Petrol",
    "center": false
  },
  {
    "id": "614012",
    "name": "Plečnikova cerkev",
    "center": false
  },
  {
    "id": "614011",
    "name": "Plečnikova cerkev",
    "center": true
  },
  {
    "id": "803121",
    "name": "Plešičeva",
    "center": true
  },
  {
    "id": "803122",
    "name": "Plešičeva",
    "center": false
  },
  {
    "id": "403031",
    "name": "Pod Golovcem",
    "center": true
  },
  {
    "id": "403032",
    "name": "Pod Golovcem",
    "center": false
  },
  {
    "id": "505112",
    "name": "Pod gozdom",
    "center": false
  },
  {
    "id": "505111",
    "name": "Pod gozdom",
    "center": true
  },
  {
    "id": "504072",
    "name": "Pod Hribom",
    "center": false
  },
  {
    "id": "504071",
    "name": "Pod Hribom",
    "center": true
  },
  {
    "id": "804191",
    "name": "Pod Kamno Gorico",
    "center": true
  },
  {
    "id": "702012",
    "name": "Pod Rožnikom",
    "center": false
  },
  {
    "id": "702011",
    "name": "Pod Rožnikom",
    "center": true
  },
  {
    "id": "804031",
    "name": "Podgora",
    "center": true
  },
  {
    "id": "804032",
    "name": "Podgora",
    "center": false
  },
  {
    "id": "415022",
    "name": "Podlipoglav",
    "center": false
  },
  {
    "id": "415021",
    "name": "Podlipoglav",
    "center": true
  },
  {
    "id": "102051",
    "name": "Podmilščakova",
    "center": true
  },
  {
    "id": "102052",
    "name": "Podmilščakova",
    "center": false
  },
  {
    "id": "703052",
    "name": "Podmornica",
    "center": false
  },
  {
    "id": "703051",
    "name": "Podmornica",
    "center": true
  },
  {
    "id": "715122",
    "name": "Podolnica",
    "center": false
  },
  {
    "id": "715121",
    "name": "Podolnica",
    "center": true
  },
  {
    "id": "745052",
    "name": "Podpeč",
    "center": false
  },
  {
    "id": "745051",
    "name": "Podpeč",
    "center": true
  },
  {
    "id": "725122",
    "name": "Podreber/Polh.G.",
    "center": false
  },
  {
    "id": "725121",
    "name": "Podreber/Polh.G.",
    "center": true
  },
  {
    "id": "715032",
    "name": "Podsmreka GD",
    "center": false
  },
  {
    "id": "715031",
    "name": "Podsmreka GD",
    "center": true
  },
  {
    "id": "715052",
    "name": "Podsmreka pri Gorjancu",
    "center": false
  },
  {
    "id": "715051",
    "name": "Podsmreka pri Gorjancu",
    "center": true
  },
  {
    "id": "715042",
    "name": "Podsmreka Rotar",
    "center": false
  },
  {
    "id": "715041",
    "name": "Podsmreka Rotar",
    "center": true
  },
  {
    "id": "804221",
    "name": "Podutik",
    "center": true
  },
  {
    "id": "103061",
    "name": "Pohorskega bataljona",
    "center": true
  },
  {
    "id": "103062",
    "name": "Pohorskega bataljona",
    "center": false
  },
  {
    "id": "203011",
    "name": "Pokopališka",
    "center": true
  },
  {
    "id": "203012",
    "name": "Pokopališka",
    "center": false
  },
  {
    "id": "104121",
    "name": "Polanškova",
    "center": true
  },
  {
    "id": "104122",
    "name": "Polanškova",
    "center": false
  },
  {
    "id": "726012",
    "name": "Polhov Gradec",
    "center": false
  },
  {
    "id": "726011",
    "name": "Polhov Gradec",
    "center": true
  },
  {
    "id": "402022",
    "name": "Poliklinika",
    "center": false
  },
  {
    "id": "402021",
    "name": "Poliklinika",
    "center": true
  },
  {
    "id": "502011",
    "name": "Poljanska",
    "center": true
  },
  {
    "id": "502012",
    "name": "Poljanska",
    "center": false
  },
  {
    "id": "304071",
    "name": "Polje",
    "center": true
  },
  {
    "id": "304074",
    "name": "Polje",
    "center": true
  },
  {
    "id": "304072",
    "name": "Polje",
    "center": false
  },
  {
    "id": "304073",
    "name": "Polje",
    "center": false
  },
  {
    "id": "825031",
    "name": "Polje obračališče",
    "center": true
  },
  {
    "id": "304081",
    "name": "Polje-kolodvor",
    "center": true
  },
  {
    "id": "304082",
    "name": "Polje-kolodvor",
    "center": true
  },
  {
    "id": "601011",
    "name": "Pošta",
    "center": true
  },
  {
    "id": "404041",
    "name": "Pošta Dobrunje",
    "center": true
  },
  {
    "id": "404042",
    "name": "Pošta Dobrunje",
    "center": false
  },
  {
    "id": "303051",
    "name": "Pot na Fužine",
    "center": true
  },
  {
    "id": "303052",
    "name": "Pot na Fužine",
    "center": false
  },
  {
    "id": "603072",
    "name": "Pot na Rakovo jelšo",
    "center": false
  },
  {
    "id": "603071",
    "name": "Pot na Rakovo jelšo",
    "center": true
  },
  {
    "id": "104141",
    "name": "Pot v Hrastovec",
    "center": true
  },
  {
    "id": "104142",
    "name": "Pot v Hrastovec",
    "center": false
  },
  {
    "id": "104131",
    "name": "Pot v Smrečje",
    "center": true
  },
  {
    "id": "104132",
    "name": "Pot v Smrečje",
    "center": false
  },
  {
    "id": "825012",
    "name": "Povodje",
    "center": false
  },
  {
    "id": "825011",
    "name": "Povodje",
    "center": true
  },
  {
    "id": "304011",
    "name": "Preglov trg",
    "center": true
  },
  {
    "id": "304012",
    "name": "Preglov trg",
    "center": false
  },
  {
    "id": "202021",
    "name": "Prekmurska",
    "center": true
  },
  {
    "id": "202022",
    "name": "Prekmurska",
    "center": false
  },
  {
    "id": "703062",
    "name": "Preval",
    "center": false
  },
  {
    "id": "703061",
    "name": "Preval",
    "center": true
  },
  {
    "id": "406042",
    "name": "Prežganje Š.",
    "center": false
  },
  {
    "id": "406041",
    "name": "Prežganje Š.",
    "center": true
  },
  {
    "id": "406031",
    "name": "Prežganje Š. K.",
    "center": true
  },
  {
    "id": "406032",
    "name": "Prežganje Š. K.",
    "center": false
  },
  {
    "id": "415072",
    "name": "Pri Dogonivar",
    "center": false
  },
  {
    "id": "415071",
    "name": "Pri Dogonivar",
    "center": true
  },
  {
    "id": "415092",
    "name": "Pri Dolencu",
    "center": false
  },
  {
    "id": "415091",
    "name": "Pri Dolencu",
    "center": true
  },
  {
    "id": "604052",
    "name": "Pri Maranzu",
    "center": false
  },
  {
    "id": "604051",
    "name": "Pri Maranzu",
    "center": true
  },
  {
    "id": "704081",
    "name": "Pri Poku",
    "center": true
  },
  {
    "id": "415082",
    "name": "Primožev ovinek",
    "center": false
  },
  {
    "id": "415081",
    "name": "Primožev ovinek",
    "center": true
  },
  {
    "id": "104113",
    "name": "Primožičeva",
    "center": false
  },
  {
    "id": "602111",
    "name": "Privoz",
    "center": true
  },
  {
    "id": "602112",
    "name": "Privoz",
    "center": false
  },
  {
    "id": "804021",
    "name": "Prušnikova",
    "center": true
  },
  {
    "id": "804022",
    "name": "Prušnikova",
    "center": false
  },
  {
    "id": "804181",
    "name": "Pržan",
    "center": true
  },
  {
    "id": "103041",
    "name": "Puhova",
    "center": true
  },
  {
    "id": "103042",
    "name": "Puhova",
    "center": false
  },
  {
    "id": "704072",
    "name": "Radna",
    "center": false
  },
  {
    "id": "503021",
    "name": "Rakovnik",
    "center": true
  },
  {
    "id": "503022",
    "name": "Rakovnik",
    "center": false
  },
  {
    "id": "403061",
    "name": "Rast",
    "center": true
  },
  {
    "id": "403062",
    "name": "Rast",
    "center": false
  },
  {
    "id": "104211",
    "name": "Rašica",
    "center": true
  },
  {
    "id": "104212",
    "name": "Rašica",
    "center": false
  },
  {
    "id": "505052",
    "name": "Razdrto",
    "center": false
  },
  {
    "id": "505051",
    "name": "Razdrto",
    "center": true
  },
  {
    "id": "714042",
    "name": "Razori K",
    "center": false
  },
  {
    "id": "714041",
    "name": "Razori K",
    "center": true
  },
  {
    "id": "714032",
    "name": "Razori Rogovilc",
    "center": false
  },
  {
    "id": "714031",
    "name": "Razori Rogovilc",
    "center": true
  },
  {
    "id": "100021",
    "name": "Razstavišče",
    "center": true
  },
  {
    "id": "100022",
    "name": "Razstavišče",
    "center": false
  },
  {
    "id": "204161",
    "name": "Reaktor",
    "center": true
  },
  {
    "id": "204162",
    "name": "Reaktor",
    "center": false
  },
  {
    "id": "505022",
    "name": "Reber pri Škofljici",
    "center": false
  },
  {
    "id": "505021",
    "name": "Reber pri Škofljici",
    "center": true
  },
  {
    "id": "803014",
    "name": "Remiza",
    "center": false
  },
  {
    "id": "825042",
    "name": "Repnje Benk",
    "center": false
  },
  {
    "id": "825041",
    "name": "Repnje Benk",
    "center": true
  },
  {
    "id": "825062",
    "name": "Repnje kapelica",
    "center": false
  },
  {
    "id": "825061",
    "name": "Repnje kapelica",
    "center": true
  },
  {
    "id": "825052",
    "name": "Repnje samostan",
    "center": false
  },
  {
    "id": "825051",
    "name": "Repnje samostan",
    "center": true
  },
  {
    "id": "204031",
    "name": "Rog",
    "center": true
  },
  {
    "id": "204032",
    "name": "Rog",
    "center": false
  },
  {
    "id": "104111",
    "name": "Rogovilc",
    "center": true
  },
  {
    "id": "104112",
    "name": "Rogovilc",
    "center": false
  },
  {
    "id": "502022",
    "name": "Roška",
    "center": false
  },
  {
    "id": "502021",
    "name": "Roška",
    "center": true
  },
  {
    "id": "502024",
    "name": "Roška",
    "center": false
  },
  {
    "id": "203022",
    "name": "Rožičeva",
    "center": true
  },
  {
    "id": "203021",
    "name": "Rožičeva",
    "center": false
  },
  {
    "id": "703012",
    "name": "Rožna dolina",
    "center": false
  },
  {
    "id": "703011",
    "name": "Rožna dolina",
    "center": true
  },
  {
    "id": "504031",
    "name": "Rudnik",
    "center": true
  },
  {
    "id": "504033",
    "name": "Rudnik",
    "center": true
  },
  {
    "id": "504032",
    "name": "Rudnik",
    "center": false
  },
  {
    "id": "304031",
    "name": "Rusjanov trg",
    "center": true
  },
  {
    "id": "304032",
    "name": "Rusjanov trg",
    "center": false
  },
  {
    "id": "103131",
    "name": "Ruski car",
    "center": true
  },
  {
    "id": "103132",
    "name": "Ruski car",
    "center": false
  },
  {
    "id": "614062",
    "name": "Rutar",
    "center": false
  },
  {
    "id": "614061",
    "name": "Rutar",
    "center": true
  },
  {
    "id": "415012",
    "name": "Sadinja vas",
    "center": false
  },
  {
    "id": "415011",
    "name": "Sadinja vas",
    "center": true
  },
  {
    "id": "102011",
    "name": "Samova",
    "center": false
  },
  {
    "id": "102012",
    "name": "Samova",
    "center": true
  },
  {
    "id": "505071",
    "name": "Sap",
    "center": true
  },
  {
    "id": "505072",
    "name": "Sap",
    "center": false
  },
  {
    "id": "204201",
    "name": "Saturnus",
    "center": true
  },
  {
    "id": "104051",
    "name": "Sava",
    "center": true
  },
  {
    "id": "104052",
    "name": "Sava",
    "center": false
  },
  {
    "id": "104054",
    "name": "Sava",
    "center": false
  },
  {
    "id": "104011",
    "name": "Savlje",
    "center": true
  },
  {
    "id": "202031",
    "name": "Savske stolpnice",
    "center": true
  },
  {
    "id": "202032",
    "name": "Savske stolpnice",
    "center": false
  },
  {
    "id": "202041",
    "name": "Savsko naselje",
    "center": true
  },
  {
    "id": "202042",
    "name": "Savsko naselje",
    "center": false
  },
  {
    "id": "826101",
    "name": "Selo Mali Dunaj",
    "center": true
  },
  {
    "id": "826102",
    "name": "Selo Mali Dunaj",
    "center": false
  },
  {
    "id": "415042",
    "name": "Selo pri Pancah K.",
    "center": false
  },
  {
    "id": "415041",
    "name": "Selo pri Pancah K.",
    "center": true
  },
  {
    "id": "826052",
    "name": "Selo pri Vodicah",
    "center": false
  },
  {
    "id": "826051",
    "name": "Selo pri Vodicah",
    "center": true
  },
  {
    "id": "304131",
    "name": "Silos",
    "center": true
  },
  {
    "id": "304132",
    "name": "Silos",
    "center": false
  },
  {
    "id": "825022",
    "name": "Skaručna",
    "center": false
  },
  {
    "id": "825021",
    "name": "Skaručna",
    "center": true
  },
  {
    "id": "803011",
    "name": "Slovenija avto",
    "center": true
  },
  {
    "id": "803012",
    "name": "Slovenija avto",
    "center": false
  },
  {
    "id": "204111",
    "name": "Slovenijales",
    "center": true
  },
  {
    "id": "204112",
    "name": "Slovenijales",
    "center": false
  },
  {
    "id": "103071",
    "name": "Smelt",
    "center": true
  },
  {
    "id": "103072",
    "name": "Smelt",
    "center": false
  },
  {
    "id": "815121",
    "name": "Smlednik šola",
    "center": true
  },
  {
    "id": "815122",
    "name": "Smlednik šola",
    "center": false
  },
  {
    "id": "737022",
    "name": "Smolnik nad hribom",
    "center": false
  },
  {
    "id": "737021",
    "name": "Smolnik nad hribom",
    "center": true
  },
  {
    "id": "737012",
    "name": "Smolnik Praprotnik",
    "center": false
  },
  {
    "id": "737011",
    "name": "Smolnik Praprotnik",
    "center": true
  },
  {
    "id": "736052",
    "name": "Smolnik Setnik",
    "center": false
  },
  {
    "id": "736051",
    "name": "Smolnik Setnik",
    "center": true
  },
  {
    "id": "736042",
    "name": "Smolnik Zalog",
    "center": false
  },
  {
    "id": "736041",
    "name": "Smolnik Zalog",
    "center": true
  },
  {
    "id": "736032",
    "name": "Smolnik žaga",
    "center": false
  },
  {
    "id": "736031",
    "name": "Smolnik žaga",
    "center": true
  },
  {
    "id": "406051",
    "name": "Smrekarjevo",
    "center": true
  },
  {
    "id": "406052",
    "name": "Smrekarjevo",
    "center": false
  },
  {
    "id": "204071",
    "name": "Sneberje",
    "center": true
  },
  {
    "id": "204072",
    "name": "Sneberje",
    "center": false
  },
  {
    "id": "614092",
    "name": "Snoj",
    "center": false
  },
  {
    "id": "614091",
    "name": "Snoj",
    "center": true
  },
  {
    "id": "404091",
    "name": "Sostro",
    "center": true
  },
  {
    "id": "404092",
    "name": "Sostro",
    "center": false
  },
  {
    "id": "404093",
    "name": "Sostro",
    "center": true
  },
  {
    "id": "815022",
    "name": "Sp. Pirniče",
    "center": false
  },
  {
    "id": "815021",
    "name": "Sp. Pirniče",
    "center": true
  },
  {
    "id": "803171",
    "name": "Spar",
    "center": true
  },
  {
    "id": "803172",
    "name": "Spar",
    "center": false
  },
  {
    "id": "504021",
    "name": "Spodnji Rudnik",
    "center": true
  },
  {
    "id": "504022",
    "name": "Spodnji Rudnik",
    "center": false
  },
  {
    "id": "725132",
    "name": "Sr.vas pri Polh.G.",
    "center": false
  },
  {
    "id": "725131",
    "name": "Sr.vas pri Polh.G.",
    "center": true
  },
  {
    "id": "202043",
    "name": "Središka",
    "center": true
  },
  {
    "id": "202044",
    "name": "Središka",
    "center": false
  },
  {
    "id": "102041",
    "name": "Stadion",
    "center": true
  },
  {
    "id": "102042",
    "name": "Stadion",
    "center": false
  },
  {
    "id": "625032",
    "name": "Staje",
    "center": false
  },
  {
    "id": "625031",
    "name": "Staje",
    "center": true
  },
  {
    "id": "703072",
    "name": "Stan in dom",
    "center": false
  },
  {
    "id": "703071",
    "name": "Stan in dom",
    "center": true
  },
  {
    "id": "804061",
    "name": "Stanežiče",
    "center": true
  },
  {
    "id": "804062",
    "name": "Stanežiče",
    "center": false
  },
  {
    "id": "804361",
    "name": "Stanežiče",
    "center": true
  },
  {
    "id": "802011",
    "name": "Stara cerkev",
    "center": true
  },
  {
    "id": "802012",
    "name": "Stara cerkev",
    "center": false
  },
  {
    "id": "505102",
    "name": "Stara pošta",
    "center": false
  },
  {
    "id": "505101",
    "name": "Stara pošta",
    "center": true
  },
  {
    "id": "103101",
    "name": "Stožice",
    "center": true
  },
  {
    "id": "103102",
    "name": "Stožice",
    "center": false
  },
  {
    "id": "503011",
    "name": "Strelišče",
    "center": true
  },
  {
    "id": "503012",
    "name": "Strelišče",
    "center": false
  },
  {
    "id": "502031",
    "name": "Streliška",
    "center": true
  },
  {
    "id": "502032",
    "name": "Streliška",
    "center": false
  },
  {
    "id": "304061",
    "name": "Studenec",
    "center": true
  },
  {
    "id": "304062",
    "name": "Studenec",
    "center": false
  },
  {
    "id": "727021",
    "name": "Suhi Dol/Planino",
    "center": true
  },
  {
    "id": "835031",
    "name": "Svetje",
    "center": true
  },
  {
    "id": "406011",
    "name": "Šemnikar",
    "center": true
  },
  {
    "id": "406012",
    "name": "Šemnikar",
    "center": false
  },
  {
    "id": "204151",
    "name": "Šentjakob",
    "center": true
  },
  {
    "id": "204152",
    "name": "Šentjakob",
    "center": false
  },
  {
    "id": "716051",
    "name": "Šentjošt",
    "center": true
  },
  {
    "id": "804041",
    "name": "Šentvid",
    "center": true
  },
  {
    "id": "804042",
    "name": "Šentvid",
    "center": false
  },
  {
    "id": "826131",
    "name": "Šinkov Turn",
    "center": true
  },
  {
    "id": "826132",
    "name": "Šinkov Turn",
    "center": false
  },
  {
    "id": "826141",
    "name": "Šinkov Turn hrib",
    "center": true
  },
  {
    "id": "826142",
    "name": "Šinkov Turn hrib",
    "center": false
  },
  {
    "id": "803016",
    "name": "Šišenska",
    "center": false
  },
  {
    "id": "515012",
    "name": "Škofljica",
    "center": false
  },
  {
    "id": "505012",
    "name": "Škofljica Javornik",
    "center": false
  },
  {
    "id": "505011",
    "name": "Škofljica Javornik",
    "center": true
  },
  {
    "id": "515013",
    "name": "Škofljica obračališče",
    "center": true
  },
  {
    "id": "504102",
    "name": "Škofljica Petkovšek",
    "center": false
  },
  {
    "id": "504101",
    "name": "Škofljica Petkovšek",
    "center": true
  },
  {
    "id": "515011",
    "name": "Škofljica špica",
    "center": true
  },
  {
    "id": "504112",
    "name": "Škofljica žaga",
    "center": false
  },
  {
    "id": "504111",
    "name": "Škofljica žaga",
    "center": true
  },
  {
    "id": "104071",
    "name": "Šlandrova",
    "center": true
  },
  {
    "id": "104072",
    "name": "Šlandrova",
    "center": false
  },
  {
    "id": "505062",
    "name": "Šmarje",
    "center": false
  },
  {
    "id": "505061",
    "name": "Šmarje",
    "center": true
  },
  {
    "id": "104191",
    "name": "Šmartno",
    "center": true
  },
  {
    "id": "104192",
    "name": "Šmartno",
    "center": true
  },
  {
    "id": "104194",
    "name": "Šmartno pod Š.G.",
    "center": false
  },
  {
    "id": "104193",
    "name": "Šmartno pod Š.G.",
    "center": true
  },
  {
    "id": "203041",
    "name": "Šola Jarše",
    "center": true
  },
  {
    "id": "203042",
    "name": "Šola Jarše",
    "center": false
  },
  {
    "id": "203044",
    "name": "Šola Jarše",
    "center": false
  },
  {
    "id": "744011",
    "name": "Šolska",
    "center": true
  },
  {
    "id": "744012",
    "name": "Šolska",
    "center": false
  },
  {
    "id": "505032",
    "name": "Špilar",
    "center": false
  },
  {
    "id": "505031",
    "name": "Špilar",
    "center": true
  },
  {
    "id": "403043",
    "name": "Štepanja vas",
    "center": true
  },
  {
    "id": "403042",
    "name": "Štepanja vas",
    "center": false
  },
  {
    "id": "403041",
    "name": "Štepanja vas",
    "center": true
  },
  {
    "id": "303041",
    "name": "Štepanjsko naselje",
    "center": true
  },
  {
    "id": "303043",
    "name": "Štepanjsko naselje",
    "center": true
  },
  {
    "id": "702022",
    "name": "Študentsko naselje",
    "center": false
  },
  {
    "id": "702021",
    "name": "Študentsko naselje",
    "center": true
  },
  {
    "id": "725022",
    "name": "Šuica",
    "center": false
  },
  {
    "id": "725021",
    "name": "Šuica",
    "center": true
  },
  {
    "id": "804101",
    "name": "Tabor",
    "center": true
  },
  {
    "id": "804102",
    "name": "Tabor",
    "center": false
  },
  {
    "id": "804104",
    "name": "Tabor",
    "center": false
  },
  {
    "id": "804151",
    "name": "Tacen",
    "center": true
  },
  {
    "id": "804152",
    "name": "Tacen",
    "center": false
  },
  {
    "id": "804141",
    "name": "Tacenski most",
    "center": true
  },
  {
    "id": "804142",
    "name": "Tacenski most",
    "center": false
  },
  {
    "id": "804144",
    "name": "Tacenski most",
    "center": false
  },
  {
    "id": "500011",
    "name": "Tavčarjeva",
    "center": true
  },
  {
    "id": "603141",
    "name": "Tbilisijska",
    "center": true
  },
  {
    "id": "603142",
    "name": "Tbilisijska",
    "center": false
  },
  {
    "id": "803071",
    "name": "Tehnounion",
    "center": true
  },
  {
    "id": "803072",
    "name": "Tehnounion",
    "center": false
  },
  {
    "id": "802061",
    "name": "Tiki",
    "center": true
  },
  {
    "id": "802062",
    "name": "Tiki",
    "center": false
  },
  {
    "id": "103182",
    "name": "Titova",
    "center": false
  },
  {
    "id": "801011",
    "name": "Tivoli",
    "center": true
  },
  {
    "id": "801012",
    "name": "Tivoli",
    "center": false
  },
  {
    "id": "701012",
    "name": "Tivolska",
    "center": false
  },
  {
    "id": "602042",
    "name": "Tobačna",
    "center": false
  },
  {
    "id": "602041",
    "name": "Tobačna",
    "center": true
  },
  {
    "id": "203081",
    "name": "Tomačevo",
    "center": true
  },
  {
    "id": "203031",
    "name": "Tomačevska",
    "center": true
  },
  {
    "id": "203032",
    "name": "Tomačevska",
    "center": false
  },
  {
    "id": "103011",
    "name": "Toplarna",
    "center": true
  },
  {
    "id": "103012",
    "name": "Toplarna",
    "center": false
  },
  {
    "id": "102021",
    "name": "Topniška",
    "center": true
  },
  {
    "id": "102022",
    "name": "Topniška",
    "center": false
  },
  {
    "id": "103051",
    "name": "Tovarna Lek",
    "center": true
  },
  {
    "id": "203062",
    "name": "Tovorni kolodvor",
    "center": true
  },
  {
    "id": "203061",
    "name": "Tovorni kolodvor",
    "center": true
  },
  {
    "id": "804011",
    "name": "Trata",
    "center": true
  },
  {
    "id": "804012",
    "name": "Trata",
    "center": false
  },
  {
    "id": "406021",
    "name": "Trebeljevo",
    "center": true
  },
  {
    "id": "406022",
    "name": "Trebeljevo",
    "center": false
  },
  {
    "id": "602121",
    "name": "Trnovo",
    "center": true
  },
  {
    "id": "704171",
    "name": "Tržaška",
    "center": false
  },
  {
    "id": "704172",
    "name": "Tržaška",
    "center": false
  },
  {
    "id": "803101",
    "name": "Tržnica Koseze",
    "center": true
  },
  {
    "id": "803102",
    "name": "Tržnica Koseze",
    "center": false
  },
  {
    "id": "303011",
    "name": "Tržnica Moste",
    "center": true
  },
  {
    "id": "303012",
    "name": "Tržnica Moste",
    "center": false
  },
  {
    "id": "406081",
    "name": "Tuji Grm",
    "center": true
  },
  {
    "id": "500012",
    "name": "Turist",
    "center": false
  },
  {
    "id": "826042",
    "name": "Utik",
    "center": false
  },
  {
    "id": "826041",
    "name": "Utik",
    "center": true
  },
  {
    "id": "804322",
    "name": "V Dovjež",
    "center": false
  },
  {
    "id": "804321",
    "name": "V Dovjež",
    "center": true
  },
  {
    "id": "815092",
    "name": "Valburga",
    "center": false
  },
  {
    "id": "815091",
    "name": "Valburga",
    "center": true
  },
  {
    "id": "415032",
    "name": "Veliki Lipoglav",
    "center": false
  },
  {
    "id": "415031",
    "name": "Veliki Lipoglav",
    "center": true
  },
  {
    "id": "603082",
    "name": "Veliki štradon",
    "center": false
  },
  {
    "id": "603081",
    "name": "Veliki štradon",
    "center": true
  },
  {
    "id": "835011",
    "name": "Verje",
    "center": true
  },
  {
    "id": "835012",
    "name": "Verje",
    "center": false
  },
  {
    "id": "826062",
    "name": "Vesca",
    "center": false
  },
  {
    "id": "826061",
    "name": "Vesca",
    "center": true
  },
  {
    "id": "304101",
    "name": "Vevče",
    "center": true
  },
  {
    "id": "202011",
    "name": "Viadukt",
    "center": true
  },
  {
    "id": "202012",
    "name": "Viadukt",
    "center": false
  },
  {
    "id": "703092",
    "name": "Vič",
    "center": false
  },
  {
    "id": "703091",
    "name": "Vič",
    "center": true
  },
  {
    "id": "815012",
    "name": "Vikrče",
    "center": false
  },
  {
    "id": "815011",
    "name": "Vikrče",
    "center": true
  },
  {
    "id": "703042",
    "name": "Viško polje",
    "center": false
  },
  {
    "id": "703041",
    "name": "Viško polje",
    "center": true
  },
  {
    "id": "804051",
    "name": "Vižmarje",
    "center": true
  },
  {
    "id": "826012",
    "name": "Vodice",
    "center": false
  },
  {
    "id": "826011",
    "name": "Vodice",
    "center": true
  },
  {
    "id": "826091",
    "name": "Vodice OŠ",
    "center": true
  },
  {
    "id": "826092",
    "name": "Vodice OŠ",
    "center": false
  },
  {
    "id": "505122",
    "name": "Vodičar",
    "center": true
  },
  {
    "id": "102071",
    "name": "Vodovodna",
    "center": true
  },
  {
    "id": "102072",
    "name": "Vodovodna",
    "center": false
  },
  {
    "id": "826082",
    "name": "Vojsko",
    "center": true
  },
  {
    "id": "826081",
    "name": "Vojsko",
    "center": false
  },
  {
    "id": "406061",
    "name": "Volavlje",
    "center": true
  },
  {
    "id": "406062",
    "name": "Volavlje",
    "center": false
  },
  {
    "id": "704031",
    "name": "Vrhovci",
    "center": true
  },
  {
    "id": "716041",
    "name": "Vrzdenec",
    "center": true
  },
  {
    "id": "203191",
    "name": "Yulon",
    "center": true
  },
  {
    "id": "203192",
    "name": "Yulon",
    "center": false
  },
  {
    "id": "204081",
    "name": "Zadobrova",
    "center": true
  },
  {
    "id": "204082",
    "name": "Zadobrova",
    "center": false
  },
  {
    "id": "204083",
    "name": "Zadobrova",
    "center": true
  },
  {
    "id": "204181",
    "name": "Zadružni dom",
    "center": true
  },
  {
    "id": "204182",
    "name": "Zadružni dom",
    "center": false
  },
  {
    "id": "404061",
    "name": "Zadvor",
    "center": true
  },
  {
    "id": "404062",
    "name": "Zadvor",
    "center": false
  },
  {
    "id": "715132",
    "name": "Zaklanec/Horjulu",
    "center": false
  },
  {
    "id": "715131",
    "name": "Zaklanec/Horjulu",
    "center": true
  },
  {
    "id": "204211",
    "name": "Zalog",
    "center": true
  },
  {
    "id": "303021",
    "name": "Zaloška",
    "center": true
  },
  {
    "id": "303024",
    "name": "Zaloška",
    "center": false
  },
  {
    "id": "825082",
    "name": "Zapoge",
    "center": false
  },
  {
    "id": "825081",
    "name": "Zapoge",
    "center": true
  },
  {
    "id": "825111",
    "name": "Zapoge obračališče",
    "center": true
  },
  {
    "id": "104171",
    "name": "Zasavska",
    "center": true
  },
  {
    "id": "104172",
    "name": "Zasavska",
    "center": false
  },
  {
    "id": "805091",
    "name": "Zbilje barka",
    "center": true
  },
  {
    "id": "805092",
    "name": "Zbilje barka",
    "center": false
  },
  {
    "id": "805082",
    "name": "Zbilje jezero",
    "center": false
  },
  {
    "id": "805081",
    "name": "Zbilje jezero",
    "center": true
  },
  {
    "id": "805072",
    "name": "Zbilje K",
    "center": false
  },
  {
    "id": "805071",
    "name": "Zbilje K",
    "center": true
  },
  {
    "id": "805062",
    "name": "Zbiljski Gaj",
    "center": false
  },
  {
    "id": "805061",
    "name": "Zbiljski Gaj",
    "center": true
  },
  {
    "id": "202051",
    "name": "Zelena jama",
    "center": true
  },
  {
    "id": "204191",
    "name": "Zeleni gaj",
    "center": true
  },
  {
    "id": "204192",
    "name": "Zeleni gaj",
    "center": false
  },
  {
    "id": "405071",
    "name": "Zg. Besnica",
    "center": true
  },
  {
    "id": "405072",
    "name": "Zg. Besnica",
    "center": false
  },
  {
    "id": "104202",
    "name": "Zg. Gameljne",
    "center": false
  },
  {
    "id": "104201",
    "name": "Zg. Gameljne",
    "center": true
  },
  {
    "id": "815032",
    "name": "Zg. Pirniče",
    "center": false
  },
  {
    "id": "815031",
    "name": "Zg. Pirniče",
    "center": true
  },
  {
    "id": "815041",
    "name": "Zg. Pirniče Mihovec",
    "center": true
  },
  {
    "id": "803091",
    "name": "Zgornja Šiška",
    "center": true
  },
  {
    "id": "803092",
    "name": "Zgornja Šiška",
    "center": false
  },
  {
    "id": "614052",
    "name": "Zidarjevec",
    "center": false
  },
  {
    "id": "614051",
    "name": "Zidarjevec",
    "center": true
  },
  {
    "id": "602092",
    "name": "Ziherlova",
    "center": false
  },
  {
    "id": "602093",
    "name": "Ziherlova",
    "center": true
  },
  {
    "id": "501022",
    "name": "Zmajski most",
    "center": false
  },
  {
    "id": "501021",
    "name": "Zmajski most",
    "center": true
  },
  {
    "id": "202061",
    "name": "Žale",
    "center": true
  },
  {
    "id": "202062",
    "name": "Žale",
    "center": false
  },
  {
    "id": "716032",
    "name": "Žažar",
    "center": false
  },
  {
    "id": "716031",
    "name": "Žažar",
    "center": true
  },
  {
    "id": "201011",
    "name": "Železna",
    "center": true
  },
  {
    "id": "725062",
    "name": "Žirovnik",
    "center": false
  },
  {
    "id": "725061",
    "name": "Žirovnik",
    "center": true
  },
  {
    "id": "203151",
    "name": "Žito",
    "center": true
  },
  {
    "id": "203152",
    "name": "Žito",
    "center": false
  },
  {
    "id": "703121",
    "name": "Živalski vrt",
    "center": true
  },
  {
    "id": "703122",
    "name": "Živalski vrt",
    "center": false
  }
]