ime,naslov,odpiralni_cas,doplacilo,lat,long
3ROSES,"Slovenske cesta 52, LJUBLJANA","Med tednom: 08:00 - 19:30
Sobota: 08:00 - 13:00
Nedelja / Prazniki: Zaprto","1,87",46.0556654,14.5053203
ABI FALAFEL,"Trubarjeva cesta 40, LJUBLJANA","Med tednom: 09:00 - 21:00
Sobota: 09:00 - 21:00
Nedelja / Prazniki: 11:00 - 21:00","4,30",46.05244723,14.51096893
AMBIENT,"Topniška 29a, LJUBLJANA","Med tednom: 10:00 - 14:00
Sobota: 08:00 - 12:00
Nedelja / Prazniki: Zaprto","2,70",46.0678561,14.5107121
ANTARO,"Leskoškova 9e, LJUBLJANA","Med tednom: 10:00 - 14:00
Sobota: Zaprto
Nedelja / Prazniki: Zaprto","3,37",46.0669903,14.5520135
"AROMA, RESTAVRACIJA IN PIZZERIJA","Ribji trg 2, LJUBLJANA","Med tednom: 11:00 - 15:00
Sobota: 11:00 - 15:00
Nedelja / Prazniki: 11:00 - 15:00","4,37",46.050368,14.506223
AULA COFE,"Kardeljeva ploščad 5, LJUBLJANA","Med tednom: 08:00 - 21:00
Sobota: Zaprto
Nedelja / Prazniki: Zaprto","0,00",46.0756183,14.5131624
AZIJSKA RESTAVRACIJA HAN,"Kongresni trg 3, LJUBLJANA","Med tednom: 11:00 - 20:00
Sobota: 11:00 - 20:00
Nedelja / Prazniki: Zaprto","3,67",46.0506054,14.5045463
AZIJSKA RESTAVRACIJA TLOFT,"Gosposvetska cesta 4, LJUBLJANA","Med tednom: 14:00 - 21:00
Sobota: 11:00 - 21:00
Nedelja / Prazniki: Zaprto","3,50",46.055171,14.5038188
B2 - DOSTAVA,"Tržaška cesta 200, LJUBLJANA","Med tednom: 08:00 - 12:00
Sobota: 08:00 - 12:00
Nedelja / Prazniki: 08:00 - 12:00","4,37",46.034638,14.454935
BABICA,"Tržaška cesta 200, LJUBLJANA","Med tednom: 08:00 - 12:00
Sobota: 08:00 - 12:00
Nedelja / Prazniki: 08:00 - 12:00","4,37",46.034649,14.454931
BALKAN EKSPRES ROŠTILJ,"Čopova 12, LJUBLJANA","Med tednom: 11:00 - 21:00
Sobota: 11:00 - 21:00
Nedelja / Prazniki: 11:00 - 21:00","2,57",46.0519281,14.5050696
BALKAN EKSPRESS-DOSTAVA,"Šmartinska 152g, LJUBLJANA","Med tednom: 10:00 - 20:00
Sobota: 10:00 - 20:00
Nedelja / Prazniki: 10:00 - 15:00","4,37",46.07048,14.5507145
BALKAN EXPRESS,"Šmartinska 152 g, LJUBLJANA","Med tednom: 10:00 - 20:00
Sobota: 10:00 - 20:00
Nedelja / Prazniki: 10:00 - 15:00","3,87",46.0693078,14.5484774
BAR ENKA,"Baragova 16, LJUBLJANA","Med tednom: 08:00 - 17:00
Sobota: Zaprto
Nedelja / Prazniki: Zaprto","1,50",46.0759757,14.5170092
BARBADO,"Dunajska cesta 106, LJUBLJANA","Med tednom: 10:00 - 16:00
Sobota: Zaprto
Nedelja / Prazniki: Zaprto","3,70",46.0744262,14.5119666
BIGDIL COFE,"Kardeljeva ploščad 17, LJUBLJANA","Med tednom: 08:00 - 21:00
Sobota: Zaprto
Nedelja / Prazniki: Zaprto","0,00",46.0740168,14.516449
"BIOTEHNIŠKA FAKULTETA, MENZA BF","Večna pot 111, LJUBLJANA","Med tednom: 11:00 - 15:00
Sobota: Zaprto
Nedelja / Prazniki: Zaprto","2,97",46.0512363,14.4699693
BIOTEHNIŠKI IZOBRAŽEVALNI CENTER LJUBLJANA,"Ižanska cesta 10, LJUBLJANA","Med tednom: 11:00 - 15:00
Sobota: Zaprto
Nedelja / Prazniki: Zaprto","2,67",46.0397001,14.5130312
BIOTEHNIŠKI IZOBRAŽEVALNI CENTER LJUBLJANA,"Cesta v Mestni log 47, LJUBLJANA","Med tednom: 10:00 - 14:00
Sobota: Zaprto
Nedelja / Prazniki: Zaprto","2,67",46.0369256,14.4928696
BISTRO SUWON,"Dunajska 101, LJUBLJANA","Med tednom: 15:00 - 19:00
Sobota: 15:00 - 19:00
Nedelja / Prazniki: Zaprto","3,37",46.0732087,14.5107456
BISTRO ŠUMI,"Kardeljeva ploščad 5, LJUBLJANA","Med tednom: 10:00 - 17:00
Sobota: Zaprto
Nedelja / Prazniki: Zaprto","4,00",46.073666,14.5162984
BISTRO TANJA- DOSTAVA,"Cankarjeva ulica 58, MURSKA SOBOTA","Med tednom: 09:00 - 20:00
Sobota: 09:00 - 20:00
Nedelja / Prazniki: Zaprto","3,37",46.6579532,16.1587559
BISTRO VILLA DOMUS,"Vojkovo nabrežje 12, KOPER/CAPODISTRIA","Med tednom: 08:00 - 18:00
Sobota: Zaprto
Nedelja / Prazniki: Zaprto","3,10",45.545517,13.733073
BOHOR,"Kidričeva ulica 23, ROGAŠKA SLATINA","Med tednom: 10:00 - 20:00
Sobota: 10:00 - 20:00
Nedelja / Prazniki: 10:00 - 20:00","4,00",46.2338608,15.6377234
BOWLING CENTER STRIKE,"Špelina ulica 17a, MARIBOR","Med tednom: 10:00 - 16:00
Sobota: 10:00 - 16:00
Nedelja / Prazniki: 10:00 - 16:00","2,87",46.5315449,15.6613197
BRUC BAR,"Razlagova 9, MARIBOR","Med tednom: 08:00 - 16:00
Sobota: Zaprto
Nedelja / Prazniki: Zaprto","1,50",46.56226,15.652209
CANTANTE CAFE TABOR,"Ulica Pariške komune 37, MARIBOR","Med tednom: 09:00 - 20:00
Sobota: 12:00 - 20:00
Nedelja / Prazniki: 12:00 - 20:00","3,57",46.5484518,15.6430608
CANTANTE CAFE TABOR - DOSTAVA,"Ulica Pariške komune 37, MARIBOR","Med tednom: 09:00 - 20:00
Sobota: 12:00 - 20:00
Nedelja / Prazniki: 12:00 - 20:00","4,07",46.5484518,15.6430608
CANTINA MEXICANA KNAFELJ,"Knafljev prehod 2, LJUBLJANA","Med tednom: 11:00 - 18:00
Sobota: 11:00 - 18:00
Nedelja / Prazniki: 11:00 - 18:00","4,37",46.051354,14.5047214
CANTINA MEXICANA RUDNIK,"Jurčkova cesta 223, LJUBLJANA","Med tednom: 11:00 - 20:00
Sobota: 11:00 - 20:00
Nedelja / Prazniki: 11:00 - 15:00","4,20",46.0218387,14.5359136
CENTRALNA POSTAJA,"Trubarjeva cesta 23, LJUBLJANA","Med tednom: 11:00 - 20:00
Sobota: 11:00 - 20:00
Nedelja / Prazniki: Zaprto","3,77",46.0525454,14.5090827
CITY LUZ,"Verovškova 64, LJUBLJANA","Med tednom: 10:00 - 14:00
Sobota: Zaprto
Nedelja / Prazniki: Zaprto","3,00",46.0787849,14.5015001
CITYBURGER,"Ankaranska 7, KOPER/CAPODISTRIA","Med tednom: 10:00 - 21:00
Sobota: 10:00 - 21:00
Nedelja / Prazniki: 10:00 - 21:00","3,90",45.5458243,13.7403981
CUTTY FOOD CORNER,"Knafljev prehod 1, LJUBLJANA","Med tednom: 11:00 - 21:00
Sobota: 11:00 - 21:00
Nedelja / Prazniki: 11:00 - 21:00","1,37",46.0512824,14.5046853
ČEVABDŽINICA SARAJEVO 84,"Tomažičev trg 1, KOPER/CAPODISTRIA","Med tednom: 11:00 - 20:00
Sobota: 12:00 - 20:00
Nedelja / Prazniki: 12:00 - 20:00","3,87",45.5468393,13.7266739
ČEVABDŽINICA SARAJEVO 84,"Gramšijev trg 8, KOPER/CAPODISTRIA","Med tednom: 11:00 - 20:00
Sobota: 12:00 - 20:00
Nedelja / Prazniki: 12:00 - 20:00","3,87",45.5472243,13.7354463
"DA BU DA, AZIJSKA RESTAVRACIJA","Šubičeva 1a, LJUBLJANA","Med tednom: 11:00 - 21:00
Sobota: 12:00 - 21:00
Nedelja / Prazniki: Zaprto","4,37",46.0514392,14.5000498
DAS IST WALTER LJUBLJANA CENTER,"Borštnikov trg 3, LJUBLJANA","Med tednom: 11:00 - 20:00
Sobota: 12:00 - 18:00
Nedelja / Prazniki: 12:00 - 18:00","3,50",46.0478636,14.4991438
DEŽELA OKUSOV,"Eipprova 11, LJUBLJANA","Med tednom: 12:00 - 21:00
Sobota: Zaprto
Nedelja / Prazniki: 16:30 - 21:00","4,37",46.0431297,14.5042351
DIFOOD-EAT GOOD,"Gortanova 21, LJUBLJANA","Med tednom: 09:00 - 17:00
Sobota: Zaprto
Nedelja / Prazniki: Zaprto","1,80",46.0503594,14.5332075
DIJAŠKI DOM IVANA CANKARJA,"Poljanska cesta 26, LJUBLJANA","Med tednom: 11:00 - 16:00
Sobota: Zaprto
Nedelja / Prazniki: Zaprto","2,50",46.0490606,14.5182672
DIJAŠKI DOM LIZIKE JANČAR,"Titova cesta 24a, MARIBOR","Med tednom: 11:00 - 16:00
Sobota: Zaprto
Nedelja / Prazniki: Zaprto","2,07",46.5487086,15.6488376
DIJAŠKI DOM MARIBOR,"Gosposvetska cesta 89, MARIBOR","Ponedeljek: 10:30 - 16:00
Torek: 10:30 - 16:00
Sreda: 10:30 - 16:00
Četrtek: 10:30 - 16:00
Petek: 10:30 - 15:00
Sobota: Zaprto
Nedelja / Prazniki: Zaprto","3,00",46.5644027,15.6234005
DIJAŠKI DOM POLJANE,"Potočnikova ulica 3, LJUBLJANA","Med tednom: 11:00 - 16:00
Sobota: Zaprto
Nedelja / Prazniki: Zaprto","2,20",46.0492373,14.5233316
DIJAŠKI DOM PORTOROŽ,"Sončna pot 20, PORTOROŽ/PORTOROSE","Med tednom: 11:30 - 15:30
Sobota: Zaprto
Nedelja / Prazniki: Zaprto","2,90",45.516962,13.583475
DIJAŠKI DOM TABOR,"Vidovdanska 7, LJUBLJANA","Med tednom: 12:00 - 16:00
Sobota: Zaprto
Nedelja / Prazniki: Zaprto","2,50",46.0534162,14.5137731
DIJAŠKI DOM VIČ,"Gerbičeva 51/a, LJUBLJANA","Med tednom: 11:00 - 17:00
Sobota: Zaprto
Nedelja / Prazniki: Zaprto","2,40",46.0403883,14.4886632
DIJAŠKI IN ŠTUDENTSKI DOM KOPER,"Cankarjeva 5, KOPER/CAPODISTRIA","Ponedeljek: 12:00 - 16:00
Torek: 12:00 - 16:00
Sreda: 12:00 - 16:00
Četrtek: 12:00 - 16:00
Petek: 11:00 - 15:00
Sobota: Zaprto
Nedelja / Prazniki: Zaprto","2,40",45.5484311,13.732145
DIJAŠKI IN ŠTUDENTSKI DOM NOVO MESTO,"Šegova ulica 115, NOVO MESTO","Med tednom: 09:30 - 15:00
Sobota: Zaprto
Nedelja / Prazniki: Zaprto","2,50",45.7935957,15.1601492
DOBROTE VZHODA,"Celovška cesta 69 a, LJUBLJANA","Med tednom: 11:00 - 21:00
Sobota: 12:00 - 21:00
Nedelja / Prazniki: 12:00 - 21:00","3,60",46.063533,14.4946549
DOMAČA PEKARNA,"Dunajska cesta 113, LJUBLJANA","Med tednom: 08:00 - 21:00
Sobota: 08:00 - 21:00
Nedelja / Prazniki: 08:00 - 21:00","0,70",46.074848,14.510901
DUNYA DONER,"Trg OF 13, LJUBLJANA","Med tednom: 10:00 - 20:00
Sobota: 10:00 - 20:00
Nedelja / Prazniki: 14:00 - 20:00","3,00",46.0574226,14.509497
EAT SMART,"Strossmayerjeva 13, MARIBOR","Med tednom: 08:00 - 20:00
Sobota: Zaprto
Nedelja / Prazniki: Zaprto","0,50",46.5595833,15.6417798
EAT SMART FERI,"Smetanova 17, MARIBOR","Med tednom: 09:00 - 15:00
Sobota: Zaprto
Nedelja / Prazniki: Zaprto","2,70",46.5594876,15.6392718
EJGA - RESTAVRACIJA - KAVARNA - PUB - CATERING,"Cesta maršala Tita 27, JESENICE","Med tednom: 11:00 - 20:00
Sobota: 11:00 - 20:00
Nedelja / Prazniki: 12:00 - 19:00","4,37",46.4366295,14.0534737
EKSPERIMENT RESTAVRACIJA & BAR,"Slovenska cesta 10, LJUBLJANA","Med tednom: 15:00 - 20:00
Sobota: Zaprto
Nedelja / Prazniki: Zaprto","4,30",46.048214,14.501645
FAJN FUUD,"Poljanska cesta 22, LJUBLJANA","Med tednom: 09:00 - 21:00
Sobota: Zaprto
Nedelja / Prazniki: Zaprto","2,80",46.049579,14.5168208
FAJN FUUD PIZZA,"Poljanska cesta 22, LJUBLJANA","Med tednom: 08:00 - 21:00
Sobota: Zaprto
Nedelja / Prazniki: Zaprto","0,00",46.049579,14.5168208
"FAKULTETA ZA ELEKTROTEHNIKO, MENZA FE","Tržaška cesta 25, LJUBLJANA","Med tednom: 11:00 - 15:00
Sobota: Zaprto
Nedelja / Prazniki: Zaprto","2,97",46.0448994,14.4892307
FALAFEL HIŠA,"Slovenska 51, LJUBLJANA","Med tednom: 11:00 - 21:00
Sobota: 12:00 - 21:00
Nedelja / Prazniki: 13:00 - 21:00","0,00",46.0556131,14.5048633
FALAFEL HIŠA-DOSTAVA,"Slovenska 51, LJUBLJANA","Med tednom: 11:00 - 21:00
Sobota: 12:00 - 21:00
Nedelja / Prazniki: 13:00 - 21:00","3,70",46.0556131,14.5048633
FARI'S DELICE,"Miklošičeva 34, LJUBLJANA","Med tednom: 10:00 - 20:00
Sobota: 10:00 - 20:00
Nedelja / Prazniki: 10:00 - 20:00","2,97",46.0567756,14.5083706
FAST FOOD FRESCO IN SLAST,"Slovenska cesta 51, LJUBLJANA","Med tednom: 08:00 - 21:00
Sobota: 08:00 - 21:00
Nedelja / Prazniki: 08:00 - 21:00","1,50",46.0556131,14.5048633
FAST FOOD MAGIC,"Pristaniška ulica2, KOPER/CAPODISTRIA","Med tednom: 08:00 - 21:00
Sobota: 08:00 - 21:00
Nedelja / Prazniki: 08:00 - 21:00","2,00",45.5479001,13.725562
FASTFOOD AJDA,"Trg OF 13, LJUBLJANA","Med tednom: 08:00 - 21:00
Sobota: 08:00 - 21:00
Nedelja / Prazniki: 08:00 - 21:00","2,10",46.0574226,14.509497
FORUM,"Petkovškovo nabrežje 25, LJUBLJANA","Med tednom: 11:30 - 20:00
Sobota: 11:30 - 20:00
Nedelja / Prazniki: Zaprto","4,37",46.052123,14.509031
FRESH 4 LIFE VETRINJSKA,"Vetrinjska ulica 9, MARIBOR","Med tednom: 08:00 - 20:00
Sobota: Zaprto
Nedelja / Prazniki: Zaprto","0,00",46.558366,15.647689
"GARAČ - RESTAVRACIJA ""M""","Šolska cesta 2, ŠKOFJA LOKA","Med tednom: 10:00 - 20:00
Sobota: Zaprto
Nedelja / Prazniki: Zaprto","2,70",46.1679455,14.3066673
GOSPOSVETSKA,"Gosposvetska cesta 83, MARIBOR","Med tednom: 08:00 - 12:00
Sobota: Zaprto
Nedelja / Prazniki: Zaprto","0,50",46.5630401,15.6269831
GOSTILNA BUČAR,"Šmihel 14, NOVO MESTO","Med tednom: 09:00 - 15:00
Sobota: 09:00 - 15:00
Nedelja / Prazniki: Zaprto","3,70",45.7933801,15.1644956
GOSTILNA ČUK,"Cesta zmage 34, ZAGORJE OB SAVI","Med tednom: 11:00 - 15:00
Sobota: Zaprto
Nedelja / Prazniki: Zaprto","3,37",46.1276675,14.9972271
GOSTILNA IN PICERIJA PAVON,"Njegoševa 6 K, LJUBLJANA","Med tednom: 09:00 - 18:00
Sobota: 10:00 - 16:00
Nedelja / Prazniki: 10:00 - 10:00","4,37",46.0542409,14.5192941
GOSTILNA IN PIZZERIA JURČEK,"Jurčkova cesta 7, LJUBLJANA","Med tednom: 09:00 - 20:00
Sobota: 11:00 - 20:00
Nedelja / Prazniki: Zaprto","3,37",46.0325771,14.5151676
GOSTILNA JAKA,"Dolenjska cesta 103, LJUBLJANA","Med tednom: 09:00 - 21:00
Sobota: 11:00 - 21:00
Nedelja / Prazniki: 11:00 - 21:00","3,57",46.0300713,14.5324491
GOSTILNA JERINČEK,"Jurčkova cesta 99, LJUBLJANA","Med tednom: 09:30 - 17:00
Sobota: 10:00 - 15:00
Nedelja / Prazniki: Zaprto","2,50",46.0282792,14.5244668
GOSTILNA LEČNIK,"Trg Svobode 4, RAVNE NA KOROŠKEM","Med tednom: 10:00 - 20:00
Sobota: 10:00 - 20:00
Nedelja / Prazniki: Zaprto","3,37",46.5449903,14.9664323
GOSTILNA LUŽNIK ,"Ormoška cesta 18, PTUJ","Med tednom: 09:00 - 16:00
Sobota: 09:00 - 15:00
Nedelja / Prazniki: Zaprto","2,40",46.4174929,15.8783197
GOSTILNA POD ŠKALCAMI,"Oplotniška cesta 5, SLOVENSKE KONJICE","Med tednom: 08:00 - 12:00
Sobota: Zaprto
Nedelja / Prazniki: Zaprto","1,00",46.3424536,15.4302266
GOSTILNA POD ŠKALCAMI - DOSTAVA,"Oplotniška cesta 5, SLOVENSKE KONJICE","Med tednom: 08:00 - 12:00
Sobota: Zaprto
Nedelja / Prazniki: Zaprto","1,00",46.3424536,15.4302266
GOSTILNA RACMAN,"Brezina 19/b, BREŽICE","Med tednom: 09:00 - 18:00
Sobota: 11:00 - 20:00
Nedelja / Prazniki: Zaprto","2,97",45.9219387,15.5947423
GOSTILNA ŠELIGO,"Goliev trg 8, TREBNJE","Med tednom: 10:00 - 20:00
Sobota: 10:00 - 20:00
Nedelja / Prazniki: Zaprto","3,50",45.9080827,15.0074327
GOSTILNA ZLATI LEV,"Vodnikov trg 4, MARIBOR","Med tednom: 08:00 - 20:00
Sobota: 08:00 - 20:00
Nedelja / Prazniki: 10:00 - 20:00","2,40",46.5579632,15.6409783
GOSTILNA ZLATI LEV - DOSTAVA,"Vodnikov trg 4, MARIBOR","Med tednom: 08:00 - 20:00
Sobota: 08:00 - 20:00
Nedelja / Prazniki: 10:00 - 20:00","2,80",46.5579632,15.6409783
GOSTILNICA & PICERIJA POBREŠKI HRAM,"Osojnikova 20a, MARIBOR","Med tednom: 10:00 - 20:00
Sobota: 10:00 - 20:00
Nedelja / Prazniki: 11:00 - 17:00","4,30",46.5504758,15.6637432
GOSTILNICA IN PIVNICA KATRCA,"Rožna dolina, Cesta I. 26A, LJUBLJANA","Med tednom: 09:00 - 21:00
Sobota: 12:00 - 21:00
Nedelja / Prazniki: 12:00 - 21:00","4,00",46.050769,14.485187
GOSTILNICA IN PIZZERIJA KRATOCHWILL,"Jurčkova 225, LJUBLJANA","Med tednom: 09:00 - 20:00
Sobota: 09:00 - 20:00
Nedelja / Prazniki: 09:00 - 15:00","4,00",46.0202672,14.5366758
GOSTILNICA IN PIZZERIJA KRATOCHWILL,"Šmartinska 152, LJUBLJANA","Med tednom: 09:00 - 20:00
Sobota: 09:00 - 20:00
Nedelja / Prazniki: 12:00 - 17:00","4,00",46.0693078,14.5484774
GOSTINSKE STORITVE MICHEL TOŠ S.P.,"Slivniška cesta 6, HOČE","Med tednom: 09:00 - 21:00
Sobota: 09:00 - 21:00
Nedelja / Prazniki: 11:00 - 21:00","2,50",46.4985878,15.6492085
GOSTINSKE STORITVE MICHEL TOŠ S.P. - DOSTAVA,"Slivniška cesta 6, HOČE","Med tednom: 09:00 - 21:00
Sobota: 09:00 - 21:00
Nedelja / Prazniki: 09:00 - 21:00","3,00",46.4985878,15.6492085
GOSTIŠČE KUM,"Prešernova cesta 1, ZAGORJE OB SAVI","Med tednom: 09:00 - 21:00
Sobota: 09:00 - 21:00
Nedelja / Prazniki: 09:00 - 21:00","3,17",46.1329388,14.9987576
GOSTIŠČE NA TRGU - HIŠA KULINARIKE,"Glavni trg 30, NOVO MESTO","Med tednom: 09:00 - 16:00
Sobota: 11:00 - 15:00
Nedelja / Prazniki: Zaprto","2,77",45.8039607,15.1694229
GURMANSKI HRAM,"Zagrebška cesta 92, MARIBOR","Med tednom: 10:00 - 15:00
Sobota: Zaprto
Nedelja / Prazniki: Zaprto","2,20",46.5265465,15.6692877
GURMANSKI HRAM - DOSTAVA,"Zagrebška cesta 92, MARIBOR","Med tednom: 10:00 - 15:00
Sobota: Zaprto
Nedelja / Prazniki: Zaprto","2,20",46.5265465,15.6692877
HALO HONKONG - DOSTAVA,"Litijska 28, LJUBLJANA","Med tednom: 11:00 - 21:00
Sobota: 11:00 - 21:00
Nedelja / Prazniki: 11:00 - 21:00","4,30",46.0477725,14.5417138
HALO KATRA,"Njegoševa 6K, LJUBLJANA","Med tednom: 09:00 - 20:00
Sobota: 11:00 - 20:00
Nedelja / Prazniki: 11:00 - 20:00","4,37",46.05313,14.5191038
HALO PINKI,"Pod ježami 14, LJUBLJANA","Med tednom: 09:00 - 21:00
Sobota: 10:00 - 21:00
Nedelja / Prazniki: 11:00 - 21:00","3,30",46.0579279,14.5285728
HALO PINKI - DOSTAVA,"Pod ježami 14, LJUBLJANA","Med tednom: 09:00 - 21:00
Sobota: 10:00 - 21:00
Nedelja / Prazniki: 11:00 - 21:00","4,30",46.0579436,14.5284637
HALO RDEČE JABOLKO - DOSTAVA,"Tržaška 116, LJUBLJANA","Med tednom: 10:00 - 21:00
Sobota: 12:00 - 21:00
Nedelja / Prazniki: 12:00 - 21:00","4,30",46.0399733,14.4723635
HALO SHAOLIN,"Hacquetova 5, LJUBLJANA","Med tednom: 10:00 - 21:00
Sobota: 11:00 - 21:00
Nedelja / Prazniki: 11:00 - 21:00","4,30",46.0606245,14.5146388
HIPERMARKET LJUBLJANA ŠIŠKA,"Cesta Ljubljanske brigade 33, LJUBLJANA","Med tednom: 09:00 - 14:00
Sobota: Zaprto
Nedelja / Prazniki: Zaprto","2,36",46.0882947,14.4771806
HIŠA POD GRADOM,"Streliška ulica 10, LJUBLJANA","Med tednom: 11:00 - 18:00
Sobota: 11:00 - 18:00
Nedelja / Prazniki: 11:00 - 18:00","4,37",46.0493959,14.5112233
HIT WOK,"Čopova 4, LJUBLJANA","Med tednom: 11:00 - 21:00
Sobota: 11:00 - 21:00
Nedelja / Prazniki: 11:00 - 21:00","2,57",46.0518465,14.5052867
HONG XIANG ,"Cesta v mestni log 55, LJUBLJANA","Med tednom: 10:00 - 21:00
Sobota: 10:00 - 21:00
Nedelja / Prazniki: Zaprto","3,00",46.036207,14.489519
HONG XIANG - DOSTAVA,"Cesta v mestni log 55, LJUBLJANA","Med tednom: 10:00 - 21:00
Sobota: 10:00 - 21:00
Nedelja / Prazniki: Zaprto","4,00",46.036207,14.489519
HOSTEL SITULA,"Dilančeva 1, NOVO MESTO","Med tednom: 10:00 - 14:00
Sobota: Zaprto
Nedelja / Prazniki: Zaprto","3,40",45.8043001,15.1699482
HOT HORSE - BTC,"Šmartinska cesta 152, LJUBLJANA","Med tednom: 09:00 - 21:00
Sobota: 09:00 - 21:00
Nedelja / Prazniki: 09:00 - 21:00","4,00",46.0693078,14.5484774
HOT HORSE - TIVOLI,"Celovška cesta 25, LJUBLJANA","Med tednom: 09:00 - 21:00
Sobota: 09:00 - 21:00
Nedelja / Prazniki: 09:00 - 21:00","4,00",46.0599532,14.4952876
HOTEL CELEIA,"Mariborska cesta 3, CELJE","Med tednom: 10:00 - 20:00
Sobota: 10:00 - 20:00
Nedelja / Prazniki: 10:00 - 20:00","3,50",46.2331155,15.2673318
HOTEL OPARA,"Goliev trg 13, TREBNJE","Med tednom: 11:00 - 20:00
Sobota: 11:00 - 20:00
Nedelja / Prazniki: Zaprto","3,50",45.9075701,15.0064856
HOTEL PAKA,"Rudarska cesta 1, VELENJE","Med tednom: 12:00 - 16:00
Sobota: 12:00 - 16:00
Nedelja / Prazniki: 12:00 - 16:00","3,87",46.3585672,15.1136642
HOTEL SLOVENJ GRADEC,"Glavni trg 43, SLOVENJ GRADEC","Med tednom: 10:00 - 16:00
Sobota: 12:00 - 16:00
Nedelja / Prazniki: 12:00 - 16:00","1,87",46.508577,15.0780656
HOTSPOT BAR&BISTRO,"Kardeljeva ploščad 17, LJUBLJANA","Med tednom: 10:00 - 14:00
Sobota: Zaprto
Nedelja / Prazniki: Zaprto","3,17",46.074054,14.516428
HOTSPOT CENTER BAR&BISTRO,"Nazorjeva 6, LJUBLJANA","Med tednom: 10:00 - 14:00
Sobota: Zaprto
Nedelja / Prazniki: Zaprto","3,17",46.05317,14.505185
ITALIJANSKA RESTAVRACIJA MIRJE,"Tržaška cesta 5, LJUBLJANA","Med tednom: 11:00 - 21:00
Sobota: 12:00 - 21:00
Nedelja / Prazniki: Zaprto","4,37",46.047026,14.493879
JET BAR,"Šubičeva 1, LJUBLJANA",,"3,40",46.0507607,14.5022354
JOE PENA'S CANTINA Y BAR,"Cankarjeva cesta 6, LJUBLJANA","Med tednom: 10:00 - 21:00
Sobota: 10:00 - 20:00
Nedelja / Prazniki: 12:00 - 21:00","4,37",46.0526204,14.5026065
K16,"Aškrčeva 2, LJUBLJANA","Med tednom: 08:00 - 12:00
Sobota: Zaprto
Nedelja / Prazniki: Zaprto","0,00",46.0467202,14.5001974
KAMPUS PIZZA,"Pivovarniška ulica 6, LJUBLJANA","Med tednom: 11:00 - 19:00
Sobota: Zaprto
Nedelja / Prazniki: Zaprto","3,50",46.0587212,14.5018343
KANAPE,"Gosposvetska cesta 15, MARIBOR","Med tednom: 09:00 - 17:00
Sobota: Zaprto
Nedelja / Prazniki: Zaprto","0,50",46.5608337,15.6394672
KAPITAL,"Kardeljeva ploščad , LJUBLJANA","Med tednom: 11:00 - 15:00
Sobota: Zaprto
Nedelja / Prazniki: Zaprto","2,70",46.074015,14.516453
KARANTANIJA,"Drulovka 40, KRANJ","Med tednom: 09:00 - 20:00
Sobota: 11:00 - 18:00
Nedelja / Prazniki: Zaprto","2,40",46.2176343,14.3715005
KAVARNA BORŠTNIK,"Borštnikov trg 2, LJUBLJANA","Med tednom: 08:00 - 21:00
Sobota: Zaprto
Nedelja / Prazniki: Zaprto","0,00",46.048089,14.498826
KAVARNA IN RESTAVRACIJA PECIVO,"Delpinova 16, NOVA GORICA","Med tednom: 12:00 - 18:00
Sobota: 12:00 - 18:00
Nedelja / Prazniki: 12:00 - 18:00","3,87",45.9552477,13.645602
KAVARNA IN SENDVIČARNA FERI,"Smetanova ulica 17, MARIBOR","Med tednom: 08:00 - 12:00
Sobota: Zaprto
Nedelja / Prazniki: Zaprto","0,50",46.5594876,15.6392718
KAVARNA IN SLAŠČIČARNA CARNIOLA,"Gregorčičeva 2, KRANJ","Med tednom: 08:00 - 21:00
Sobota: 08:00 - 21:00
Nedelja / Prazniki: 08:00 - 21:00","2,27",46.2418483,14.3567502
KAVARNA IN SLAŠČIČARNA RENDEZ - VOUS,"Oprešnikova 28, KRANJ","Med tednom: 08:00 - 21:00
Sobota: 08:00 - 21:00
Nedelja / Prazniki: 08:00 - 21:00","2,27",46.2431506,14.3657205
KAVARNA NUK,"Turjaška 1, LJUBLJANA","Med tednom: 08:00 - 20:00
Sobota: 09:00 - 14:00
Nedelja / Prazniki: Zaprto","2,80",46.0476013,14.5037201
KAVARNA STIL BURGER,"Koroška cesta 59, MARIBOR","Med tednom: 10:00 - 20:00
Sobota: 10:00 - 20:00
Nedelja / Prazniki: 08:00 - 13:00","1,37",46.5590953,15.6363848
KAVARNA STRIT,"Zdravstevna  pot 5, LJUBLJANA","Med tednom: 09:00 - 13:00
Sobota: Zaprto
Nedelja / Prazniki: Zaprto","1,90",46.048771,14.516478
KITAJSKA PALAČA - DOSTAVA,"Focheva ulica 41, MARIBOR","Med tednom: 10:30 - 21:00
Sobota: 10:30 - 21:00
Nedelja / Prazniki: 11:00 - 21:00","3,90",46.5453657,15.643939
KITAJSKA RESTAVRACIJA AZIJA,"Ptujska cesta 131 , MARIBOR","Med tednom: 11:00 - 21:00
Sobota: 12:00 - 21:00
Nedelja / Prazniki: 12:00 - 21:00","3,50",46.5311257,15.6701161
KITAJSKA RESTAVRACIJA AZIJA,"Gosposvetska ulica 1, KRANJ","Med tednom: 11:00 - 21:00
Sobota: 11:00 - 21:00
Nedelja / Prazniki: 11:00 - 21:00","3,20",46.2461166,14.3530853
KITAJSKA RESTAVRACIJA BELI LABOD,"Masarykova 17, LJUBLJANA","Med tednom: 10:00 - 21:00
Sobota: 11:00 - 21:00
Nedelja / Prazniki: 11:00 - 21:00","3,50",46.057701,14.5172397
KITAJSKA RESTAVRACIJA CESARSKA HIŠA,"Ankaranska cesta 5B, KOPER/CAPODISTRIA","Med tednom: 11:00 - 21:00
Sobota: 11:00 - 21:00
Nedelja / Prazniki: 11:00 - 21:00","3,50",45.5415072,13.7358793
KITAJSKA RESTAVRACIJA DVA ZMAJA,"Kersnikova 31, CELJE","Med tednom: 11:00 - 21:00
Sobota: 11:00 - 21:00
Nedelja / Prazniki: 11:00 - 21:00","2,97",46.2391004,15.263821
KITAJSKA RESTAVRACIJA HAN,"Šmartinska 152g, LJUBLJANA","Med tednom: 11:00 - 20:00
Sobota: 11:00 - 20:00
Nedelja / Prazniki: 11:00 - 15:00","3,67",46.07048,14.5507145
KITAJSKA RESTAVRACIJA KITAJSKI ZMAJ,"Ižanska cesta 282, LJUBLJANA","Med tednom: 11:30 - 21:00
Sobota: 11:30 - 21:00
Nedelja / Prazniki: 11:30 - 21:00","3,50",46.0141073,14.5119552
KITAJSKA RESTAVRACIJA NANKING,"Mačkovec 6, NOVO MESTO","Ponedeljek: 11:00 - 21:00
Torek: Zaprto
Sreda: 11:00 - 21:00
Četrtek: 11:00 - 21:00
Petek: 11:00 - 21:00
Sobota: 11:00 - 21:00
Nedelja / Prazniki: 11:00 - 21:00","3,00",45.8264393,15.1923673
KITAJSKA RESTAVRACIJA NOVI ŠANGHAI,"Kapitelska 5, LJUBLJANA","Med tednom: 11:00 - 21:00
Sobota: 12:00 - 21:00
Nedelja / Prazniki: 12:00 - 21:00","3,30",46.0508628,14.5114751
KITAJSKA RESTAVRACIJA ŠANG HAI,"Delavska ulica 11, JESENICE","Med tednom: 11:00 - 21:00
Sobota: 11:00 - 21:00
Nedelja / Prazniki: 11:00 - 21:00","3,27",46.4334456,14.0635691
KITAJSKA RESTAVRACIJA ZLATA SRNA,"Ulica Pohorskega bataljona 14, MARIBOR","Med tednom: 11:00 - 21:00
Sobota: 11:00 - 21:00
Nedelja / Prazniki: 11:00 - 21:00","2,70",46.5544914,15.6193002
KITAJSKA RESTAVRACIJA ZLATA SRNA - DOSTAVA,"Ulica Pohorskega bataljona 14, MARIBOR","Med tednom: 11:00 - 21:00
Sobota: 11:00 - 21:00
Nedelja / Prazniki: 11:00 - 21:00","3,50",46.5544914,15.6193002
KITAJSKA RESTAVRACIJA ZVEZDA,"Loška ulica 10, MARIBOR","Med tednom: 10:00 - 21:00
Sobota: 11:00 - 21:00
Nedelja / Prazniki: 11:00 - 20:00","2,40",46.5566926,15.6509716
KITAJSKA RESTAVRACJA CESARSKA HIŠA-DOSTAVA,"Ankaranska cesta 5B, KOPER/CAPODISTRIA","Med tednom: 11:00 - 21:00
Sobota: 11:00 - 21:00
Nedelja / Prazniki: 11:00 - 21:00","4,30",45.5415072,13.7358793
KITAJSKI DVOR,"Dunajska cesta 29, LJUBLJANA","Med tednom: 10:00 - 21:00
Sobota: 10:00 - 21:00
Nedelja / Prazniki: 10:00 - 21:00","3,50",46.061737,14.5076175
KITAJSKI DVOR,"Teharska cesta 35, CELJE","Ponedeljek: Zaprto
Torek: 10:00 - 21:00
Sreda: 10:00 - 21:00
Četrtek: 10:00 - 21:00
Petek: 10:00 - 21:00
Sobota: 10:00 - 21:00
Nedelja / Prazniki: 10:00 - 21:00","3,30",46.2315729,15.2762559
KITAJSKI DVOR - DOSTAVA,"Dunajska cesta 29, LJUBLJANA","Med tednom: 10:00 - 21:00
Sobota: 10:00 - 21:00
Nedelja / Prazniki: 10:00 - 21:00","4,00",46.0621392,14.5074844
KITAJSKI DVOR - DOSTAVA,"Teharska cesta 35, CELJE","Ponedeljek: Zaprto
Torek: 10:00 - 21:00
Sreda: 10:00 - 21:00
Četrtek: 10:00 - 21:00
Petek: 10:00 - 21:00
Sobota: 10:00 - 21:00
Nedelja / Prazniki: 10:00 - 21:00","3,30",46.2314098,15.2761445
KITAJSKO MESTO,"Slamnikarjeva 1, DOMŽALE","Med tednom: 11:00 - 21:00
Sobota: 11:00 - 21:00
Nedelja / Prazniki: 11:00 - 21:00","2,87",46.1382014,14.596938
KITAJSKO MESTO - DOSTAVA,"Slamnikarjeva 1, DOMŽALE","Med tednom: 11:00 - 21:00
Sobota: 11:00 - 21:00
Nedelja / Prazniki: 11:00 - 21:00","3,87",46.1382014,14.596938
KLINIKA BAR,"Zaloška cesta 7, LJUBLJANA","Med tednom: 08:00 - 19:00
Sobota: 08:00 - 18:00
Nedelja / Prazniki: 12:00 - 18:00","1,30",46.0537325,14.5213706
KLOPČIČ,"Litostrojska cesta 57, LJUBLJANA","Med tednom: 09:00 - 15:00
Sobota: Zaprto
Nedelja / Prazniki: Zaprto","2,77",46.0816138,14.4923584
KLOPČIČ - DOM LITOSTROJ,"Litostrojska cesta 55, LJUBLJANA","Med tednom: 09:00 - 15:00
Sobota: Zaprto
Nedelja / Prazniki: Zaprto","2,77",46.0793899,14.4907567
KRATOCHWILL,"Nemčavci 1d, MURSKA SOBOTA","Med tednom: 09:00 - 21:00
Sobota: 09:00 - 21:00
Nedelja / Prazniki: Zaprto","3,37",46.6746467,16.1750238
KURJI TAT,"Tbilisijska 59, LJUBLJANA","Med tednom: 09:00 - 19:00
Sobota: Zaprto
Nedelja / Prazniki: Zaprto","3,27",46.039406,14.4751022
LA CANTINA,"Ulica Staneta Žagarja 2b, RADOVLJICA","Med tednom: 10:00 - 20:00
Sobota: 13:00 - 17:00
Nedelja / Prazniki: Zaprto","3,37",46.3485144,14.1696392
LABIRINT,"Čevljarska 9, KOPER/CAPODISTRIA","Med tednom: 11:00 - 19:00
Sobota: 12:00 - 19:00
Nedelja / Prazniki: Zaprto","3,10",45.547547,13.7297693
LETEČA ZVEZDA,"Kvedrova cesta 5a, LJUBLJANA","Med tednom: 11:00 - 21:00
Sobota: 12:00 - 21:00
Nedelja / Prazniki: 12:00 - 21:00","3,00",46.070312,14.541963
LIPCA - INDEKS,"Borštnikov trg 3a, LJUBLJANA","Med tednom: 09:00 - 18:00
Sobota: 09:00 - 13:00
Nedelja / Prazniki: Zaprto","0,00",46.047896,14.4987744
LJUDSKA KUHINJA,"Zaloška cesta 42, LJUBLJANA","Med tednom: 10:30 - 15:00
Sobota: Zaprto
Nedelja / Prazniki: Zaprto","2,27",46.055346,14.5334643
LONDON STREET FOOD,"Stossmayerjeva ulica 26, MARIBOR","Ponedeljek: 11:00 - 17:00
Torek: 11:00 - 17:00
Sreda: 11:00 - 17:00
Četrtek: 11:00 - 17:00
Petek: 11:00 - 16:00
Sobota: Zaprto
Nedelja / Prazniki: Zaprto","3,40",46.5607379,15.6423883
LOVING HUT ,"Gosposvetska cesta 43a, MARIBOR","Med tednom: 10:00 - 20:00
Sobota: 12:00 - 20:00
Nedelja / Prazniki: Zaprto","3,30",46.561508,15.63406
LOVING HUT LJUBJANA CENTER,"Trg OF 14, LJUBLJANA","Med tednom: 10:00 - 21:00
Sobota: 12:00 - 21:00
Nedelja / Prazniki: 12:00 - 21:00","3,50",46.0574435,14.5087523
LUNCH BOX,"Gosposvetska cesta 19, MARIBOR","Ponedeljek: 08:00 - 20:00
Torek: 08:00 - 20:00
Sreda: 08:00 - 20:00
Četrtek: 08:00 - 20:00
Petek: 08:00 - 16:00
Sobota: Zaprto
Nedelja / Prazniki: Zaprto","0,50",46.5607589,15.6392304
MAESTRO (CITY CENTER CELJE),"Mariborska 100, CELJE","Med tednom: 10:00 - 20:00
Sobota: 10:00 - 20:00
Nedelja / Prazniki: 11:00 - 15:00","3,37",46.2417572,15.2761156
MAHARAJA INDIJSKA RESTAVRACIJA,"Vodnikova 35, LJUBLJANA","Med tednom: 11:00 - 18:00
Sobota: Zaprto
Nedelja / Prazniki: Zaprto","4,37",46.0654971,14.4907588
MAXI LJUBLJANA,"Trg republike 1, LJUBLJANA","Med tednom: 09:00 - 14:00
Sobota: Zaprto
Nedelja / Prazniki: Zaprto","2,36",46.0503725,14.5012807
MAXI RESTAVRACIJA ROMANSA 1971,"Trg republike 1, LJUBLJANA","Med tednom: 11:00 - 17:00
Sobota: 11:00 - 15:00
Nedelja / Prazniki: Zaprto","4,27",46.0509353,14.5002871
MC PANDA,"Ulica Vita Kraigherja 5, MARIBOR","Med tednom: 09:00 - 21:00
Sobota: 09:00 - 21:00
Nedelja / Prazniki: Zaprto","0,50",46.559224,15.650773
MC PATRIOT,"Žička cesta 4a, SLOVENSKE KONJICE","Med tednom: 08:00 - 20:00
Sobota: 09:00 - 20:00
Nedelja / Prazniki: 15:00 - 20:00","1,00",46.3361037,15.4208792
MCDONALD´S RESTAVRACIJA - SWATY,"Tržaška 6, MARIBOR","Med tednom: 08:00 - 21:00
Sobota: 08:00 - 21:00
Nedelja / Prazniki: 08:00 - 21:00","2,07",46.54175582,15.64776005
MCDONALD´S RESTAVRACIJA EUROPARK,"Pobreška 18, MARIBOR","Med tednom: 09:00 - 21:00
Sobota: 08:00 - 21:00
Nedelja / Prazniki: 09:00 - 15:00","2,07",46.55381546,15.6514902
MCDONALD´S RESTAVRACIJA PTUJSKA,"Ptujska 106, MARIBOR","Med tednom: 08:00 - 21:00
Sobota: 08:00 - 21:00
Nedelja / Prazniki: 08:00 - 21:00","2,07",46.5349073,15.6622092
MCDONALD´S RESTAVRACIJA VELENJE,"Kidričeva 2b, VELENJE","Med tednom: 08:00 - 21:00
Sobota: 08:00 - 21:00
Nedelja / Prazniki: 08:00 - 21:00","2,07",46.35996095,15.11980472
MCDONALD'S MCDRIVE DOMŽALE,"Breznikova 15, DOMŽALE","Med tednom: 08:00 - 21:00
Sobota: 08:00 - 21:00
Nedelja / Prazniki: 09:00 - 21:00","2,07",46.1468404,14.5975108
MCDONALD'S RESTAVRACIJA - CELJE DRIVE,"Mariborska cesta 164, CELJE","Med tednom: 08:00 - 21:00
Sobota: 08:00 - 21:00
Nedelja / Prazniki: 08:00 - 21:00","2,07",46.247996,15.280446
MCDONALD'S RESTAVRACIJA - CELOVŠKA,"Celovška cesta 170, LJUBLJANA","Med tednom: 08:00 - 21:00
Sobota: 08:00 - 21:00
Nedelja / Prazniki: 09:00 - 21:00","2,07",46.0749608,14.4846712
MCDONALD'S RESTAVRACIJA - KRANJ DRIVE,"Cesta Boštjana Hladnika 7, KRANJ","Med tednom: 08:00 - 21:00
Sobota: 08:00 - 21:00
Nedelja / Prazniki: 08:00 - 21:00","2,07",46.232304,14.369412
MCDONALD'S RESTAVRACIJA KOPER,"Ankaranska 4, KOPER/CAPODISTRIA","Med tednom: 08:00 - 21:00
Sobota: 08:00 - 21:00
Nedelja / Prazniki: 08:00 - 21:00","2,07",45.54149179,13.73655012
MCDONALD'S RESTAVRACIJA NOVA GORICA,"Vojkova cesta 111, NOVA GORICA","Med tednom: 08:00 - 21:00
Sobota: 08:00 - 21:00
Nedelja / Prazniki: 08:00 - 21:00","2,07",45.954703,13.653513
ME GUSTA,"Jezdarska ulica 8b, MARIBOR","Med tednom: 08:00 - 20:00
Sobota: Zaprto
Nedelja / Prazniki: Zaprto","0,50",46.5513718,15.6409209
MEATING PUB & RESTAVRACIJA,"Mlinska ulica 2, MARIBOR","Med tednom: 10:00 - 16:00
Sobota: Zaprto
Nedelja / Prazniki: Zaprto","3,40",46.560291,15.655381
MEDITERRANEO,"Ciril Metodov trg 16, LJUBLJANA","Med tednom: 11:00 - 15:00
Sobota: 11:00 - 15:00
Nedelja / Prazniki: 11:00 - 15:00","4,37",46.0503577,14.5077431
MEHIŠKA RESTAVRACIJA CANTINA MARIA,"Ulica Jake Platiše 17, KRANJ","Med tednom: 10:00 - 20:00
Sobota: 11:00 - 20:00
Nedelja / Prazniki: Zaprto","2,80",46.2405045,14.371371
MEHIŠKA RESTAVRACIJA IMPERIO - DOSTAVA,"Šmartinska 152g, LJUBLJANA","Med tednom: 10:00 - 20:00
Sobota: 10:00 - 20:00
Nedelja / Prazniki: 10:00 - 15:00","4,37",46.0702369,14.5490389
MEHIŠKA RESTAVRACIJA IMPERIO MEXICANO,"Šmartinska 152g, LJUBLJANA","Med tednom: 09:00 - 20:00
Sobota: 09:00 - 20:00
Nedelja / Prazniki: 09:00 - 15:00","3,87",46.0702369,14.5490389
MENZA,"Celovška cesta 166, LJUBLJANA","Med tednom: 10:00 - 15:00
Sobota: Zaprto
Nedelja / Prazniki: Zaprto","2,90",46.0753716,14.4845679
MENZA FS,"Aškerčeva cesta 6, LJUBLJANA","Med tednom: 11:00 - 15:00
Sobota: Zaprto
Nedelja / Prazniki: Zaprto","2,97",46.047408,14.498743
META & BAZILIKA,"Rimska cesta 25a, LJUBLJANA","Med tednom: 11:00 - 21:00
Sobota: Zaprto
Nedelja / Prazniki: Zaprto","4,00",46.0475489,14.4995445
MLEČNA RESTAVRACIJA,"Maistrov trg 13, KRANJ","Med tednom: 09:00 - 18:00
Sobota: Zaprto
Nedelja / Prazniki: Zaprto","2,27",46.241091,14.356279
MLEČNA RESTAVRACIJA - DOSTAVA,"Maistrov trg 13, KRANJ","Med tednom: 09:00 - 18:00
Sobota: Zaprto
Nedelja / Prazniki: Zaprto","3,27",46.241091,14.356279
MORNARČEK RIBJA KANTINA - RESTAVRACIJA,"Pistaniška ulica 2, KOPER/CAPODISTRIA","Med tednom: 11:00 - 21:00
Sobota: 12:00 - 21:00
Nedelja / Prazniki: Zaprto","3,87",45.546133,13.7260016
NAMASTE INDIAN EXPRESS,"Trubarjeva ulica 31, LJUBLJANA","Med tednom: 11:00 - 19:00
Sobota: 11:00 - 19:00
Nedelja / Prazniki: Zaprto","3,30",46.052474,14.509783
NEWS CAFE,"Obala 4F, PORTOROŽ/PORTOROSE","Med tednom: 10:00 - 20:00
Sobota: 10:00 - 20:00
Nedelja / Prazniki: 10:00 - 20:00","3,50",45.5148393,13.5719437
NOOMM,"Tyrševa 3, MARIBOR","Med tednom: 10:00 - 21:00
Sobota: 10:00 - 21:00
Nedelja / Prazniki: Zaprto","3,60",46.5606671,15.6464245
OKREPČEVALNICA - BISTRO TANJA,"Cankarjeva ulica 58, MURSKA SOBOTA","Med tednom: 09:00 - 20:00
Sobota: 09:00 - 20:00
Nedelja / Prazniki: Zaprto","2,37",46.6579531,16.15875589
OKREPČEVALNICA - DINER KINO GLEDALIŠČE BEŽIGRAD,"Linhartova 11, LJUBLJANA","Med tednom: 13:00 - 21:00
Sobota: 13:00 - 21:00
Nedelja / Prazniki: 15:00 - 21:00","3,30",46.0646461,14.5103219
OKREPČEVALNICA - PIZZERIJA MAKS,"Dunajska cesta 111, LJUBLJANA","Med tednom: 11:00 - 20:00
Sobota: 10:00 - 14:00
Nedelja / Prazniki: Zaprto","3,27",46.0745055,14.5113788
"OKREPČEVALNICA ""RIVIERA""","Trubarjeva cesta 36, LJUBLJANA","Med tednom: 08:00 - 20:00
Sobota: 08:00 - 20:00
Nedelja / Prazniki: 08:00 - 20:00","2,60",46.0524129,14.5106222
OKREPČEVALNICA AJDA,"Ajdovščina 4, LJUBLJANA","Med tednom: 09:00 - 21:00
Sobota: 10:00 - 21:00
Nedelja / Prazniki: Zaprto","2,90",46.0533642,14.5052036
OKREPČEVALNICA AZZURRO,"Nove Fužine 43, LJUBLJANA","Med tednom: 08:00 - 20:00
Sobota: 08:00 - 20:00
Nedelja / Prazniki: 09:00 - 20:00","3,00",46.054863,14.5640407
OKREPČEVALNICA BADOVINAC,"Kardeljeva ploščad 5, LJUBLJANA","Med tednom: 09:00 - 16:00
Sobota: Zaprto
Nedelja / Prazniki: Zaprto","1,20",46.073666,14.5162984
OKREPČEVALNICA BOBER (PARTIZANSKA),"Partizanska 50, MARIBOR","Med tednom: 08:00 - 20:00
Sobota: 08:00 - 20:00
Nedelja / Prazniki: Zaprto","2,00",46.5623643,15.6572838
OKREPČEVALNICA BUREK,"Poljanska cesta 7, LJUBLJANA","Med tednom: 08:00 - 21:00
Sobota: 09:00 - 21:00
Nedelja / Prazniki: 14:00 - 21:00","1,20",46.0507192,14.5121145
OKREPČEVALNICA IZUM,"Prešernova 17, MARIBOR","Med tednom: 10:00 - 14:30
Sobota: 10:00 - 14:30
Nedelja / Prazniki: 10:00 - 14:30","2,87",46.5636048,15.6514339
OKREPČEVALNICA KEMIJSKI INŠTITUT,"Hajdrihova 19, LJUBLJANA","Med tednom: 10:00 - 14:00
Sobota: Zaprto
Nedelja / Prazniki: Zaprto","3,17",46.0425533,14.4928925
OKREPČEVALNICA MERANOVO,"Pivola 10, HOČE","Med tednom: 10:30 - 15:30
Sobota: Zaprto
Nedelja / Prazniki: Zaprto","2,00",46.505466,15.6225793
OKREPČEVALNICA MINUTKA,"Celjska cesta 48 b, SLOVENJ GRADEC","Med tednom: 09:00 - 16:00
Sobota: 10:00 - 16:00
Nedelja / Prazniki: Zaprto","2,37",46.5036301,15.0857854
OKREPČEVALNICA MM PANDA,"Koroška cesta 9, MARIBOR","Med tednom: 09:00 - 21:00
Sobota: 15:00 - 21:00
Nedelja / Prazniki: 15:00 - 21:00","2,00",46.5576636,15.643214
OKREPČEVALNICA NOODLE BOX,"Ulica Vita Kraigherja 5, MARIBOR","Med tednom: 09:00 - 19:00
Sobota: 10:00 - 13:00
Nedelja / Prazniki: Zaprto","2,50",46.5587501,15.6505413
OKREPČEVALNICA NOVAK,"Koštialova 1, NOVO MESTO","Med tednom: 08:00 - 21:00
Sobota: 12:00 - 21:00
Nedelja / Prazniki: Zaprto","3,37",45.8094028,15.1644988
OKREPČEVALNICA PEKARNA DOBROT,"Kotnikova 5, LJUBLJANA","Med tednom: 08:00 - 15:00
Sobota: Zaprto
Nedelja / Prazniki: Zaprto","1,40",46.0540344,14.5125251
OKREPČEVALNICA PIVNICA ALF,"Koroška cesta 5, MARIBOR","Ponedeljek: 10:00 - 20:30
Torek: 10:00 - 20:30
Sreda: 10:00 - 20:30
Četrtek: 10:00 - 20:30
Petek: 10:00 - 18:00
Sobota: Zaprto
Nedelja / Prazniki: Zaprto","2,80",46.5576922,15.6436525
OKREPČEVALNICA PIVNICA ALF - DOSTAVA,"Koroška cesta 5, MARIBOR","Ponedeljek: 10:00 - 20:30
Torek: 10:00 - 20:30
Sreda: 10:00 - 20:30
Četrtek: 10:00 - 20:30
Petek: 10:00 - 18:00
Sobota: Zaprto
Nedelja / Prazniki: Zaprto","3,30",46.5576922,15.6436525
OKREPČEVALNICA RIBCA,"Adamič Lundrovo nabrežje 1, LJUBLJANA","Med tednom: 10:00 - 21:00
Sobota: 10:00 - 21:00
Nedelja / Prazniki: 11:30 - 18:00","3,37",46.051033,14.506441
OKREPČEVALNICA SARAJEVO,"Gosposvetska cesta 43c, MARIBOR","Med tednom: 10:00 - 20:00
Sobota: 12:00 - 20:00
Nedelja / Prazniki: 12:00 - 20:00","3,17",46.560469,15.6416273
OKREPČEVALNICA STARI GRIL,"Glavni trg 5, MARIBOR","Med tednom: 10:00 - 21:00
Sobota: 10:00 - 21:00
Nedelja / Prazniki: Zaprto","2,80",46.5573679,15.6450408
OKREPČEVALNICA ŠIŠ,"Usnjarska ulica 5, MARIBOR","Med tednom: 09:00 - 21:00
Sobota: 12:00 - 21:00
Nedelja / Prazniki: 12:00 - 21:00","3,29",46.5566221,15.646631
OKREPČEVALNICA ŠUMI,"Kardeljeva ploščad 5, LJUBLJANA","Med tednom: 08:00 - 17:00
Sobota: Zaprto
Nedelja / Prazniki: Zaprto","1,00",46.0742299,14.5136667
OKREPČEVALNICA TIMEOUT,"Trg OF 10, LJUBLJANA","Med tednom: 08:00 - 21:00
Sobota: 08:00 - 21:00
Nedelja / Prazniki: 08:00 - 21:00","1,20",46.0584822,14.5127675
OKREPČEVALNICA TIP TOP,"Partizanska cesta 50, MARIBOR","Med tednom: 08:00 - 21:00
Sobota: 08:00 - 21:00
Nedelja / Prazniki: 08:00 - 21:00","1,00",46.561715,15.657263
OKREPČEVALNICA VILLA MONDE,"Spuhlja 32, PTUJ","Med tednom: 10:30 - 20:00
Sobota: 12:00 - 20:00
Nedelja / Prazniki: 12:00 - 19:00","2,67",46.4151635,15.9137303
OŠTARIJA PIZZERIA DA NOI,"Ulica Eve Lovše 1, MARIBOR","Med tednom: 09:00 - 21:00
Sobota: 08:00 - 21:00
Nedelja / Prazniki: 08:00 - 14:00","3,17",46.5404054,15.6408778
OŠTARIJA PIZZERIA DA NOI - DOSTAVA,"Ulica Eve Lovše 1, MARIBOR","Med tednom: 10:00 - 21:00
Sobota: 10:00 - 21:00
Nedelja / Prazniki: 10:00 - 14:00","4,37",46.5404054,15.6408778
OŠTARIJA PRI OLJKI,"Šmartinska cesta 152, LJUBLJANA","Med tednom: 10:00 - 21:00
Sobota: 10:00 - 21:00
Nedelja / Prazniki: 10:00 - 15:00","3,37",46.0693078,14.5484774
OŠTARIJA RUDOLFSWERTH,"Kandijska cesta 35, NOVO MESTO","Med tednom: 09:00 - 15:00
Sobota: 09:00 - 15:00
Nedelja / Prazniki: Zaprto","2,37",45.8002137,15.174038
PAPAGAYO,"Gosposka ulica 6, MARIBOR","Med tednom: 11:00 - 21:00
Sobota: 11:00 - 21:00
Nedelja / Prazniki: 13:00 - 20:00","3,00",46.557861,15.646434
PARLAMENT PUB SURF´N´FRIES ,"Šubičeva 1, LJUBLJANA",,"2,30",46.0514392,14.5000498
PE DIJAŠKI DOM CELJE,"Ljubljanska cesta 21, CELJE","Med tednom: 12:00 - 16:00
Sobota: Zaprto
Nedelja / Prazniki: Zaprto","2,54",46.2327648,15.2565348
PE KAVA BAR IN OKREPČEVALNICA FANTOM,"Glavni trg 41, SLOVENJ GRADEC","Ponedeljek: 10:00 - 20:00
Torek: 10:00 - 20:00
Sreda: 10:00 - 20:00
Četrtek: 10:00 - 20:00
Petek: 10:00 - 18:00
Sobota: 13:00 - 18:00
Nedelja / Prazniki: 13:00 - 18:00","3,37",46.5085371,15.0783237
PE MARJETICA,"Tobačna ulica 5, LJUBLJANA","Med tednom: 10:00 - 15:00
Sobota: Zaprto
Nedelja / Prazniki: Zaprto","2,27",46.0493297,14.4938602
PEK MATJAŽ GLAVNI TRG,"Glavni trg 25, SLOVENJ GRADEC","Med tednom: 08:00 - 17:00
Sobota: 08:00 - 12:30
Nedelja / Prazniki: Zaprto","0,00",46.5092022,15.0793411
PEK MATJAŽ TOMŠIČEVA,"Tomšičeva cesta 15, VELENJE","Med tednom: 08:00 - 15:00
Sobota: Zaprto
Nedelja / Prazniki: Zaprto","0,00",46.362308,15.113721
PIAZZA DEL PAPA,"Jurčkova cesta 223, LJUBLJANA","Med tednom: 10:00 - 20:00
Sobota: 10:00 - 20:00
Nedelja / Prazniki: 10:00 - 15:00","3,57",46.0254066,14.5302777
PICERIJA BARJAN,"Cesta v Mestni log 55, LJUBLJANA","Med tednom: 11:00 - 16:00
Sobota: Zaprto
Nedelja / Prazniki: Zaprto","3,70",46.0361903,14.4895219
PICERIJA BONITAS ,"Celjska cesta 7, ŽALEC","Med tednom: 10:00 - 18:00
Sobota: 10:00 - 18:00
Nedelja / Prazniki: Zaprto","3,27",46.2509096,15.1710035
PICERIJA ERA,"Pod Trško goro 83, NOVO MESTO","Med tednom: 09:00 - 21:00
Sobota: 09:00 - 21:00
Nedelja / Prazniki: 12:00 - 21:00","3,17",45.8225275,15.1842413
PICERIJA LAVANDA,"Otoška cesta 5, NOVO MESTO","Med tednom: 11:00 - 21:00
Sobota: 11:00 - 21:00
Nedelja / Prazniki: 11:00 - 15:00","3,17",45.827501,15.1840146
PICERIJA RESTAVRACIJA MORICCU,"Meljska cesta 39, MARIBOR","Med tednom: 11:00 - 20:00
Sobota: 11:00 - 20:00
Nedelja / Prazniki: Zaprto","2,87",46.5607658,15.6632283
PICERIJA ŠTANGELJ,"UlicaIvana Roba 56, NOVO MESTO","Med tednom: 09:00 - 15:00
Sobota: 09:00 - 15:00
Nedelja / Prazniki: Zaprto","3,50",45.791906,15.1793545
PICERIJA VERONA ,"Opekarniška cesta 9, CELJE","Med tednom: 10:00 - 21:00
Sobota: 12:00 - 21:00
Nedelja / Prazniki: 12:00 - 21:00","3,00",46.2464482,15.2717415
PICERIJA VERONA - DOSTAVA,"Opekarniška cesta 9, CELJE","Med tednom: 10:00 - 21:00
Sobota: 12:00 - 21:00
Nedelja / Prazniki: 12:00 - 21:00","4,00",46.2464482,15.2717415
PICESTAVRACIJA BOCCACCIO,"Celovška cesta 249, LJUBLJANA","Med tednom: 10:00 - 20:00
Sobota: 12:00 - 20:00
Nedelja / Prazniki: 12:00 - 20:00","4,37",46.0808062,14.4786087
PIVNICA ADAM RAVBAR,"Perkova 17, DOMŽALE","Med tednom: 09:00 - 21:00
Sobota: 12:00 - 21:00
Nedelja / Prazniki: 11:00 - 17:00","3,77",46.149105,14.593372
PIVOVARNA IN PIVNICA KRATOCHWILL,"Kolodvorska ulica 14, LJUBLJANA","Med tednom: 09:00 - 20:00
Sobota: 11:00 - 20:00
Nedelja / Prazniki: Zaprto","4,00",46.0564799,14.5099706
PIZZERIA BRIKSEN,"Ljubljanska cesta 5, BLED","Med tednom: 12:00 - 20:00
Sobota: 12:00 - 20:00
Nedelja / Prazniki: 12:00 - 20:00","4,37",46.368334,14.1111195
PIZZERIA CHIANTI,"Rozmanova ulica 25, NOVO MESTO","Med tednom: 12:00 - 20:00
Sobota: 12:00 - 20:00
Nedelja / Prazniki: Zaprto","3,37",45.8054245,15.1652975
PIZZERIA DA NOI FAST FOOD,"Ulica Eve Lovše 1, MARIBOR","Med tednom: 09:00 - 21:00
Sobota: 09:00 - 21:00
Nedelja / Prazniki: 09:00 - 14:00","0,60",46.5404054,15.6408778
PIZZERIA FOCULUS,"Gregorčičeva ulica 3, LJUBLJANA","Med tednom: 11:00 - 21:00
Sobota: 11:00 - 21:00
Nedelja / Prazniki: 11:00 - 21:00","4,30",46.0484872,14.4999125
PIZZERIA FONTANA ,"Dalmatinova ulica 2, KRŠKO","Med tednom: 08:00 - 20:00
Sobota: 10:00 - 20:00
Nedelja / Prazniki: 12:00 - 20:00","4,37",45.9638619,15.4861918
PIZZERIA GREGORINO,"Vojkova 34, LJUBLJANA","Med tednom: 10:00 - 21:00
Sobota: 12:00 - 20:00
Nedelja / Prazniki: Zaprto","4,00",46.0669493,14.5154234
PIZZERIA IN RESTAVRACIJA TRNOVSKI ZVON,"Eipprova ulica 17, LJUBLJANA","Med tednom: 11:00 - 21:00
Sobota: 11:00 - 21:00
Nedelja / Prazniki: 12:00 - 21:00","3,90",46.0431181,14.5038552
PIZZERIA IN ŠPAGETERIA AL CAPONE,"Pobreška cesta 18, MARIBOR","Med tednom: 09:00 - 21:00
Sobota: 08:00 - 21:00
Nedelja / Prazniki: 09:00 - 15:00","3,30",46.553751,15.651964
PIZZERIA IN ŠPAGETERIJA AL CAPONE,"Šmartinska cesta 152, LJUBLJANA","Med tednom: 10:00 - 21:00
Sobota: 10:00 - 21:00
Nedelja / Prazniki: 10:00 - 15:00","3,27",46.0693078,14.5484774
PIZZERIA IN ŠPAGETTERIA CUBUS,"Podbevškova ulica 11, NOVO MESTO","Med tednom: 10:00 - 21:00
Sobota: 10:00 - 21:00
Nedelja / Prazniki: 12:00 - 21:00","2,90",45.8043094,15.196019
PIZZERIA LATERNA,"Tržaška 79a, LJUBLJANA","Med tednom: 10:00 - 21:00
Sobota: 13:00 - 21:00
Nedelja / Prazniki: 13:00 - 21:00","3,70",46.0398978,14.4730179
PIZZERIA OLIVA,"Dečkova cesta 41, CELJE","Med tednom: 10:00 - 21:00
Sobota: 10:00 - 21:00
Nedelja / Prazniki: 11:00 - 20:30","3,00",46.2401803,15.255094
PIZZERIA OLIVA - DOSTAVA,"Dečkova cesta 41, CELJE","Med tednom: 10:00 - 21:00
Sobota: 10:00 - 21:00
Nedelja / Prazniki: 11:00 - 20:30","4,00",46.2401803,15.255094
PIZZERIA OSMICA,"Nazorjeva ulica 8, LJUBLJANA","Med tednom: 10:00 - 20:00
Sobota: 12:00 - 20:00
Nedelja / Prazniki: 12:00 - 17:00","3,40",46.0527303,14.5045867
PIZZERIA PARMA,"Trg republike 2, LJUBLJANA","Med tednom: 10:00 - 21:00
Sobota: 11:00 - 17:00
Nedelja / Prazniki: Zaprto","3,80",46.0500505,14.5004647
PIZZERIA PRONTO,"Koroška cesta 60, MARIBOR","Med tednom: 12:00 - 21:00
Sobota: 12:00 - 21:00
Nedelja / Prazniki: 12:00 - 21:00","2,20",46.5591161,15.6362482
PIZZERIA ŠESTINKA,"Miklošičeva cesta 22, LJUBLJANA","Med tednom: 10:00 - 21:00
Sobota: 12:00 - 21:00
Nedelja / Prazniki: 12:00 - 21:00","0,00",46.0544486,14.5072493
PIZZERIA TOTALKA,"Kandijska cesta 60, NOVO MESTO","Med tednom: 10:00 - 21:00
Sobota: 10:00 - 21:00
Nedelja / Prazniki: 14:00 - 21:00","3,40",45.7994795,15.1767976
PIZZERIA TUNNEL,"Karlovška cesta 5, LJUBLJANA","Med tednom: 11:30 - 21:00
Sobota: 11:30 - 21:00
Nedelja / Prazniki: 11:30 - 21:00","3,90",46.0446349,14.5100782
PIZZERIA VILA RAINERI,"Tomažičeva ulica 10, IZOLA/ISOLA","Med tednom: 12:00 - 20:00
Sobota: 12:00 - 20:00
Nedelja / Prazniki: 12:00 - 20:00","3,27",45.5329145,13.6506333
PIZZERIJA AŠIČ,"Pečarjeva 1, ZAGORJE OB SAVI","Med tednom: 12:00 - 20:00
Sobota: 12:00 - 20:00
Nedelja / Prazniki: 12:00 - 20:00","3,50",46.13196,14.994229
PIZZERIJA AŠIČ - DOSTAVA,"Pečarjeva ulica 1, ZAGORJE OB SAVI","Med tednom: 12:00 - 20:00
Sobota: 12:00 - 20:00
Nedelja / Prazniki: 12:00 - 20:00","4,00",46.13196,14.994229
PIZZERIJA ATRIJ,"Čevljarska 8, KOPER/CAPODISTRIA","Med tednom: 11:00 - 21:00
Sobota: 11:00 - 21:00
Nedelja / Prazniki: Zaprto","3,30",45.5475251,13.7294406
PIZZERIJA DIMNIK,"Obrtniška cesta 1, TRBOVLJE","Med tednom: 09:00 - 20:00
Sobota: 12:00 - 20:00
Nedelja / Prazniki: 17:00 - 21:00","3,37",46.1549843,15.0511805
PIZZERIJA DIMNIK - DOSTAVA,"Obrtniška cesta 1, TRBOVLJE","Med tednom: 09:00 - 20:00
Sobota: 12:00 - 20:00
Nedelja / Prazniki: 17:00 - 21:00","3,87",46.1549843,15.0511805
PIZZERIJA ETNA - ITALIJANSKA KUHINJA,"Ulica Marije Hvaličeve 6, LJUBLJANA","Med tednom: 10:00 - 20:00
Sobota: 10:00 - 20:00
Nedelja / Prazniki: 12:00 - 20:00","4,37",46.0730812,14.4503731
PIZZERIJA GORENC,"Koroška cesta 59, KRANJ","Med tednom: 11:00 - 21:00
Sobota: Zaprto
Nedelja / Prazniki: Zaprto","2,77",46.2514045,14.3441233
PIZZERIJA IN OKREPČEVALNICA KONDOR,"Cesta v Mestni log 55, LJUBLJANA","Med tednom: 10:00 - 18:00
Sobota: 10:00 - 18:00
Nedelja / Prazniki: Zaprto","3,50",46.0366776,14.4895863
PIZZERIJA IN ŠPAGETERIJA BUF KRANJ,"Stara cesta 25b, KRANJ","Med tednom: 11:00 - 21:00
Sobota: 11:00 - 21:00
Nedelja / Prazniki: 11:00 - 21:00","3,50",46.2385868,14.3534712
PIZZERIJA PIRAMIDA,"Vojkova 71, LJUBLJANA","Med tednom: 10:00 - 17:00
Sobota: 10:00 - 17:00
Nedelja / Prazniki: Zaprto","4,00",46.077101,14.5196227
PIZZERIJA VELUN,"Šalek 24 a, VELENJE","Med tednom: 11:00 - 21:00
Sobota: 12:00 - 21:00
Nedelja / Prazniki: 12:00 - 21:00","3,90",46.3621913,15.1258621
PIZZERIJA VERDI,"Dravska ulica 8, MARIBOR","Ponedeljek: 12:00 - 21:00
Torek: 12:00 - 21:00
Sreda: 12:00 - 21:00
Četrtek: 12:00 - 21:00
Petek: 11:00 - 21:00
Sobota: 11:00 - 21:00
Nedelja / Prazniki: 11:00 - 20:00","2,57",46.556963,15.6453289
PODMORNICA,"Kardeljeva ploščad 17, LJUBLJANA","Med tednom: 10:00 - 15:00
Sobota: Zaprto
Nedelja / Prazniki: Zaprto","3,50",46.0740168,14.516449
POMORŠČAK,"Pot pomorščakov 4, PORTOROŽ/PORTOROSE","Med tednom: 09:00 - 13:00
Sobota: Zaprto
Nedelja / Prazniki: Zaprto","1,90",45.516135,13.579532
PRAVNA FAKULTETA,"Poljanski nasip 2, LJUBLJANA","Med tednom: 11:00 - 15:00
Sobota: Zaprto
Nedelja / Prazniki: Zaprto","2,97",46.0516682,14.5107486
PREHRANA BAR VO-KA,"Vodovodna cesta 90, LJUBLJANA","Med tednom: 10:00 - 14:00
Sobota: Zaprto
Nedelja / Prazniki: Zaprto","3,50",46.0757492,14.5045035
PREHRANA PALAČA SMELT,"Dunajska 160, LJUBLJANA","Med tednom: 10:30 - 14:30
Sobota: Zaprto
Nedelja / Prazniki: Zaprto","3,50",46.082788,14.5139668
PRIMAVERA IZOLA,"Prešernova cesta 55, IZOLA/ISOLA","Med tednom: 11:00 - 21:00
Sobota: 12:00 - 21:00
Nedelja / Prazniki: 12:00 - 21:00","4,37",45.5301056,13.6514169
PRIMAVERA IZOLA-DOSTAVA,"Prešernova cesta 55 , IZOLA/ISOLA","Med tednom: 11:00 - 21:00
Sobota: 12:00 - 21:00
Nedelja / Prazniki: 12:00 - 21:00","4,37",45.5301056,13.6514169
PROMETNA ŠOLA MARIBOR,"Preradovičeva ulica 33, MARIBOR","Ponedeljek: 11:00 - 16:00
Torek: 11:00 - 16:00
Sreda: 11:00 - 16:00
Četrtek: 11:00 - 16:00
Petek: 11:00 - 15:00
Sobota: Zaprto
Nedelja / Prazniki: Zaprto","2,50",46.553867,15.6245844
Q SLOVENSKA,"Slovenska 9, MARIBOR","Med tednom: 09:00 - 21:00
Sobota: 08:00 - 21:00
Nedelja / Prazniki: 08:00 - 21:00","4,27",46.5602924,15.646888
Q TABOR,"Gorkega ulica 45, MARIBOR","Med tednom: 08:00 - 21:00
Sobota: 08:00 - 21:00
Nedelja / Prazniki: 08:00 - 21:00","4,27",46.5499577,15.6385033
RESDOBR,"Cankarjeva cesta 6, LJUBLJANA","Med tednom: 15:00 - 20:00
Sobota: Zaprto
Nedelja / Prazniki: Zaprto","3,57",46.052794,14.5025461
RESTAVRACIAJ AMFORA - DOSTAVA,"Osojnikova 12, PTUJ","Med tednom: 12:00 - 18:00
Sobota: 12:00 - 16:00
Nedelja / Prazniki: 12:00 - 16:00","3,65",46.4273882,15.884334
"RESTAVRACIJA  ""BAŠČARŠIJA""","Poštna ulica 8, MARIBOR","Med tednom: 10:00 - 20:00
Sobota: 10:00 - 20:00
Nedelja / Prazniki: Zaprto","3,17",46.5583111,15.6447702
RESTAVRACIJA  AMFORA,"Osojnikova 12, PTUJ","Med tednom: 12:00 - 18:00
Sobota: 12:00 - 16:00
Nedelja / Prazniki: 12:00 - 16:00","2,70",46.427402,15.88433
RESTAVRACIJA 123 DELO,"Dunajska 5, LJUBLJANA","Med tednom: 10:00 - 14:00
Sobota: Zaprto
Nedelja / Prazniki: Zaprto","3,00",46.0589085,14.5064593
RESTAVRACIJA 123 DSU,"Litostrojska 54, LJUBLJANA","Med tednom: 10:00 - 14:00
Sobota: Zaprto
Nedelja / Prazniki: Zaprto","3,00",46.0823205,14.4964189
RESTAVRACIJA 123 FRI IN FKKT,"Večna pot 113, LJUBLJANA","Med tednom: 10:00 - 14:00
Sobota: Zaprto
Nedelja / Prazniki: Zaprto","2,20",46.052076,14.4690007
RESTAVRACIJA 123 MC LJUBJANA,"Cesta Ljubljanske brigade 33, LJUBLJANA","Med tednom: 10:00 - 14:00
Sobota: 10:00 - 14:00
Nedelja / Prazniki: 10:00 - 14:00","3,00",46.0882947,14.4771806
RESTAVRACIJA 123 MC MARIBOR,"Ulica Eve Lovše 1, MARIBOR","Med tednom: 10:00 - 14:00
Sobota: 10:00 - 14:00
Nedelja / Prazniki: 10:00 - 14:00","3,00",46.5404054,15.6408778
RESTAVRACIJA 123 MC NOVA GORICA,"Industrijska cesta 6, NOVA GORICA","Med tednom: 10:00 - 14:00
Sobota: 10:00 - 14:00
Nedelja / Prazniki: 10:00 - 14:00","3,00",45.954171,13.6711845
RESTAVRACIJA 123 MEGA CENTER 2,"Verovškova ulica 55a, LJUBLJANA","Med tednom: 10:00 - 14:00
Sobota: Zaprto
Nedelja / Prazniki: Zaprto","3,00",46.0638551,14.4957973
RESTAVRACIJA 123 MERCATOR DUNAJSKA,"Dunajska cesta 107, LJUBLJANA","Med tednom: 10:00 - 14:00
Sobota: Zaprto
Nedelja / Prazniki: Zaprto","3,00",46.074362,14.5108601
RESTAVRACIJA 123 PEDAGOŠKA,"Kardeljeva ploščad 16, LJUBLJANA","Med tednom: 11:00 - 15:00
Sobota: Zaprto
Nedelja / Prazniki: Zaprto","2,36",46.073666,14.5162984
RESTAVRACIJA 123 PRISTAN,"Vojkovo nabrežje 32, KOPER/CAPODISTRIA","Med tednom: 10:00 - 14:00
Sobota: Zaprto
Nedelja / Prazniki: Zaprto","3,00",45.548174,13.7362389
RESTAVRACIJA 2000,"Trg republike 1, LJUBLJANA","Med tednom: 09:30 - 17:00
Sobota: Zaprto
Nedelja / Prazniki: Zaprto","3,00",46.0503725,14.5012807
RESTAVRACIJA ALLEGRIA,"Nazorjeva ulica 8, LJUBLJANA","Med tednom: 11:00 - 20:00
Sobota: 12:00 - 20:00
Nedelja / Prazniki: 12:00 - 17:00","4,37",46.0527303,14.5045867
RESTAVRACIJA ANCORA,"Jurčičeva ulica 7, MARIBOR","Med tednom: 09:00 - 21:00
Sobota: 09:00 - 21:00
Nedelja / Prazniki: 09:00 - 21:00","3,70",46.5591908,15.6473742
RESTAVRACIJA BREJK,"Dunajska cesta 22, LJUBLJANA","Med tednom: 11:00 - 16:00
Sobota: Zaprto
Nedelja / Prazniki: Zaprto","3,90",46.0620352,14.5093682
RESTAVRACIJA BURGER KING,"Šmartinska cesta 152g, LJUBLJANA","Med tednom: 09:00 - 20:00
Sobota: 08:00 - 20:00
Nedelja / Prazniki: 09:00 - 15:00","1,37",46.0559583,14.5192882
RESTAVRACIJA CITY,"Trg Matije Gubca 3, KRŠKO","Med tednom: 09:00 - 20:00
Sobota: 11:00 - 20:00
Nedelja / Prazniki: 11:00 - 20:00","3,77",45.9573936,15.4953838
RESTAVRACIJA DK,"Titov trg 3, VELENJE","Med tednom: 11:00 - 16:00
Sobota: 11:00 - 16:00
Nedelja / Prazniki: Zaprto","2,47",46.359525,15.1157025
RESTAVRACIJA FANY & MARY,"Petkovškovo nabrežje 19, LJUBLJANA","Med tednom: 10:00 - 20:00
Sobota: 10:00 - 20:00
Nedelja / Prazniki: 10:00 - 20:00","4,37",46.0520454,14.5083412
RESTAVRACIJA FRESCO,"Slovenska cesta 51, LJUBLJANA","Med tednom: 11:00 - 21:00
Sobota: 11:00 - 21:00
Nedelja / Prazniki: 11:00 - 21:00","4,00",46.0556131,14.5048633
RESTAVRACIJA GIG,"Mala ulica 5, LJUBLJANA","Med tednom: 14:00 - 20:00
Sobota: 14:00 - 19:00
Nedelja / Prazniki: Zaprto","4,37",46.053178,14.507825
RESTAVRACIJA IN KAVARNA FOODIE,"Kersnikova 6, LJUBLJANA","Med tednom: 11:00 - 21:00
Sobota: Zaprto
Nedelja / Prazniki: Zaprto","3,58",46.055905,14.504032
RESTAVRACIJA IN PIVNICA ZVEZDA,"Trg zmage 8, MURSKA SOBOTA","Med tednom: 10:00 - 20:00
Sobota: 10:00 - 20:00
Nedelja / Prazniki: Zaprto","2,67",46.660916,16.164826
RESTAVRACIJA INTERSPAR CELJE,"Mariborska 100, CELJE","Med tednom: 10:00 - 18:00
Sobota: 10:00 - 18:00
Nedelja / Prazniki: 10:00 - 14:00","2,99",46.2417572,15.2761156
RESTAVRACIJA INTERSPAR CITYPARK,"Šmartinska 152g, LJUBLJANA","Med tednom: 10:00 - 18:00
Sobota: 10:00 - 18:00
Nedelja / Prazniki: 10:00 - 14:00","2,99",46.0702369,14.5490389
RESTAVRACIJA INTERSPAR KOPER,"Ankaranska cesta 3A, KOPER/CAPODISTRIA","Med tednom: 10:00 - 18:00
Sobota: 10:00 - 18:00
Nedelja / Prazniki: 10:00 - 14:00","2,99",45.5432181,13.7410232
RESTAVRACIJA INTERSPAR KRANJ,"Cesta 1.maja 77, KRANJ","Med tednom: 10:00 - 18:00
Sobota: 10:00 - 18:00
Nedelja / Prazniki: 10:00 - 14:00","2,99",46.2317974,14.364596
RESTAVRACIJA INTERSPAR MARIBOR EUROPARK,"Pobreška 18, MARIBOR","Med tednom: 10:00 - 18:00
Sobota: 10:00 - 18:00
Nedelja / Prazniki: 10:00 - 14:00","2,99",46.554734,15.6534804
RESTAVRACIJA INTERSPAR MARIBOR QLANDIA,"Cesta Proletarskih brigad 100, MARIBOR","Med tednom: 10:00 - 18:00
Sobota: 10:00 - 18:00
Nedelja / Prazniki: 10:00 - 14:00","2,99",46.546433,15.618417
RESTAVRACIJA INTERSPAR MURSKA SOBOTA,"Nemčavci 1d, MURSKA SOBOTA","Med tednom: 10:00 - 18:00
Sobota: 10:00 - 18:00
Nedelja / Prazniki: Zaprto","2,99",46.6746467,16.1750238
RESTAVRACIJA INTERSPAR NOVA GORICA,"Cesta 25. junija 1a, NOVA GORICA","Med tednom: 10:00 - 18:00
Sobota: 10:00 - 18:00
Nedelja / Prazniki: 10:00 - 14:00","2,99",45.9555094,13.6572042
RESTAVRACIJA INTERSPAR VIČ,"Jamova 105, LJUBLJANA","Med tednom: 10:00 - 18:00
Sobota: 10:00 - 18:00
Nedelja / Prazniki: 10:00 - 14:00","2,99",46.0419879,14.4847758
RESTAVRACIJA KAVARNA PIZZERIA HOMBRE,"Gerbičeva ulica 61, LJUBLJANA","Med tednom: 11:00 - 20:00
Sobota: 12:00 - 20:00
Nedelja / Prazniki: 12:00 - 20:00","3,90",46.0392484,14.4869541
RESTAVRACIJA KITAJSKA PALAČA,"Focheva ulica 41, MARIBOR","Med tednom: 10:30 - 21:00
Sobota: 10:30 - 21:00
Nedelja / Prazniki: 11:00 - 21:00","2,70",46.5453657,15.643939
RESTAVRACIJA KITAJSKA ZVEZDA,"Litijska 28, LJUBLJANA","Med tednom: 11:00 - 21:00
Sobota: 11:00 - 21:00
Nedelja / Prazniki: 11:00 - 21:00","3,50",46.0477725,14.5417138
RESTAVRACIJA KITAJSKI VRT,"Dravska cesta 7 , PTUJ","Med tednom: 11:00 - 21:00
Sobota: 11:00 - 21:00
Nedelja / Prazniki: 11:00 - 21:00","3,00",46.4180334,15.8686767
RESTAVRACIJA KLUB CANKARJEVEGA DOMA,"Prešernova cesta 10, LJUBLJANA","Med tednom: 10:30 - 14:30
Sobota: Zaprto
Nedelja / Prazniki: Zaprto","3,97",46.0500434,14.4988365
RESTAVRACIJA KOLODVORSKA ,"Cesta talcev 37a, VELENJE","Med tednom: 08:30 - 18:30
Sobota: 08:30 - 14:30
Nedelja / Prazniki: Zaprto","3,37",46.3589648,15.1079612
RESTAVRACIJA KOMPLIMENT,"Kidričeva cesta 75, ŠKOFJA LOKA","Med tednom: 09:00 - 14:00
Sobota: Zaprto
Nedelja / Prazniki: Zaprto","3,00",46.1731625,14.3399384
RESTAVRACIJA KOTNIKOVA,"Kotnikova 28, LJUBLJANA","Med tednom: 10:00 - 14:00
Sobota: Zaprto
Nedelja / Prazniki: Zaprto","2,90",46.056507,14.514261
RESTAVRACIJA MANGO,"Turnerjeva ulica 17, MARIBOR","Med tednom: 11:00 - 21:00
Sobota: 11:00 - 20:00
Nedelja / Prazniki: Zaprto","3,60",46.56316907,15.62965699
RESTAVRACIJA MCDONALDS - CITYCENTER,"Mariborska cesta 100, CELJE","Med tednom: 09:00 - 21:00
Sobota: 08:00 - 21:00
Nedelja / Prazniki: 09:00 - 15:00","2,07",46.2419031,15.2774074
RESTAVRACIJA MCDONALDS - PTUJ,"Ormoška cesta 3, PTUJ","Med tednom: 08:00 - 21:00
Sobota: 08:00 - 21:00
Nedelja / Prazniki: 08:00 - 21:00","2,07",46.41889598,15.8771082
RESTAVRACIJA MCDONALD'S ČOPOVA,"Čopova 14, LJUBLJANA","Med tednom: 08:00 - 21:00
Sobota: 08:00 - 21:00
Nedelja / Prazniki: 08:00 - 21:00","2,07",46.05200055,14.50488239
RESTAVRACIJA MCDONALD'S KOLOSEJ,"Šmartinska 152, LJUBLJANA","Med tednom: 08:00 - 21:00
Sobota: 09:30 - 21:00
Nedelja / Prazniki: 10:00 - 21:00","2,07",46.06947022,14.54737593
RESTAVRACIJA MCDONALD'S NOVO MESTO,"Ljubljanska 24, NOVO MESTO","Med tednom: 08:00 - 21:00
Sobota: 08:00 - 21:00
Nedelja / Prazniki: 08:00 - 21:00","2,07",45.81480455,15.15417151
RESTAVRACIJA MCDONALD'S RUDNIK,"Premrlova ulica 12, LJUBLJANA","Med tednom: 08:00 - 21:00
Sobota: 08:00 - 21:00
Nedelja / Prazniki: 08:00 - 21:00","2,07",46.0175171,14.53007184
RESTAVRACIJA MCDONALD'S -ŽELEZNIŠKA,"Trg osvobodilne fronte 6, LJUBLJANA","Med tednom: 08:00 - 21:00
Sobota: 08:00 - 21:00
Nedelja / Prazniki: 08:00 - 21:00","2,07",46.05797458,14.51181272
RESTAVRACIJA MCDONALD'S ŽITO,"Šmartinska 154, LJUBLJANA","Med tednom: 08:00 - 21:00
Sobota: 08:00 - 21:00
Nedelja / Prazniki: 08:00 - 21:00","2,07",46.06947767,14.54738666
RESTAVRACIJA MODRI KVADRAT,"Davčna ulica 1, LJUBLJANA","Med tednom: 09:00 - 14:00
Sobota: Zaprto
Nedelja / Prazniki: Zaprto","3,37",46.0650084,14.5268284
RESTAVRACIJA MOZART,"Stegne 7, LJUBLJANA","Med tednom: 09:30 - 15:30
Sobota: Zaprto
Nedelja / Prazniki: Zaprto","3,37",46.0816492,14.486736
RESTAVRACIJA MR. FALAFEL,"Gosposka ulica 30, MARIBOR","Med tednom: 11:00 - 21:00
Sobota: 11:00 - 16:00
Nedelja / Prazniki: Zaprto","3,50",46.5598616,15.6467848
RESTAVRACIJA ORIENT,"Taborska ulica 12, MARIBOR","Med tednom: 11:30 - 21:00
Sobota: 11:30 - 21:00
Nedelja / Prazniki: 11:30 - 18:00","3,10",46.5550941,15.6450446
RESTAVRACIJA PEKING,"Gregorčičeva ulica 19, MARIBOR","Med tednom: 10:00 - 20:00
Sobota: 12:00 - 20:00
Nedelja / Prazniki: 12:00 - 17:00","2,00",46.5610077,15.6454844
RESTAVRACIJA PIANO,"Koroška cesta 160, MARIBOR","Ponedeljek: 10:00 - 16:00
Torek: 10:00 - 16:00
Sreda: 10:00 - 16:00
Četrtek: 10:00 - 16:00
Petek: 10:00 - 15:00
Sobota: Zaprto
Nedelja / Prazniki: Zaprto","3,26",46.5636227,15.6240941
RESTAVRACIJA PLEČNIKOV HRAM,"Trg francoske revolucije 2, LJUBLJANA","Med tednom: 09:00 - 18:00
Sobota: 11:00 - 15:00
Nedelja / Prazniki: Zaprto","3,60",46.0470781,14.5034063
"RESTAVRACIJA PRESTIGE CATERING, GZS","Dimičeva ulica 13, LJUBLJANA","Med tednom: 10:00 - 14:00
Sobota: Zaprto
Nedelja / Prazniki: Zaprto","3,17",46.0715896,14.5148274
RESTAVRACIJA RDEČE JABOLKO,"Tržaška 116, LJUBLJANA","Med tednom: 10:00 - 21:00
Sobota: 12:00 - 21:00
Nedelja / Prazniki: 12:00 - 21:00","3,30",46.0398978,14.4730179
RESTAVRACIJA RUTAR LJUBLJANA,"Premrlova ulica 14, LJUBLJANA","Med tednom: 11:00 - 19:30
Sobota: 11:00 - 19:30
Nedelja / Prazniki: Zaprto","3,50",46.0181841,14.5296306
RESTAVRACIJA RUTAR MARIBOR,"Tržaška cesta 67, MARIBOR","Med tednom: 11:00 - 19:30
Sobota: 11:00 - 19:30
Nedelja / Prazniki: Zaprto","3,50",46.5219474,15.6501653
RESTAVRACIJA SARAJEVSKIH JEDI VALTER - ŠKOFJA LOKA,"Kidričeva cesta 8c, ŠKOFJA LOKA","Med tednom: 10:00 - 21:00
Sobota: 12:00 - 21:00
Nedelja / Prazniki: 12:00 - 21:00","2,30",46.1674362,14.3105818
RESTAVRACIJA SARAJEVSKIH JEDI VALTER JESENICE,"Cesta Maršala Tita 106, JESENICE","Med tednom: 10:00 - 21:00
Sobota: 12:00 - 21:00
Nedelja / Prazniki: 12:00 - 21:00","2,30",46.441619,14.0390784
RESTAVRACIJA SARAJEVSKIH JEDI VALTER KRANJ,"Cesta 1.maja 1a, KRANJ","Med tednom: 10:00 - 21:00
Sobota: 12:00 - 21:00
Nedelja / Prazniki: 12:00 - 21:00","2,30",46.2333989,14.3620683
RESTAVRACIJA SARAJEVSKIH JEDI VALTER LJUBLJANA,"Šmartinska cesta 3, LJUBLJANA","Med tednom: 11:00 - 21:00
Sobota: 12:00 - 21:00
Nedelja / Prazniki: 12:00 - 21:00","2,30",46.0562816,14.5192825
RESTAVRACIJA SARAJEVSKIJ JEDI VALTER RADOVLJICA,"Cankarjeva 66, RADOVLJICA","Med tednom: 10:00 - 21:00
Sobota: 12:00 - 21:00
Nedelja / Prazniki: 12:00 - 21:00","2,30",46.347639,14.168138
RESTAVRACIJA SHAOLIN,"Hacquetova 5, LJUBLJANA","Med tednom: 10:00 - 21:00
Sobota: 11:00 - 21:00
Nedelja / Prazniki: 11:00 - 21:00","3,30",46.0606245,14.5146388
RESTAVRACIJA SKRITI KOT,"Ajdovščina 4, LJUBLJANA","Med tednom: 10:00 - 18:00
Sobota: Zaprto
Nedelja / Prazniki: Zaprto","3,90",46.0537029,14.5049926
RESTAVRACIJA SLOREST VIČAVA,"Vičava 1, PTUJ","Med tednom: 09:30 - 13:30
Sobota: Zaprto
Nedelja / Prazniki: Zaprto","1,86",46.421807,15.865623
RESTAVRACIJA SPLOŠNE BOLNIŠNICE NOVO MESTO,"Šmihelska cesta 1, NOVO MESTO","Med tednom: 09:15 - 15:00
Sobota: Zaprto
Nedelja / Prazniki: Zaprto","1,87",45.8002373,15.1630024
RESTAVRACIJA ŠMARTINSKA,"Šmartinska cesta 132, LJUBLJANA","Med tednom: 10:30 - 14:30
Sobota: Zaprto
Nedelja / Prazniki: Zaprto","3,87",46.0684203,14.5394032
RESTAVRACIJA ŠOLSKI CENTER AŠKERČEVA,"Aškerčeva 1, LJUBLJANA","Med tednom: 11:00 - 15:00
Sobota: Zaprto
Nedelja / Prazniki: Zaprto","1,87",46.0462572,14.4998725
"RESTAVRACIJA TARTUF ""CENTER""","Mali trg 3a, LJUBLJANA","Med tednom: 08:00 - 19:00
Sobota: Zaprto
Nedelja / Prazniki: Zaprto","3,70",46.052173,14.507154
RESTAVRACIJA TOMI,"Iztokova ulica 22, MARIBOR","Ponedeljek: 08:00 - 20:00
Torek: 08:00 - 20:00
Sreda: 08:00 - 20:00
Četrtek: 08:00 - 20:00
Petek: 08:00 - 16:00
Sobota: Zaprto
Nedelja / Prazniki: Zaprto","2,97",46.5581632,15.6246068
RESTAVRACIJA TR3,"Trg repubilke 3, LJUBLJANA","Med tednom: 10:30 - 14:30
Sobota: Zaprto
Nedelja / Prazniki: Zaprto","3,87",46.0502092,14.4997008
RESTAVRACIJA TUŠ CELJE (PLANET TUŠ),"Mariborska cesta 128, CELJE","Med tednom: 09:00 - 19:00
Sobota: 09:00 - 19:00
Nedelja / Prazniki: Zaprto","2,99",46.2434388,15.2782233
RESTAVRACIJA TUŠ KRANJ,"Cesta Jake Platiše 18, KRANJ","Med tednom: 09:00 - 19:00
Sobota: 09:00 - 19:00
Nedelja / Prazniki: Zaprto","2,99",46.236656,14.3733715
RESTAVRACIJA ZLATA SREČA,"Metelkova ulica 29, MARIBOR","Med tednom: 12:00 - 21:00
Sobota: 12:00 - 21:00
Nedelja / Prazniki: Zaprto","2,50",46.543881,15.638065
"RESTAVRACIJA,PICERIJA, ŠPAGETERIJA ADRENALINA","Pesje 30, KRŠKO","Med tednom: 09:00 - 20:00
Sobota: 09:00 - 20:00
Nedelja / Prazniki: 09:00 - 20:00","3,70",45.9410973,15.5527552
ROZA SLON,"Trg OF 14, LJUBLJANA","Med tednom: 16:00 - 21:00
Sobota: 12:00 - 21:00
Nedelja / Prazniki: Zaprto","2,90",46.0574435,14.5087523
ROZA SLON BEŽIGRAD,"Dunajska 115, LJUBLJANA","Med tednom: 15:00 - 21:00
Sobota: Zaprto
Nedelja / Prazniki: Zaprto","2,90",46.07502,14.51101
RUNNING SUSHI & WOK,"Jurčkova cesta 223, LJUBLJANA","Med tednom: 10:00 - 21:00
Sobota: 10:00 - 21:00
Nedelja / Prazniki: 10:00 - 15:00","3,87",46.022022,14.536718
SALAMON - DOSTAVA,"Dolenjska cesta 103, LJUBLJANA","Med tednom: 09:00 - 21:00
Sobota: 11:00 - 21:00
Nedelja / Prazniki: 11:00 - 21:00","4,17",46.0300713,14.5324491
SAMOPOSTREŽNA RESTAVRACIJA DOBRA HIŠA,"Stegne 11a, LJUBLJANA","Med tednom: 10:00 - 15:30
Sobota: Zaprto
Nedelja / Prazniki: Zaprto","4,37",46.0828895,14.4879422
SAMOPOSTREŽNA RESTAVRACIJA STOLPIČ,"Mariborska cesta 7, CELJE","Med tednom: 09:00 - 15:00
Sobota: Zaprto
Nedelja / Prazniki: Zaprto","2,87",46.2301367,15.265121
SKUHNA,"Trubarjeva 56, LJUBLJANA","Med tednom: 11:30 - 15:30
Sobota: 11:30 - 15:30
Nedelja / Prazniki: Zaprto","3,50",46.0521975,14.5127809
SLAŠČIČARNA IN KAVARNA LEONARD,"Trg mladinskih delovnih brigad 12, LJUBLJANA","Med tednom: 08:00 - 21:00
Sobota: 08:00 - 21:00
Nedelja / Prazniki: 08:00 - 21:00","0,00",46.0479552,14.4962925
SLAŠČIČARNA IN PICERIJA AJDOVŠČINA,"Goriška cesta 11, AJDOVŠČINA","Med tednom: 11:00 - 21:00
Sobota: 11:00 - 21:00
Nedelja / Prazniki: 11:00 - 21:00","3,37",45.8866977,13.9082681
SLAŠČIČARNA IN PICERIJA AJDOVŠČINA - HALO ERIK-DOSTAVA,"Goriška cesta 11, AJDOVŠČINA","Med tednom: 11:00 - 21:00
Sobota: 11:00 - 21:00
Nedelja / Prazniki: 11:00 - 21:00","3,37",45.8866977,13.9082681
SPAR PARTNER NAMA,"Tomšičeva 2, LJUBLJANA","Med tednom: 11:00 - 17:00
Sobota: Zaprto
Nedelja / Prazniki: Zaprto","2,37",46.0520087,14.5028355
SPLOŠNA BOLNIŠNICA IZOLA,"Polje 40, IZOLA/ISOLA","Med tednom: 11:30 - 16:00
Sobota: Zaprto
Nedelja / Prazniki: Zaprto","2,37",45.5444241,13.6870967
SREDNJA ŠOLA IZOLA - SCUOLA MEDIA ISOLA,"Prekomorskih brigad 7, IZOLA/ISOLA","Med tednom: 11:30 - 15:30
Sobota: Zaprto
Nedelja / Prazniki: Zaprto","2,00",45.5352719,13.6582594
STARA KRŠKA PIZZERIJA,"Cesta krških žrtev 59, KRŠKO","Med tednom: 09:00 - 21:00
Sobota: 09:00 - 21:00
Nedelja / Prazniki: Zaprto","3,37",45.9620105,15.4859981
STARA KRŠKA PIZZERIJA - DOSTAVA,"Cesta krških žrtev 59, KRŠKO","Med tednom: 09:00 - 21:00
Sobota: 09:00 - 21:00
Nedelja / Prazniki: Zaprto","3,57",45.9620105,15.4859981
SUBWAY,"Dunajska cesta 115a, LJUBLJANA","Med tednom: 08:00 - 21:00
Sobota: 08:00 - 21:00
Nedelja / Prazniki: 09:00 - 21:00","1,50",46.0589662,14.5064647
SUBWAY,"Slovenska cesta 1, LJUBLJANA","Med tednom: 08:00 - 21:00
Sobota: 08:00 - 21:00
Nedelja / Prazniki: 08:00 - 21:00","1,50",46.0469188,14.5009328
SUBWAY BTC,"Šmartinska cesta 152, LJUBLJANA","Med tednom: 08:00 - 21:00
Sobota: 08:00 - 21:00
Nedelja / Prazniki: 09:00 - 21:00","1,50",46.0681081,14.5420462
ŠEHEREZADA,"Trubarjeva cesta 31, LJUBLJANA","Med tednom: 09:00 - 20:00
Sobota: 09:00 - 20:00
Nedelja / Prazniki: 12:00 - 20:00","1,37",46.0525259,14.5098328
ŠOLSKI CENTER ŠENTJUR,"Cesta na Kmetijsko šolo 9, ŠENTJUR","Med tednom: 11:00 - 15:00
Sobota: Zaprto
Nedelja / Prazniki: Zaprto","0,87",46.2166628,15.4103907
ŠTUDENTSKI DOM LJUBLJANA - RESTAVRACIJA,"Svetčeva ulica 9, LJUBLJANA","Med tednom: 11:00 - 17:00
Sobota: Zaprto
Nedelja / Prazniki: Zaprto","3,10",46.051935,14.487097
TAJSKA RESTAVRACIJA BANGKOK STREET,"Šmartinska 152g, LJUBLJANA","Med tednom: 11:00 - 20:00
Sobota: 11:00 - 20:00
Nedelja / Prazniki: 11:00 - 15:00","3,67",46.0559583,14.5192882
TAKOS ,"Mesarski prehod 3, MARIBOR","Med tednom: 11:00 - 21:00
Sobota: 12:00 - 21:00
Nedelja / Prazniki: Zaprto","3,57",46.5570071,15.644949
TAKOS DOS,"Pobreška cesta 18, MARIBOR","Med tednom: 11:00 - 21:00
Sobota: 11:00 - 20:00
Nedelja / Prazniki: 11:00 - 15:00","4,37",46.5539774,15.6531441
TANDORI CAFE,"Ilirska ulica 8, LJUBLJANA","Med tednom: 11:00 - 21:00
Sobota: 12:00 - 21:00
Nedelja / Prazniki: 13:00 - 21:00","3,30",46.0526566,14.5143852
TANDORI CAFE - DOSTAVA,"Ilirska ulica 8, LJUBLJANA","Med tednom: 11:00 - 21:00
Sobota: 12:00 - 21:00
Nedelja / Prazniki: 13:00 - 21:00","3,70",46.0526566,14.5143852
TASTY SNACKS,"Cafova ulica 4, MARIBOR","Ponedeljek: 08:00 - 16:00
Torek: 08:00 - 16:00
Sreda: 08:00 - 16:00
Četrtek: 08:00 - 16:00
Petek: 08:00 - 16:00
Sobota: Zaprto
Nedelja / Prazniki: Zaprto","0,00",46.5613248,15.6554562
TAVERNA SICILIA,"Ulica Heroja Nandeta 31, MARIBOR","Med tednom: 10:00 - 21:00
Sobota: 11:00 - 21:00
Nedelja / Prazniki: 11:00 - 16:00","3,57",46.5326581,15.673326
TAVERNA SICILIA - DOSTAVA,"Ulica Heroja Nandeta 31, MARIBOR","Med tednom: 10:00 - 21:00
Sobota: 11:00 - 21:00
Nedelja / Prazniki: 11:00 - 16:00","3,57",46.5326581,15.673326
TRATTORIA PADRINO,"Žitna ulica 12, MARIBOR","Med tednom: 11:00 - 20:00
Sobota: 11:00 - 20:00
Nedelja / Prazniki: Zaprto","3,50",46.5494712,15.6434269
TRATTORIA PORTOFINO,"Tržaška cesta 65, MARIBOR","Med tednom: 10:00 - 14:00
Sobota: Zaprto
Nedelja / Prazniki: Zaprto","3,00",46.5233287,15.6493216
TUŠ RESTAVRACIJA MARIBOR STUDENCI (PLANET TUŠ),"Na Poljanah 18, MARIBOR","Med tednom: 09:00 - 19:00
Sobota: 09:00 - 19:00
Nedelja / Prazniki: Zaprto","2,99",46.552389,15.628109
UFO,"Svetčeva ulica 14, LJUBLJANA","Med tednom: 11:00 - 21:00
Sobota: 12:00 - 21:00
Nedelja / Prazniki: Zaprto","2,98",46.051198,14.4867877
UN MOMENTO-PIZZA TIME,"Pobreška cesta 18, MARIBOR","Med tednom: 09:00 - 21:00
Sobota: 08:00 - 21:00
Nedelja / Prazniki: 09:00 - 15:00","0,80",46.5539774,15.6531441
"UTRIP - BAR, BISTRO IN KAVARNA","Šmartinska cesta 3, LJUBLJANA","Med tednom: 11:00 - 21:00
Sobota: 11:00 - 21:00
Nedelja / Prazniki: 11:00 - 21:00","4,37",46.056135,14.519132
V PARKU,"Rimska cesta 13, LJUBLJANA","Med tednom: 09:00 - 21:00
Sobota: 09:00 - 18:00
Nedelja / Prazniki: Zaprto","0,00",46.047437,14.4998794
VEGETARIJANSKA OKREPČEVALNICA HOLYFOOD,"Igriška 5, LJUBLJANA","Med tednom: 09:00 - 20:00
Sobota: Zaprto
Nedelja / Prazniki: Zaprto","0,00",46.0484872,14.4999125
VEGETARIJANSKA RESTAVRACIJA RADHA GOVINDA,"Žibretova 23, LJUBLJANA","Med tednom: 11:00 - 19:00
Sobota: 11:00 - 18:00
Nedelja / Prazniki: Zaprto","3,50",46.062892,14.4989731
VILLAGE SNACKS,"Turnerjeva ulica 17, MARIBOR","Ponedeljek: 08:00 - 20:30
Torek: 08:00 - 20:30
Sreda: 08:00 - 20:30
Četrtek: 08:00 - 20:30
Petek: 08:00 - 15:00
Sobota: Zaprto
Nedelja / Prazniki: Zaprto","0,50",46.5628445,15.6298367
VOLTA,"Tržaška cesta 18, LJUBLJANA","Med tednom: 10:00 - 17:00
Sobota: Zaprto
Nedelja / Prazniki: Zaprto","3,00",46.0457011,14.4896537
VOZI MIŠKO (MC ŠIŠKA),"Cesta Ljubljanske brigade 33, LJUBLJANA","Med tednom: 10:00 - 20:00
Sobota: 10:00 - 20:00
Nedelja / Prazniki: 10:00 - 15:00","4,37",46.0892556,14.4771914
WOK MIX OKREPČEVALNICA,"Vetrinjska ulica 15, MARIBOR","Med tednom: 10:00 - 20:00
Sobota: 10:00 - 20:00
Nedelja / Prazniki: Zaprto","2,70",46.5593704,15.647724
XIAO FENG,"Bazoviška ulica 6, NOVA GORICA","Med tednom: 11:00 - 21:00
Sobota: 11:00 - 21:00
Nedelja / Prazniki: 11:00 - 21:00","3,30",45.9563076,13.6401351
ZBORNICA BAR IN ŽAR,"Rimska cesta 13, LJUBLJANA","Med tednom: 16:00 - 21:00
Sobota: 16:00 - 21:00
Nedelja / Prazniki: Zaprto","4,37",46.047428,14.4998576
ZLATI KROŽNIK,"Ljubljanska cesta 89, DOMŽALE","Med tednom: 11:00 - 20:00
Sobota: 11:00 - 20:00
Nedelja / Prazniki: 11:00 - 20:00","3,50",46.1415951,14.5948293
ZNANSTVENA KAVARNA MAFIJA,"Jadranska ulica 21, LJUBLJANA","Med tednom: 08:00 - 16:00
Sobota: Zaprto
Nedelja / Prazniki: Zaprto","0,00",46.0419603,14.4899295
ŽITO LEON ŠTUKELJ MARIBOR,"Trg Leona Štuklja 1, MARIBOR","Med tednom: 08:00 - 19:00
Sobota: Zaprto
Nedelja / Prazniki: Zaprto","0,00",46.5592387,15.6484212
ŽITO LJUBLANA ŽELEZNIŠKA (KOLODVOR),"Trg OF 7, LJUBLJANA","Med tednom: 08:00 - 19:00
Sobota: 08:00 - 12:00
Nedelja / Prazniki: Zaprto","0,00",46.0579939,14.5114823
ŽITO LJUBLJANA BAVARSKI DVOR,"Slovenska cesta 58, LJUBLJANA","Med tednom: 08:00 - 19:00
Sobota: 08:00 - 12:00
Nedelja / Prazniki: Zaprto","0,00",46.0569106,14.505859
ŽITO LJUBLJANA VODNIK,"Vodnikov trg 5, LJUBLJANA","Med tednom: 08:00 - 19:00
Sobota: 08:00 - 12:00
Nedelja / Prazniki: Zaprto","0,00",46.0506123,14.5092262
