<?xml version="1.0" encoding="UTF-8" standalone="no"?>
<!-- Created with Inkscape (http://www.inkscape.org/) -->

<svg
   xmlns:dc="http://purl.org/dc/elements/1.1/"
   xmlns:cc="http://creativecommons.org/ns#"
   xmlns:rdf="http://www.w3.org/1999/02/22-rdf-syntax-ns#"
   xmlns:svg="http://www.w3.org/2000/svg"
   xmlns="http://www.w3.org/2000/svg"
   xmlns:sodipodi="http://sodipodi.sourceforge.net/DTD/sodipodi-0.dtd"
   xmlns:inkscape="http://www.inkscape.org/namespaces/inkscape"
   width="850"
   height="250"
   viewBox="0 0 224.89583 66.145835"
   version="1.1"
   id="svg8"
   inkscape:version="0.92.4 (5da689c313, 2019-01-14)"
   sodipodi:docname="logo.svg">
  <defs
     id="defs2" />
  <sodipodi:namedview
     id="base"
     pagecolor="#999999"
     bordercolor="#666666"
     borderopacity="1.0"
     inkscape:pageopacity="0.0"
     inkscape:pageshadow="2"
     inkscape:zoom="0.98994949"
     inkscape:cx="437.70795"
     inkscape:cy="229.10982"
     inkscape:document-units="mm"
     inkscape:current-layer="layer1"
     showgrid="false"
     units="px"
     inkscape:window-width="1920"
     inkscape:window-height="996"
     inkscape:window-x="-8"
     inkscape:window-y="-8"
     inkscape:window-maximized="1" />
  <metadata
     id="metadata5">
    <rdf:RDF>
      <cc:Work
         rdf:about="">
        <dc:format>image/svg+xml</dc:format>
        <dc:type
           rdf:resource="http://purl.org/dc/dcmitype/StillImage" />
        <dc:title />
      </cc:Work>
    </rdf:RDF>
  </metadata>
  <g
     inkscape:label="Layer 1"
     inkscape:groupmode="layer"
     id="layer1"
     transform="translate(0,-230.85415)">
    <g
       style="display:inline;fill:#000000;fill-opacity:0.56650245"
       id="g872-4"
       transform="matrix(3.9659457,0,0,3.9659457,-125.09446,213.72852)">
      <path
         id="path827-3"
         transform="scale(0.26458333)"
         d="M 299.63672,23.21875 A 26.895312,26.011429 0 0 0 272.74023,49.230469 26.895312,26.011429 0 0 0 299.63672,75.240234 26.895312,26.011429 0 0 0 326.53125,49.230469 26.895312,26.011429 0 0 0 299.63672,23.21875 Z m 0.63086,5.591797 A 21.448883,19.13643 0 0 1 321.7168,47.947266 21.448883,19.13643 0 0 1 300.26758,67.082031 21.448883,19.13643 0 0 1 278.81836,47.947266 21.448883,19.13643 0 0 1 300.26758,28.810547 Z"
         style="fill:#000000;fill-opacity:0.56650245;stroke:#000000;stroke-width:0;stroke-miterlimit:4;stroke-dasharray:none;stroke-opacity:0"
         inkscape:connector-curvature="0" />
      <path
         inkscape:connector-curvature="0"
         id="path862-7"
         d="m 80.367186,15.237165 c 0,0 0.425223,-0.02362 0.755952,-0.425223 0.330729,-0.4016 0.401601,-0.779576 0.401601,-0.779576 0,0 1.13393,0.661458 1.417409,0.141741 0.283483,-0.519718 -1.110302,-1.063058 -1.110302,-1.063058 0,0 0.897691,-1.204799 0.377976,-1.34654 -0.519719,-0.141741 -1.27567,0.94494 -1.27567,0.94494 0,0 -1.039435,-0.330729 -1.299295,0.07087 -0.259858,0.401599 0.850447,0.94494 0.850447,0.94494 0,0 -0.921316,1.063058 -0.118118,1.511905 z"
         style="fill:#000000;fill-opacity:0.56650245;stroke:#000000;stroke-width:0;stroke-miterlimit:4;stroke-dasharray:none;stroke-opacity:0" />
      <path
         id="path864-0"
         transform="scale(0.26458333)"
         d="m 295.7168,34.417969 c -3.29835,0.01465 -6.37501,3.617186 -9.10938,6.742187 -3.125,3.571427 -5.17857,8.215405 -3.75,9.554688 1.42858,1.339287 4.91016,-5.53711 4.91016,-5.53711 0,0 1.25028,1.518693 2.85742,2.322266 1.60714,0.803573 3.57227,1.517578 3.57227,1.517578 0,0 -1.8764,9.464565 0.71289,9.107422 2.58928,-0.357128 2.76924,-6.428569 3.03711,-10 0.26785,-3.571427 3.03459,-12.232422 -0.80469,-13.482422 -0.47991,-0.15625 -0.95459,-0.226702 -1.42578,-0.224609 z m -0.37305,3.763672 c 0.88388,0.189403 0.125,1.009629 0.125,2.966797 0,1.957171 -0.50391,3.724609 -0.50391,3.724609 0,0 -1.26207,-0.819779 -2.58789,-1.261719 -1.32583,-0.441948 -2.58984,-0.757812 -2.58984,-0.757812 0,0 1.45264,-1.452687 2.08398,-2.273438 0.63135,-0.820747 2.58878,-2.58783 3.47266,-2.398437 z"
         style="fill:#000000;fill-opacity:0.56650245;stroke:#000000;stroke-width:0;stroke-miterlimit:4;stroke-dasharray:none;stroke-opacity:0"
         inkscape:connector-curvature="0" />
    </g>
    <path
       inkscape:connector-curvature="0"
       id="path820"
       style="font-style:normal;font-variant:normal;font-weight:bold;font-stretch:normal;font-size:133.33338928px;line-height:1.25;font-family:'Segoe Print';-inkscape-font-specification:'Segoe Print Bold';text-align:start;text-anchor:start;fill:#000000;fill-opacity:1;stroke:none;stroke-width:0.5;stroke-miterlimit:4;stroke-dasharray:none;stroke-opacity:1"
       d="m 24.958068,253.20294 q 0,-1.70532 -0.8785,-2.35989 -0.878499,-0.67179 -2.583822,-0.67179 -2.911107,0 -5.408802,1.42971 -2.48047,1.41249 -2.48047,3.11781 0,1.08521 0.930176,1.86036 0.947402,0.75792 4.857587,1.8948 4.099665,1.18856 6.080596,2.61828 1.998155,1.41248 1.998155,3.41064 0,3.32452 -5.064292,6.09782 -5.064292,2.75608 -10.524771,2.75608 -1.774224,0 -2.8422044,-0.7407 -1.0679801,-0.74069 -1.0679801,-1.8259 0,-0.86127 0.4823135,-1.60197 0.4823137,-0.74069 1.1541074,-0.74069 0.4134116,0 0.7579216,0.1378 1.808676,0.77515 3.376195,0.77515 2.687175,0 6.028919,-1.49862 3.35897,-1.51584 3.35897,-2.96278 0,-0.60289 -0.844049,-1.15411 -0.826823,-0.56844 -3.39342,-1.41249 -3.73793,-1.22301 -5.632734,-2.01538 -1.877578,-0.79238 -2.85943,-2.06706 -0.9646274,-1.29191 -0.9646274,-3.10059 0,-3.22116 3.7551554,-5.99447 3.755156,-2.7733 8.819448,-2.7733 2.911107,0 4.581979,1.15411 1.688097,1.15411 1.688097,2.6355 0,3.03168 -3.324518,3.03168 z" />
    <path
       inkscape:connector-curvature="0"
       id="path822"
       style="font-style:normal;font-variant:normal;font-weight:bold;font-stretch:normal;font-size:133.33338928px;line-height:1.25;font-family:'Segoe Print';-inkscape-font-specification:'Segoe Print Bold';text-align:start;text-anchor:start;fill:#000000;fill-opacity:1;stroke:none;stroke-width:0.5;stroke-miterlimit:4;stroke-dasharray:none;stroke-opacity:1"
       d="m 38.841808,257.73325 q -0.155027,0 -0.981853,3.84128 -0.809596,3.84128 -0.809596,4.65088 0,1.41249 0.292833,1.98093 0.310057,0.55121 0.999077,0.55121 0.964629,0 1.843128,-0.32728 0.895725,-0.34451 2.342665,-1.51584 0.895726,-0.7407 1.515843,-0.7407 0.499539,0 0.792372,0.29283 0.31006,0.27561 0.31006,0.65457 0,1.51585 -2.44602,3.4451 -2.446018,1.91203 -5.167644,1.91203 -2.273765,0 -3.479548,-1.34359 -1.188559,-1.34359 -1.188559,-3.85851 0,-2.32544 1.739773,-9.28453 -1.102431,0.12058 -1.533067,0.12058 h -0.361736 q -0.792371,0 -1.619194,-0.51677 -0.809599,-0.51676 -0.809599,-1.65365 0,-1.44694 1.636422,-1.44694 l 3.686254,-0.1378 q 0.723469,-2.08428 1.533067,-5.46048 0.482315,-2.10151 2.187636,-2.10151 0.947402,0 1.481392,0.58567 0.53399,0.56844 0.53399,1.27469 0,0.2756 -1.464165,5.32267 5.477703,-0.48231 6.011693,-0.48231 0.91295,0 1.205783,0.2756 0.292833,0.25839 0.292833,1.01631 0,1.53306 -2.601047,1.94648 z" />
    <path
       inkscape:connector-curvature="0"
       id="path824"
       style="font-style:normal;font-variant:normal;font-weight:bold;font-stretch:normal;font-size:133.33338928px;line-height:1.25;font-family:'Segoe Print';-inkscape-font-specification:'Segoe Print Bold';text-align:start;text-anchor:start;fill:#000000;fill-opacity:1;stroke:none;stroke-width:0.5;stroke-miterlimit:4;stroke-dasharray:none;stroke-opacity:1"
       d="m 52.587748,263.1765 0.292833,-0.55122 q 2.084284,-4.18579 4.478626,-6.78684 2.411568,-2.61827 4.702556,-2.61827 1.757,0 2.859431,0.96462 1.119656,0.96463 1.119656,2.29099 0,0.82683 -0.37896,1.42972 -0.37896,0.58567 -1.050756,0.58567 -1.06798,0 -1.946478,-0.8785 -0.620118,-0.56844 -0.981853,-0.56844 -1.29191,0 -4.323596,4.01353 -3.031686,4.01354 -3.651803,9.02616 -0.189482,1.44694 -0.84405,2.01538 -0.654566,0.58567 -1.774224,0.58567 -1.188559,0 -1.688098,-1.34359 -0.499538,-1.36082 -0.499538,-4.42695 0,-1.25746 0.0689,-3.39342 0.0689,-2.01538 0.396184,-4.92649 0.08613,-0.75792 0.120578,-1.18856 0.15503,-1.6881 0.344512,-2.30821 0.206706,-0.63735 0.930174,-1.18856 0.723472,-0.55122 1.60197,-0.55122 0.930177,0 1.412492,0.53399 0.482311,0.53399 0.482311,1.17134 0,0.80959 -0.775144,3.35896 -0.275609,0.8785 -0.46509,2.10151 z" />
    <path
       inkscape:connector-curvature="0"
       id="path826"
       style="font-style:normal;font-variant:normal;font-weight:bold;font-stretch:normal;font-size:133.33338928px;line-height:1.25;font-family:'Segoe Print';-inkscape-font-specification:'Segoe Print Bold';text-align:start;text-anchor:start;fill:#000000;fill-opacity:1;stroke:none;stroke-width:0.5;stroke-miterlimit:4;stroke-dasharray:none;stroke-opacity:1"
       d="m 77.995333,265.9498 q -4.530304,5.97724 -8.750548,5.97724 -1.550292,0 -2.66995,-1.223 -1.119656,-1.22301 -1.119656,-3.11782 0,-4.56475 4.065214,-9.71517 4.065215,-5.16765 8.199332,-5.16765 2.101508,0 2.756077,2.11874 1.98093,0 1.98093,1.51584 0,0.72347 -0.37896,2.61827 -0.68902,3.54845 -0.68902,5.66719 0,2.20486 0.292833,3.10059 0.31006,0.89572 0.447863,1.17133 0.137805,0.27561 0.826823,0.58567 0.68902,0.32728 0.68902,0.91295 0,0.87849 -0.895726,1.46416 -0.878499,0.58567 -1.843127,0.58567 -3.238389,0 -2.911105,-6.49401 z m -1.033531,-9.56014 q -1.739773,0 -4.530302,3.85851 -2.773301,3.84128 -2.773301,6.52845 0,1.41249 0.585666,1.41249 2.032605,0 4.995388,-3.60012 2.98001,-3.61735 2.98001,-6.32175 0,-0.86128 -0.396187,-1.36082 -0.37896,-0.51676 -0.861274,-0.51676 z" />
    <path
       inkscape:connector-curvature="0"
       id="path828"
       style="font-style:normal;font-variant:normal;font-weight:bold;font-stretch:normal;font-size:133.33338928px;line-height:1.25;font-family:'Segoe Print';-inkscape-font-specification:'Segoe Print Bold';text-align:start;text-anchor:start;fill:#000000;fill-opacity:1;stroke:none;stroke-width:0.5;stroke-miterlimit:4;stroke-dasharray:none;stroke-opacity:1"
       d="m 96.409375,246.12327 q 0,1.22301 -1.102431,2.15318 -1.102432,0.91296 -1.91203,0.91296 -1.033529,0 -1.843127,-0.86128 -0.792372,-0.86127 -0.792372,-1.72255 0,-1.24023 0.792372,-1.99815 0.792374,-0.77515 2.273765,-0.77515 1.154108,0 1.860352,0.68902 0.723471,0.67179 0.723471,1.60197 z m -8.31991,14.15935 v 0.0172 q 0.551217,-3.13504 0.551217,-3.5829 0,-1.27468 0.551215,-2.13596 0.568441,-0.86127 1.567518,-0.86127 1.171334,0 1.825903,0.55121 0.654566,0.55122 0.654566,1.24024 0,0.68902 -0.637342,2.8422 l -0.103354,0.37896 q -0.947401,3.32452 -1.13688,5.42603 -0.189481,2.10151 -0.189481,3.39342 0,1.05075 0.361735,2.80775 0.05168,0.31006 0.05168,0.51677 0,0.39618 -0.75792,1.06798 -0.740696,0.67179 -1.60197,0.67179 -2.273766,0 -2.273766,-3.44509 0,-2.92834 0.826826,-7.13135 0.172254,-0.93018 0.310057,-1.757 z" />
    <path
       inkscape:connector-curvature="0"
       id="path830"
       style="font-style:normal;font-variant:normal;font-weight:bold;font-stretch:normal;font-size:133.33338928px;line-height:1.25;font-family:'Segoe Print';-inkscape-font-specification:'Segoe Print Bold';text-align:start;text-anchor:start;fill:#000000;fill-opacity:1;stroke:none;stroke-width:0.5;stroke-miterlimit:4;stroke-dasharray:none;stroke-opacity:1"
       d="m 108.7945,266.44934 q -1.91203,2.15318 -4.4614,3.54845 -2.53215,1.37804 -4.375273,1.37804 -1.8259,0 -2.842205,-1.06798 -0.999077,-1.06798 -0.999077,-2.94556 0,-2.66995 2.015382,-5.94279 2.032613,-3.27284 5.615513,-5.68441 3.60012,-2.42879 6.47678,-2.42879 1.58474,0 2.73885,0.86127 0.27561,0.20671 0.48231,0.34451 0.41341,0.29283 0.75792,1.08521 0.36174,0.77514 0.36174,1.25745 0,0.31006 -0.65457,2.08429 -0.67179,1.84313 -0.9474,3.5829 -0.25838,1.72255 -1.05075,8.62997 -0.70625,6.01169 -3.35897,8.78499 -2.65273,2.77331 -5.89112,2.77331 -3.393421,0 -6.597361,-2.29099 -3.186715,-2.27377 -3.186715,-3.75516 0,-1.30913 1.274685,-1.30913 0.499539,0 2.032609,0.99907 3.927412,2.58383 6.735162,2.58383 2.13596,0 3.5829,-2.68718 1.44694,-2.66995 2.29099,-9.8013 z m 0.41341,-9.57737 q -1.27468,0 -3.34174,1.53307 -2.06706,1.51584 -3.82406,4.09966 -1.757,2.58383 -1.757,4.28915 0,0.89572 0.65457,0.89572 2.22209,0 4.40973,-1.79144 2.18763,-1.80868 3.53122,-4.15135 1.36081,-2.34266 1.36081,-3.54845 0,-0.60289 -0.31006,-0.96462 -0.31005,-0.36174 -0.72347,-0.36174 z" />
    <path
       inkscape:connector-curvature="0"
       id="path832"
       style="font-style:normal;font-variant:normal;font-weight:bold;font-stretch:normal;font-size:133.33338928px;line-height:1.25;font-family:'Segoe Print';-inkscape-font-specification:'Segoe Print Bold';text-align:start;text-anchor:start;fill:#000000;fill-opacity:1;stroke:none;stroke-width:0.5;stroke-miterlimit:4;stroke-dasharray:none;stroke-opacity:1"
       d="m 121.0935,263.77939 q 2.85943,-5.35713 4.92649,-7.28638 2.08428,-1.94648 4.20302,-1.94648 1.46416,0 2.42879,1.0163 0.98185,0.99908 1.42971,5.23655 0.18949,2.01538 0.48232,3.25562 0.29283,1.24023 0.65457,2.20486 0.36173,0.9474 1.03353,1.79145 0.51676,0.67179 0.51676,1.29191 0,0.62012 -0.60289,1.13688 -0.58567,0.51677 -1.36081,0.51677 -1.53307,0 -2.72163,-1.67087 -1.18856,-1.67088 -1.41249,-4.61643 -0.27561,-3.60013 -0.60289,-4.59921 -0.31006,-0.99908 -1.05076,-0.99908 -0.99907,0 -3.89296,3.99632 -2.87665,3.97908 -4.15134,6.37343 -0.79237,1.80867 -1.22301,2.34266 -0.43063,0.53399 -1.06798,0.53399 -1.05075,0 -1.70532,-0.51676 -0.65457,-0.51677 -0.65457,-1.46417 0,-0.46509 0.46509,-2.91111 1.757,-9.25008 2.87665,-19.68873 0.27561,-2.51492 1.05076,-3.46232 0.79237,-0.96462 1.44694,-0.96462 0.91295,0 1.58475,0.70624 0.67179,0.70625 0.67179,1.96371 0,1.92925 -0.46509,4.44417 -0.46509,2.51492 -1.73977,8.02708 -0.77515,3.32451 -1.11966,5.28822 z" />
    <path
       inkscape:connector-curvature="0"
       id="path834"
       style="font-style:normal;font-variant:normal;font-weight:bold;font-stretch:normal;font-size:133.33338928px;line-height:1.25;font-family:'Segoe Print';-inkscape-font-specification:'Segoe Print Bold';text-align:start;text-anchor:start;fill:#000000;fill-opacity:1;stroke:none;stroke-width:0.5;stroke-miterlimit:4;stroke-dasharray:none;stroke-opacity:1"
       d="m 146.25993,257.73325 q -0.15503,0 -0.98186,3.84128 -0.80959,3.84128 -0.80959,4.65088 0,1.41249 0.29283,1.98093 0.31006,0.55121 0.99908,0.55121 0.96463,0 1.84312,-0.32728 0.89573,-0.34451 2.34267,-1.51584 0.89573,-0.7407 1.51584,-0.7407 0.49954,0 0.79237,0.29283 0.31006,0.27561 0.31006,0.65457 0,1.51585 -2.44602,3.4451 -2.44601,1.91203 -5.16764,1.91203 -2.27376,0 -3.47955,-1.34359 -1.18856,-1.34359 -1.18856,-3.85851 0,-2.32544 1.73978,-9.28453 -1.10243,0.12058 -1.53307,0.12058 h -0.36174 q -0.79237,0 -1.61919,-0.51677 -0.8096,-0.51676 -0.8096,-1.65365 0,-1.44694 1.63642,-1.44694 l 3.68625,-0.1378 q 0.72348,-2.08428 1.53307,-5.46048 0.48232,-2.10151 2.18764,-2.10151 0.9474,0 1.48139,0.58567 0.53399,0.56844 0.53399,1.27469 0,0.2756 -1.46417,5.32267 5.47771,-0.48231 6.0117,-0.48231 0.91295,0 1.20578,0.2756 0.29284,0.25839 0.29284,1.01631 0,1.53306 -2.60105,1.94648 z" />
    <g
       style="display:inline;fill:#fe0000;fill-opacity:1"
       id="g872"
       transform="matrix(3.9659458,0,0,3.9659458,-125.71471,212.26942)">
      <path
         id="path827"
         transform="scale(0.26458333)"
         d="M 299.63672,23.21875 A 26.895312,26.011429 0 0 0 272.74023,49.230469 26.895312,26.011429 0 0 0 299.63672,75.240234 26.895312,26.011429 0 0 0 326.53125,49.230469 26.895312,26.011429 0 0 0 299.63672,23.21875 Z m 0.63086,5.591797 A 21.448883,19.13643 0 0 1 321.7168,47.947266 21.448883,19.13643 0 0 1 300.26758,67.082031 21.448883,19.13643 0 0 1 278.81836,47.947266 21.448883,19.13643 0 0 1 300.26758,28.810547 Z"
         style="fill:#fe0000;fill-opacity:1;stroke:#000000;stroke-width:0;stroke-miterlimit:4;stroke-dasharray:none;stroke-opacity:0"
         inkscape:connector-curvature="0" />
      <path
         inkscape:connector-curvature="0"
         id="path862"
         d="m 80.367186,15.237165 c 0,0 0.425223,-0.02362 0.755952,-0.425223 0.330729,-0.4016 0.401601,-0.779576 0.401601,-0.779576 0,0 1.13393,0.661458 1.417409,0.141741 0.283483,-0.519718 -1.110302,-1.063058 -1.110302,-1.063058 0,0 0.897691,-1.204799 0.377976,-1.34654 -0.519719,-0.141741 -1.27567,0.94494 -1.27567,0.94494 0,0 -1.039435,-0.330729 -1.299295,0.07087 -0.259858,0.401599 0.850447,0.94494 0.850447,0.94494 0,0 -0.921316,1.063058 -0.118118,1.511905 z"
         style="fill:#fe0000;fill-opacity:1;stroke:#000000;stroke-width:0;stroke-miterlimit:4;stroke-dasharray:none;stroke-opacity:0" />
      <path
         id="path864"
         transform="scale(0.26458333)"
         d="m 295.7168,34.417969 c -3.29835,0.01465 -6.37501,3.617186 -9.10938,6.742187 -3.125,3.571427 -5.17857,8.215405 -3.75,9.554688 1.42858,1.339287 4.91016,-5.53711 4.91016,-5.53711 0,0 1.25028,1.518693 2.85742,2.322266 1.60714,0.803573 3.57227,1.517578 3.57227,1.517578 0,0 -1.8764,9.464565 0.71289,9.107422 2.58928,-0.357128 2.76924,-6.428569 3.03711,-10 0.26785,-3.571427 3.03459,-12.232422 -0.80469,-13.482422 -0.47991,-0.15625 -0.95459,-0.226702 -1.42578,-0.224609 z m -0.37305,3.763672 c 0.88388,0.189403 0.125,1.009629 0.125,2.966797 0,1.957171 -0.50391,3.724609 -0.50391,3.724609 0,0 -1.26207,-0.819779 -2.58789,-1.261719 -1.32583,-0.441948 -2.58984,-0.757812 -2.58984,-0.757812 0,0 1.45264,-1.452687 2.08398,-2.273438 0.63135,-0.820747 2.58878,-2.58783 3.47266,-2.398437 z"
         style="fill:#fe0000;fill-opacity:1;stroke:#000000;stroke-width:0;stroke-miterlimit:4;stroke-dasharray:none;stroke-opacity:0"
         inkscape:connector-curvature="0" />
    </g>
  </g>
</svg>
